-5.39715 -5.40218
-5.4005 -5.4001
-5.40419 -5.39886
-5.39649 -5.39507
-5.3873 -5.39274
-5.38743 -5.38336
-5.36644 -5.37365
-5.40277 -5.40119
-5.36663 -5.37244
-5.36665 -5.37016
-5.36489 -5.36809
-5.39359 -5.38997
-5.39077 -5.38535
-5.39111 -5.38364
-5.36475 -5.36871
-5.36464 -5.36844
-5.36034 -5.36403
-5.36393 -5.36674
-5.34914 -5.34415
-5.39271 -5.38867
-5.37438 -5.3672
-5.36956 -5.36702
-5.36242 -5.35174
-5.34371 -5.34653
-5.34426 -5.34434
-5.33598 -5.33555
-5.33785 -5.33451
-5.34783 -5.35055
-5.34351 -5.34341
-5.35696 -5.35284
-5.35132 -5.35155
-5.34644 -5.34142
-5.26571 -5.2625
-5.24983 -5.26064
-5.27387 -5.27199
-5.22602 -5.22061
-5.33267 -5.32838
-5.32786 -5.32706
-5.31301 -5.31041
-5.20789 -5.20018
-5.19911 -5.18077
-5.18015 -5.18061
-5.27872 -5.26784
-5.26663 -5.26205
-5.21625 -5.21109
-5.19783 -5.19329
-5.14426 -5.14166
-5.37413 -5.37132
-5.36073 -5.35885
-5.35319 -5.35201
-5.35691 -5.35167
-5.34887 -5.34252
-5.2613 -5.25898
-5.25848 -5.24999
-5.23563 -5.22777
-5.19787 -5.1892
-5.1941 -5.18127
-5.32978 -5.32628
-5.33024 -5.324
-5.2149 -5.19961
-5.18461 -5.17564
-5.28065 -5.27212
-5.27185 -5.2636
-5.26886 -5.26023
-5.18884 -5.19549
-5.16412 -5.15755
-5.16181 -5.15701
-5.42113 -5.42257
-5.42036 -5.42219
-5.40964 -5.41435
-5.3934 -5.39538
-5.38357 -5.38965
-5.38281 -5.38451
-5.37267 -5.38017
-5.36662 -5.36635
-5.35895 -5.36599
-5.36862 -5.3736
-5.36959 -5.36968
-5.36505 -5.36356
-5.36008 -5.35508
-5.40789 -5.40242
-5.33705 -5.33777
-5.26821 -5.27808
-5.25341 -5.26407
-5.38096 -5.37027
-5.37679 -5.36869
-5.26085 -5.25585
-5.3502 -5.34584
-5.34274 -5.33797
-5.33597 -5.3379
-5.33531 -5.3343
-5.33477 -5.33353
-5.33983 -5.33203
-5.33505 -5.32984
-5.33922 -5.32858
-5.32679 -5.32213
-5.32459 -5.32187
-5.31722 -5.31521
-5.19731 -5.19928
-5.20043 -5.18567
-5.35408 -5.34185
-5.35382 -5.33509
-5.3503 -5.33481
-5.3535 -5.32895
-5.32265 -5.31579
-5.31775 -5.3153
-5.32167 -5.30626
-5.20064 -5.1929
-5.31711 -5.30328
-5.30922 -5.30258
-5.18051 -5.17913
-5.29012 -5.27537
-5.57307 -5.5799
-5.57217 -5.57902
-5.57073 -5.57708
-5.5697 -5.57666
-5.56868 -5.57592
-5.56847 -5.57573
-5.56874 -5.57469
-5.56755 -5.57413
-5.56668 -5.57248
-5.56615 -5.57176
-5.56432 -5.5706
-5.56349 -5.56895
-5.56243 -5.56833
-5.55967 -5.56562
-5.55981 -5.56546
-5.55946 -5.56486
-5.5581 -5.56416
-5.5563 -5.56178
-5.55374 -5.56021
-5.55332 -5.55922
-5.5521 -5.55734
-5.55027 -5.55569
-5.55152 -5.55553
-5.54999 -5.55546
-5.54936 -5.55404
-5.54442 -5.54966
-5.54413 -5.54962
-5.54477 -5.54904
-5.54511 -5.54843
-5.54487 -5.5481
-5.54361 -5.5475
-5.5438 -5.54726
-5.54197 -5.54718
-5.5393 -5.54424
-5.5385 -5.54374
-5.53889 -5.54348
-5.537 -5.54324
-5.53749 -5.54313
-5.53715 -5.54304
-5.53723 -5.54259
-5.53847 -5.54251
-5.5357 -5.5424
-5.53829 -5.54142
-5.53824 -5.54086
-5.53586 -5.54082
-5.53596 -5.54019
-5.53663 -5.53939
-5.53609 -5.53808
-5.53467 -5.53697
-5.53353 -5.53633
-5.53334 -5.53626
-5.52899 -5.53427
-5.52967 -5.53415
-5.52841 -5.533
-5.52595 -5.53098
-5.52503 -5.52983
-5.52593 -5.52941
-5.52952 -5.52882
-5.52876 -5.52844
-5.52951 -5.52774
-5.52425 -5.52711
-5.52552 -5.52686
-5.5223 -5.52599
-5.5206 -5.52542
-5.52332 -5.52467
-5.52101 -5.52224
-5.52003 -5.52223
-5.51901 -5.52165
-5.51629 -5.52025
-5.51281 -5.51754
-5.51346 -5.5169
-5.51432 -5.51573
-5.51409 -5.51559
-5.50887 -5.51391
-5.51365 -5.51361
-5.51195 -5.51344
-5.50838 -5.51343
-5.51695 -5.51321
-5.50675 -5.51041
-5.51066 -5.50976
-5.51141 -5.50917
-5.50203 -5.5072
-5.50547 -5.50575
-5.50151 -5.50528
-5.50063 -5.50265
-5.4972 -5.50186
-5.50408 -5.50121
-5.50143 -5.49872
-5.49402 -5.49827
-5.50077 -5.49802
-5.49313 -5.49791
-5.49207 -5.49664
-5.48797 -5.49253
-5.49448 -5.49195
-5.48473 -5.49048
-5.48835 -5.49039
-5.48469 -5.48288
-5.47632 -5.47556
-5.23794 -5.22517
-5.4654 -5.46992
-5.47425 -5.4695
-5.46817 -5.46943
-5.23001 -5.22037
-5.46434 -5.46471
-5.45341 -5.45875
-5.45982 -5.45782
-5.44799 -5.45039
-5.44849 -5.44475
-5.44318 -5.44388
-5.44167 -5.4398
-5.43509 -5.43734
-5.43581 -5.43655
-5.43512 -5.43536
-5.43818 -5.43441
-5.41655 -5.4214
-5.40913 -5.41358
-5.40813 -5.40851
-5.4053 -5.40647
-5.40566 -5.40298
-5.38717 -5.39036
-5.37333 -5.37913
-5.1247 -5.11283
-5.09744 -5.09204
-5.31368 -5.31681
-5.30828 -5.31398
-5.08552 -5.07202
-5.20956 -5.19818
-5.24345 -5.25662
-5.21728 -5.22407
-5.14689 -5.13515
-5.09946 -5.08565
-5.14278 -5.1344
-5.20923 -5.21662
-5.13793 -5.12982
-5.11023 -5.10277
-5.11215 -5.09236
-5.07004 -5.07104
-5.56461 -5.56964
-5.56305 -5.56879
-5.56116 -5.56657
-5.56136 -5.56638
-5.55976 -5.56498
-5.55947 -5.56472
-5.55836 -5.5632
-5.55478 -5.56072
-5.55493 -5.56064
-5.55843 -5.56059
-5.55393 -5.5598
-5.55324 -5.55872
-5.55299 -5.55776
-5.551 -5.55735
-5.5514 -5.55687
-5.54862 -5.55601
-5.55043 -5.55598
-5.55085 -5.5556
-5.55185 -5.555
-5.54981 -5.55447
-5.54863 -5.55421
-5.54599 -5.55281
-5.54828 -5.5526
-5.54827 -5.55222
-5.54471 -5.55038
-5.54539 -5.54992
-5.54205 -5.5493
-5.54231 -5.54858
-5.54085 -5.54781
-5.54651 -5.54688
-5.53906 -5.54412
-5.53799 -5.54354
-5.53931 -5.54345
-5.54194 -5.54325
-5.53829 -5.54317
-5.5443 -5.54302
-5.53728 -5.5428
-5.53612 -5.5413
-5.53446 -5.53866
-5.53519 -5.53813
-5.52997 -5.53472
-5.52916 -5.53457
-5.53266 -5.53424
-5.52839 -5.53379
-5.52928 -5.53327
-5.52872 -5.53292
-5.52802 -5.53262
-5.5256 -5.53138
-5.52675 -5.53023
-5.53404 -5.52921
-5.52337 -5.52791
-5.52557 -5.52602
-5.52706 -5.52524
-5.51875 -5.52306
-5.51522 -5.52113
-5.51465 -5.51811
-5.51284 -5.51787
-5.51589 -5.51602
-5.51232 -5.51404
-5.50916 -5.51361
-5.50617 -5.51294
-5.51195 -5.51276
-5.50808 -5.51207
-5.50815 -5.5115
-5.50623 -5.51142
-5.50726 -5.51108
-5.51926 -5.51098
-5.51271 -5.50937
-5.50942 -5.5084
-5.49825 -5.50369
-5.50459 -5.50274
-5.50103 -5.4987
-5.48974 -5.49542
-5.50206 -5.49503
-5.49227 -5.49479
-5.50477 -5.49461
-5.48416 -5.48954
-5.48287 -5.48657
-5.48108 -5.48341
-5.48434 -5.4822
-5.47988 -5.48172
-5.47295 -5.48118
-5.49571 -5.48117
-5.49182 -5.4807
-5.47329 -5.47889
-5.47367 -5.47755
-5.47658 -5.47624
-5.46829 -5.46538
-5.46492 -5.46482
-5.46741 -5.46399
-5.46283 -5.46395
-5.4811 -5.46242
-5.45929 -5.4532
-5.44058 -5.44406
-5.43548 -5.43454
-5.43759 -5.42728
-5.42095 -5.4223
-5.41325 -5.41792
-5.4125 -5.41049
-5.40191 -5.4062
-5.39925 -5.4029
-5.4219 -5.39079
-5.38186 -5.38618
-5.36087 -5.35738
-5.35221 -5.35645
-5.35144 -5.35369
-5.33654 -5.33825
-5.35524 -5.33429
-5.33751 -5.33249
-5.32503 -5.31979
-5.29608 -5.30008
-5.27625 -5.27109
-5.27043 -5.26466
-5.26215 -5.26152
-5.23395 -5.23679
-5.25465 -5.23149
-5.12736 -5.11903
-5.58777 -5.58623
-5.57849 -5.58161
-5.57733 -5.57784
-5.57536 -5.57412
-5.56979 -5.57064
-5.56934 -5.56827
-5.5658 -5.56726
-5.56237 -5.56447
-5.5613 -5.56195
-5.55867 -5.55626
-5.55395 -5.55473
-5.5512 -5.55309
-5.54955 -5.55103
-5.55142 -5.55047
-5.54997 -5.54926
-5.539 -5.54208
-5.54165 -5.54205
-5.53959 -5.54087
-5.53833 -5.53631
-5.53378 -5.53455
-5.53277 -5.52966
-5.52443 -5.52583
-5.52283 -5.52519
-5.53012 -5.52375
-5.51828 -5.51913
-5.52264 -5.51908
-5.51563 -5.51864
-5.51478 -5.51856
-5.52179 -5.51751
-5.51674 -5.51601
-5.51969 -5.5159
-5.52052 -5.51553
-5.51336 -5.51282
-5.50981 -5.51
-5.51172 -5.50349
-5.50599 -5.50348
-5.49903 -5.50297
-5.5018 -5.50145
-5.50068 -5.50105
-5.49249 -5.49864
-5.49612 -5.49864
-5.49781 -5.49724
-5.49919 -5.49657
-5.50697 -5.49618
-5.50018 -5.49615
-5.50563 -5.49575
-5.49623 -5.49513
-5.48613 -5.49306
-5.48734 -5.49238
-5.48891 -5.4869
-5.48864 -5.48667
-5.48762 -5.48643
-5.479 -5.48342
-5.48504 -5.48217
-5.47396 -5.47974
-5.48476 -5.47859
-5.47888 -5.47798
-5.4847 -5.47683
-5.47659 -5.47561
-5.47027 -5.47488
-5.46903 -5.47417
-5.47382 -5.47289
-5.4744 -5.47153
-5.4758 -5.46926
-5.47032 -5.46901
-5.46242 -5.46807
-5.47242 -5.46752
-5.47076 -5.46699
-5.46321 -5.46641
-5.46453 -5.46626
-5.47118 -5.46578
-5.47488 -5.46437
-5.46123 -5.46427
-5.45797 -5.46391
-5.45781 -5.46331
-5.47308 -5.45943
-5.46301 -5.45919
-5.45737 -5.45555
-5.46215 -5.45444
-5.44676 -5.45341
-5.45526 -5.45214
-5.45122 -5.45161
-5.45909 -5.45058
-5.44587 -5.44916
-5.44767 -5.44864
-5.45018 -5.44835
-5.44129 -5.44757
-5.45003 -5.44743
-5.44548 -5.44714
-5.45414 -5.44689
-5.44037 -5.44672
-5.44167 -5.44662
-5.4539 -5.44646
-5.44404 -5.44636
-5.44955 -5.4453
-5.43874 -5.4421
-5.43506 -5.44182
-5.45123 -5.43778
-5.4353 -5.43741
-5.43368 -5.43634
-5.43407 -5.43627
-5.4363 -5.43532
-5.43669 -5.43518
-5.43211 -5.434
-5.43543 -5.43199
-5.42595 -5.42991
-5.43395 -5.42973
-5.43172 -5.4291
-5.42385 -5.42674
-5.42071 -5.42197
-5.42098 -5.42024
-5.42315 -5.42001
-5.41759 -5.4198
-5.41858 -5.4197
-5.4231 -5.41907
-5.41697 -5.41822
-5.41978 -5.41819
-5.42304 -5.41785
-5.41233 -5.4145
-5.40458 -5.41404
-5.41433 -5.41094
-5.40834 -5.41021
-5.40639 -5.40869
-5.40126 -5.40738
-5.4076 -5.40522
-5.39454 -5.40292
-5.40894 -5.40289
-5.39872 -5.40276
-5.39545 -5.40145
-5.39831 -5.40079
-5.40034 -5.39871
-5.39635 -5.3975
-5.39931 -5.39682
-5.39062 -5.39531
-5.39166 -5.39331
-5.38329 -5.39318
-5.39234 -5.39013
-5.38586 -5.38737
-5.37366 -5.38478
-5.38334 -5.38318
-5.38073 -5.38237
-5.39008 -5.3813
-5.3766 -5.37854
-5.37288 -5.37454
-5.36996 -5.37148
-5.37202 -5.36496
-5.36052 -5.36436
-5.36226 -5.36394
-5.35633 -5.35722
-5.35203 -5.35133
-5.34234 -5.35108
-5.35813 -5.35035
-5.34525 -5.3464
-5.34567 -5.34423
-5.34492 -5.34317
-5.35607 -5.3427
-5.32846 -5.34176
-5.32689 -5.33825
-5.3273 -5.33548
-5.33534 -5.33394
-5.32266 -5.32357
-5.31771 -5.31903
-5.30142 -5.30403
-5.30038 -5.30395
-5.27588 -5.2797
-5.25933 -5.27535
-5.25431 -5.26639
-5.25973 -5.2638
-5.24958 -5.25441
-5.2426 -5.24538
-5.24517 -5.24538
-5.24753 -5.23863
-5.21354 -5.20501
-5.19356 -5.19905
-5.20183 -5.19376
-5.18894 -5.19189
-5.1762 -5.17053
-5.09923 -5.11134
-5.11413 -5.10483
-5.08941 -5.09198
-5.08135 -5.09192
-5.07506 -5.07728
-5.03549 -5.03412
-5.02598 -5.03408
-5.02457 -5.03174
-4.98074 -4.9898
-4.97998 -4.98208
-4.96188 -4.95471
-4.96086 -4.95129
-4.93446 -4.93774
-4.76424 -4.7675
-4.73392 -4.73012
-4.65191 -4.65102
-4.62357 -4.6039
-4.48997 -4.48581
-4.33552 -4.34248
-4.28883 -4.28459
-5.51577 -5.51182
-5.50577 -5.50597
-5.48298 -5.49166
-5.49178 -5.49052
-5.48328 -5.48944
-5.48268 -5.48191
-5.48311 -5.48153
-5.47131 -5.4806
-5.47955 -5.47899
-5.47045 -5.47585
-5.47065 -5.46948
-5.4646 -5.46911
-5.46703 -5.46909
-5.46442 -5.4681
-5.46087 -5.46579
-5.45911 -5.46549
-5.4582 -5.46323
-5.45842 -5.46024
-5.45444 -5.45881
-5.47481 -5.45807
-5.45074 -5.45745
-5.45834 -5.45736
-5.45239 -5.45417
-5.45999 -5.45384
-5.45279 -5.45305
-5.45453 -5.45219
-5.44785 -5.45098
-5.45332 -5.44951
-5.4466 -5.44902
-5.4489 -5.44717
-5.44767 -5.44679
-5.44318 -5.44585
-5.44574 -5.44532
-5.44204 -5.44176
-5.43767 -5.43996
-5.44063 -5.43945
-5.43519 -5.43891
-5.43966 -5.43766
-5.4365 -5.43602
-5.43653 -5.43425
-5.43253 -5.43411
-5.43207 -5.43322
-5.42665 -5.43272
-5.4352 -5.43259
-5.43296 -5.43073
-5.43458 -5.42947
-5.42865 -5.42932
-5.42711 -5.42879
-5.42783 -5.42876
-5.42997 -5.42749
-5.42816 -5.42626
-5.4253 -5.42538
-5.43288 -5.42502
-5.42336 -5.4241
-5.44041 -5.42401
-5.42639 -5.42384
-5.42236 -5.42369
-5.42116 -5.42329
-5.42136 -5.42167
-5.42091 -5.42148
-5.41919 -5.4209
-5.41894 -5.4206
-5.42158 -5.42044
-5.41981 -5.42002
-5.42184 -5.41771
-5.43328 -5.4174
-5.4155 -5.41736
-5.41623 -5.41716
-5.41422 -5.41581
-5.41296 -5.41575
-5.41416 -5.4153
-5.41384 -5.41517
-5.41595 -5.41352
-5.40568 -5.41317
-5.41222 -5.412
-5.41136 -5.41174
-5.4084 -5.41052
-5.40929 -5.41013
-5.41169 -5.40908
-5.40652 -5.40724
-5.4014 -5.40679
-5.41103 -5.40646
-5.40773 -5.40595
-5.39866 -5.40588
-5.39971 -5.40575
-5.4037 -5.40535
-5.4031 -5.40314
-5.40408 -5.40156
-5.40296 -5.40027
-5.40687 -5.39977
-5.40006 -5.39762
-5.39342 -5.3948
-5.39305 -5.39435
-5.40876 -5.39263
-5.39511 -5.39215
-5.38666 -5.39195
-5.39209 -5.39152
-5.39461 -5.39103
-5.3918 -5.39046
-5.38852 -5.3901
-5.38909 -5.3886
-5.3862 -5.38839
-5.39022 -5.38632
-5.38404 -5.38601
-5.39123 -5.38521
-5.38302 -5.38479
-5.38299 -5.38324
-5.3852 -5.38304
-5.39321 -5.38254
-5.37636 -5.38248
-5.38525 -5.38106
-5.3858 -5.38093
-5.38858 -5.37965
-5.37933 -5.37923
-5.37681 -5.37462
-5.37465 -5.37433
-5.37061 -5.36993
-5.3739 -5.3697
-5.37929 -5.36779
-5.36841 -5.36614
-5.36982 -5.36196
-5.36437 -5.36103
-5.35894 -5.35848
-5.35724 -5.35725
-5.36356 -5.35706
-5.3553 -5.35681
-5.35061 -5.35485
-5.35207 -5.35419
-5.35167 -5.35122
-5.33993 -5.34511
-5.34241 -5.34233
-5.34334 -5.3419
-5.33652 -5.34125
-5.35411 -5.34095
-5.34928 -5.34094
-5.33683 -5.3389
-5.34066 -5.33748
-5.34005 -5.33569
-5.34154 -5.33363
-5.33774 -5.33188
-5.3316 -5.33164
-5.33122 -5.33144
-5.31987 -5.33094
-5.32943 -5.32737
-5.32778 -5.32708
-5.33168 -5.32574
-5.32315 -5.32485
-5.32523 -5.32443
-5.32862 -5.32281
-5.32188 -5.32237
-5.31927 -5.32189
-5.32156 -5.32098
-5.33786 -5.319
-5.31901 -5.31758
-5.31714 -5.3165
-5.30976 -5.30867
-5.30744 -5.3064
-5.31336 -5.3038
-5.30267 -5.30063
-5.29992 -5.30033
-5.30114 -5.29865
-5.28709 -5.29321
-5.28429 -5.28969
-5.27396 -5.2766
-5.27487 -5.27533
-5.27388 -5.27357
-5.26277 -5.2674
-5.27015 -5.26362
-5.26256 -5.26216
-5.25706 -5.25678
-5.25134 -5.25248
-5.24812 -5.25191
-5.23398 -5.22847
-5.22125 -5.21708
-5.21377 -5.21696
-5.21038 -5.20956
-5.19896 -5.1955
-5.19124 -5.19237
-5.20207 -5.19128
-5.18218 -5.18577
-5.18257 -5.17309
-5.16104 -5.1643
-5.14778 -5.14717
-5.14124 -5.14164
-5.12848 -5.12629
-5.11415 -5.11131
-5.11152 -5.10934
-5.10633 -5.10608
-5.10293 -5.10502
-5.0981 -5.09803
-5.0978 -5.09571
-5.10148 -5.09493
-5.0876 -5.08875
-5.08503 -5.08407
-5.07274 -5.06871
-5.05748 -5.06057
-5.04747 -5.05038
-5.0518 -5.04254
-5.03587 -5.0322
-5.0341 -5.02849
-5.02927 -5.02685
-5.00414 -5.00246
-5.00881 -5.00208
-4.92754 -4.92336
-4.88882 -4.88845
-5.58105 -5.58228
-5.57985 -5.5811
-5.57932 -5.58068
-5.57877 -5.58038
-5.578 -5.57927
-5.5776 -5.57905
-5.57825 -5.57898
-5.57755 -5.57888
-5.57692 -5.57884
-5.5766 -5.57801
-5.57692 -5.578
-5.57727 -5.57799
-5.57633 -5.5778
-5.57687 -5.57763
-5.57547 -5.57723
-5.57561 -5.57678
-5.575 -5.5767
-5.57542 -5.57643
-5.57482 -5.57579
-5.57444 -5.5754
-5.57344 -5.57515
-5.57321 -5.57377
-5.57225 -5.57372
-5.57206 -5.57351
-5.57239 -5.57314
-5.57145 -5.57295
-5.56994 -5.57266
-5.57177 -5.57253
-5.57056 -5.57246
-5.57018 -5.57242
-5.56991 -5.57231
-5.57003 -5.57178
-5.57177 -5.57177
-5.57098 -5.57176
-5.56957 -5.57093
-5.56923 -5.57026
-5.5696 -5.56998
-5.5683 -5.56991
-5.56824 -5.56969
-5.5688 -5.56968
-5.56921 -5.56893
-5.56466 -5.56828
-5.56753 -5.5681
-5.56583 -5.5674
-5.56645 -5.56736
-5.56619 -5.56719
-5.56592 -5.56716
-5.56569 -5.56661
-5.56626 -5.56651
-5.56688 -5.56643
-5.56587 -5.56613
-5.56453 -5.56566
-5.56571 -5.56552
-5.56486 -5.5653
-5.56462 -5.56518
-5.56547 -5.56487
-5.56415 -5.5648
-5.56494 -5.5648
-5.56361 -5.56465
-5.566 -5.56465
-5.55943 -5.56402
-5.56429 -5.56392
-5.56131 -5.56379
-5.56149 -5.56364
-5.56357 -5.56324
-5.56074 -5.56247
-5.56072 -5.56219
-5.56209 -5.56173
-5.56142 -5.56152
-5.56088 -5.56151
-5.55652 -5.5611
-5.55817 -5.56075
-5.56141 -5.56061
-5.55978 -5.56031
-5.55869 -5.5601
-5.55958 -5.56006
-5.56082 -5.55983
-5.55661 -5.55944
-5.55583 -5.55942
-5.55833 -5.5594
-5.55682 -5.5593
-5.5561 -5.55889
-5.55925 -5.55869
-5.55939 -5.55862
-5.55944 -5.55858
-5.55896 -5.55837
-5.55794 -5.55775
-5.55725 -5.55736
-5.55583 -5.55719
-5.55805 -5.55713
-5.55449 -5.55706
-5.55795 -5.55683
-5.55565 -5.55681
-5.55661 -5.55676
-5.5569 -5.55607
-5.55415 -5.55597
-5.55406 -5.55595
-5.55612 -5.55577
-5.55318 -5.55573
-5.55307 -5.5556
-5.55571 -5.55534
-5.55616 -5.55526
-5.556 -5.555
-5.55168 -5.55479
-5.55426 -5.5547
-5.55407 -5.55453
-5.55049 -5.55397
-5.5549 -5.55231
-5.55382 -5.55223
-5.55036 -5.55223
-5.54881 -5.5521
-5.54982 -5.55116
-5.54936 -5.55113
-5.55101 -5.55106
-5.55023 -5.55088
-5.55162 -5.5507
-5.54783 -5.55063
-5.55205 -5.55042
-5.54948 -5.55012
-5.54342 -5.54926
-5.54756 -5.54919
-5.5496 -5.54889
-5.54671 -5.54841
-5.55241 -5.54839
-5.55166 -5.54805
-5.54733 -5.5479
-5.54307 -5.54789
-5.5462 -5.54696
-5.54837 -5.54664
-5.54303 -5.54663
-5.54447 -5.54661
-5.5478 -5.5465
-5.54645 -5.54646
-5.542 -5.54622
-5.54702 -5.5462
-5.54201 -5.54591
-5.54488 -5.54587
-5.54131 -5.54545
-5.54779 -5.54536
-5.54246 -5.54525
-5.54431 -5.54499
-5.54507 -5.54498
-5.54016 -5.54498
-5.54577 -5.5447
-5.53898 -5.54432
-5.54685 -5.5443
-5.5472 -5.54426
-5.54524 -5.54391
-5.54445 -5.54385
-5.54355 -5.54382
-5.53793 -5.5432
-5.53867 -5.54315
-5.53903 -5.54297
-5.53939 -5.54271
-5.54295 -5.5426
-5.54106 -5.54248
-5.53977 -5.54235
-5.53627 -5.54213
-5.53969 -5.54194
-5.53827 -5.54183
-5.54669 -5.5418
-5.54092 -5.54178
-5.54167 -5.54169
-5.54151 -5.54144
-5.54051 -5.54118
-5.54063 -5.54055
-5.54174 -5.54033
-5.53917 -5.54016
-5.53809 -5.53984
-5.54088 -5.53975
-5.53884 -5.53968
-5.5347 -5.53936
-5.53999 -5.53927
-5.53804 -5.53898
-5.53748 -5.53872
-5.53434 -5.53864
-5.53796 -5.53856
-5.53669 -5.53833
-5.54113 -5.53813
-5.53372 -5.53789
-5.54067 -5.53782
-5.54334 -5.53776
-5.53915 -5.53765
-5.53841 -5.53741
-5.53407 -5.53729
-5.53445 -5.53729
-5.53609 -5.53704
-5.53634 -5.53693
-5.53478 -5.53677
-5.53878 -5.53675
-5.53369 -5.53674
-5.54048 -5.53665
-5.53822 -5.53602
-5.54118 -5.53594
-5.53565 -5.5357
-5.53089 -5.5357
-5.53638 -5.53528
-5.53677 -5.53517
-5.53028 -5.53513
-5.53338 -5.53496
-5.5377 -5.5348
-5.53238 -5.53375
-5.53321 -5.53349
-5.5323 -5.53346
-5.53047 -5.53329
-5.53271 -5.53294
-5.53446 -5.53273
-5.53107 -5.53272
-5.53201 -5.5327
-5.52863 -5.53229
-5.53094 -5.53192
-5.52908 -5.53179
-5.5294 -5.53179
-5.52779 -5.53162
-5.53019 -5.5315
-5.53541 -5.53136
-5.52809 -5.53121
-5.5272 -5.53118
-5.52512 -5.53116
-5.5283 -5.53113
-5.53273 -5.53104
-5.52806 -5.53089
-5.53314 -5.53078
-5.53044 -5.53071
-5.52897 -5.53065
-5.52769 -5.53039
-5.53336 -5.5303
-5.53506 -5.53023
-5.53129 -5.52966
-5.52949 -5.5296
-5.52703 -5.52932
-5.52849 -5.52905
-5.53028 -5.52877
-5.5276 -5.52877
-5.52598 -5.52867
-5.5269 -5.52857
-5.52836 -5.52802
-5.5316 -5.528
-5.53235 -5.52791
-5.52835 -5.5277
-5.5251 -5.52766
-5.52586 -5.52693
-5.5237 -5.52677
-5.52283 -5.52636
-5.53022 -5.52636
-5.52849 -5.52629
-5.52169 -5.52619
-5.52844 -5.52599
-5.52283 -5.52592
-5.52416 -5.52592
-5.52484 -5.52584
-5.52748 -5.52575
-5.52732 -5.52549
-5.52485 -5.52543
-5.52158 -5.52465
-5.52216 -5.52459
-5.52383 -5.52459
-5.52536 -5.52457
-5.52533 -5.52432
-5.5253 -5.52401
-5.52425 -5.52358
-5.52033 -5.52343
-5.52365 -5.52335
-5.52154 -5.52324
-5.52388 -5.52302
-5.52243 -5.52301
-5.52089 -5.52285
-5.5201 -5.52252
-5.52378 -5.52246
-5.51847 -5.52242
-5.51884 -5.52225
-5.52095 -5.52225
-5.5251 -5.5221
-5.52358 -5.52197
-5.52131 -5.52186
-5.52336 -5.52165
-5.53073 -5.52146
-5.52063 -5.52112
-5.5218 -5.52078
-5.51718 -5.52074
-5.51703 -5.52068
-5.51781 -5.52063
-5.51713 -5.5205
-5.52164 -5.52044
-5.51723 -5.51983
-5.51859 -5.51974
-5.52612 -5.5196
-5.52023 -5.51927
-5.5206 -5.51925
-5.51721 -5.51921
-5.52 -5.51873
-5.51633 -5.51846
-5.52188 -5.51821
-5.51692 -5.51817
-5.51635 -5.51811
-5.51437 -5.5179
-5.52559 -5.51775
-5.51898 -5.51757
-5.51581 -5.51727
-5.51989 -5.51718
-5.51934 -5.51707
-5.51375 -5.51686
-5.51641 -5.51686
-5.52069 -5.5168
-5.51957 -5.51677
-5.51425 -5.51613
-5.51743 -5.51569
-5.52308 -5.51551
-5.51605 -5.51537
-5.51769 -5.51537
-5.51188 -5.51505
-5.51869 -5.51479
-5.52279 -5.51457
-5.51556 -5.5144
-5.51055 -5.51412
-5.51801 -5.5141
-5.51586 -5.51381
-5.51234 -5.51377
-5.51362 -5.5136
-5.51016 -5.51354
-5.51506 -5.51321
-5.52141 -5.51299
-5.51002 -5.51295
-5.51638 -5.5127
-5.51149 -5.51265
-5.50821 -5.51256
-5.51227 -5.51232
-5.51298 -5.51222
-5.50986 -5.51221
-5.50969 -5.51219
-5.51209 -5.51181
-5.51096 -5.51174
-5.5151 -5.51162
-5.5117 -5.51133
-5.5127 -5.51089
-5.51809 -5.51076
-5.51813 -5.51053
-5.51149 -5.51019
-5.51248 -5.51007
-5.50745 -5.50988
-5.5132 -5.50939
-5.50544 -5.50917
-5.51183 -5.50888
-5.50625 -5.50882
-5.51027 -5.50872
-5.51445 -5.50828
-5.50919 -5.50808
-5.51235 -5.50795
-5.50985 -5.50782
-5.5098 -5.50742
-5.50471 -5.50742
-5.50761 -5.50735
-5.51084 -5.5072
-5.51079 -5.50716
-5.50747 -5.50665
-5.5103 -5.5061
-5.50509 -5.50606
-5.50781 -5.50603
-5.50251 -5.50556
-5.50811 -5.5055
-5.51246 -5.50515
-5.49545 -5.50439
-5.50026 -5.50423
-5.50953 -5.50409
-5.50732 -5.504
-5.50803 -5.5037
-5.50273 -5.5037
-5.50786 -5.50332
-5.50239 -5.50322
-5.50442 -5.50301
-5.50538 -5.50288
-5.50322 -5.50256
-5.50393 -5.50255
-5.50272 -5.50232
-5.50019 -5.50228
-5.49898 -5.50227
-5.50553 -5.50192
-5.49554 -5.50181
-5.50108 -5.50173
-5.50824 -5.50168
-5.50322 -5.50138
-5.49615 -5.50125
-5.49559 -5.50105
-5.50204 -5.50103
-5.50223 -5.5008
-5.49707 -5.5007
-5.50383 -5.50055
-5.50179 -5.50053
-5.50978 -5.50042
-5.49867 -5.50029
-5.50307 -5.50024
-5.50204 -5.49974
-5.49473 -5.49972
-5.49961 -5.49969
-5.50009 -5.49935
-5.49948 -5.49917
-5.49401 -5.49915
-5.49539 -5.49915
-5.49157 -5.49906
-5.49321 -5.49869
-5.50169 -5.49857
-5.49522 -5.49844
-5.49049 -5.49838
-5.50196 -5.49836
-5.49603 -5.49835
-5.4984 -5.49835
-5.4936 -5.49819
-5.50199 -5.49796
-5.50796 -5.49793
-5.5008 -5.4979
-5.50415 -5.49784
-5.49905 -5.49784
-5.50061 -5.49778
-5.4962 -5.49772
-5.49986 -5.49764
-5.50026 -5.4976
-5.49338 -5.49725
-5.49907 -5.49715
-5.4938 -5.49707
-5.49285 -5.49693
-5.49293 -5.4969
-5.49661 -5.49677
-5.49257 -5.49674
-5.49683 -5.4967
-5.49355 -5.49667
-5.50467 -5.49656
-5.49376 -5.49633
-5.49173 -5.49631
-5.49607 -5.49621
-5.49825 -5.49613
-5.48685 -5.49596
-5.4909 -5.49569
-5.49515 -5.4953
-5.49434 -5.49527
-5.49167 -5.49514
-5.4858 -5.4951
-5.49531 -5.49505
-5.49254 -5.49494
-5.49634 -5.4944
-5.4899 -5.4942
-5.50006 -5.49394
-5.48916 -5.49362
-5.48785 -5.49345
-5.48968 -5.49336
-5.48796 -5.49334
-5.49917 -5.49333
-5.4925 -5.49318
-5.48946 -5.49316
-5.50102 -5.49305
-5.48742 -5.49279
-5.48953 -5.4926
-5.49375 -5.49234
-5.48947 -5.49222
-5.48984 -5.49218
-5.48895 -5.4921
-5.49229 -5.49204
-5.49358 -5.49196
-5.49769 -5.4919
-5.48832 -5.49187
-5.48949 -5.49186
-5.48892 -5.49179
-5.49364 -5.49179
-5.48568 -5.49164
-5.49369 -5.49162
-5.49763 -5.49155
-5.48604 -5.49147
-5.49583 -5.49128
-5.4927 -5.49106
-5.49698 -5.49105
-5.48978 -5.49099
-5.48481 -5.49091
-5.4905 -5.49085
-5.48633 -5.49064
-5.4871 -5.49015
-5.48916 -5.49014
-5.49543 -5.49002
-5.48589 -5.48999
-5.4871 -5.48995
-5.49153 -5.48987
-5.49106 -5.48984
-5.49207 -5.48969
-5.48881 -5.48953
-5.49335 -5.48952
-5.48632 -5.48937
-5.48395 -5.48926
-5.48773 -5.489
-5.49608 -5.48896
-5.49275 -5.48892
-5.4895 -5.4889
-5.48663 -5.48888
-5.48646 -5.48886
-5.49231 -5.48836
-5.48466 -5.48835
-5.48394 -5.48814
-5.48538 -5.48813
-5.49421 -5.48788
-5.48887 -5.48774
-5.49215 -5.4875
-5.49104 -5.48746
-5.48069 -5.48732
-5.4908 -5.48729
-5.50153 -5.48726
-5.48996 -5.48715
-5.47923 -5.48712
-5.48518 -5.48693
-5.48713 -5.48683
-5.49157 -5.48682
-5.48632 -5.4864
-5.48962 -5.48621
-5.4844 -5.4862
-5.48912 -5.48574
-5.48502 -5.48561
-5.49375 -5.48549
-5.48291 -5.48545
-5.49648 -5.48543
-5.48167 -5.48541
-5.48764 -5.4854
-5.48743 -5.48539
-5.48285 -5.48526
-5.48176 -5.48515
-5.48114 -5.48511
-5.48814 -5.48506
-5.47942 -5.48481
-5.49024 -5.48442
-5.48687 -5.48434
-5.48233 -5.48386
-5.48782 -5.48369
-5.4842 -5.48368
-5.48056 -5.48343
-5.48241 -5.48329
-5.49287 -5.48328
-5.48924 -5.48305
-5.48585 -5.48283
-5.49088 -5.48253
-5.49018 -5.48241
-5.47828 -5.48223
-5.48386 -5.48201
-5.48728 -5.48194
-5.48782 -5.4818
-5.48072 -5.48164
-5.47631 -5.48139
-5.47691 -5.48136
-5.47444 -5.48135
-5.48392 -5.48134
-5.47965 -5.48117
-5.48292 -5.48076
-5.47856 -5.48062
-5.47736 -5.48044
-5.47871 -5.48022
-5.47277 -5.4802
-5.47709 -5.48011
-5.48166 -5.48002
-5.47619 -5.47993
-5.47136 -5.4797
-5.47779 -5.47968
-5.47686 -5.47959
-5.47722 -5.47948
-5.48116 -5.47942
-5.47065 -5.47935
-5.47799 -5.47924
-5.47578 -5.47923
-5.48284 -5.47908
-5.47608 -5.47894
-5.48041 -5.47877
-5.49539 -5.47876
-5.48077 -5.47875
-5.48221 -5.47866
-5.48291 -5.47853
-5.47499 -5.47844
-5.48274 -5.4782
-5.48153 -5.47803
-5.483 -5.4779
-5.47141 -5.47761
-5.47873 -5.4775
-5.47378 -5.47746
-5.47289 -5.47733
-5.49192 -5.47733
-5.47291 -5.47723
-5.47272 -5.47669
-5.47533 -5.47668
-5.47777 -5.47649
-5.48267 -5.47635
-5.47625 -5.47605
-5.47753 -5.47596
-5.46701 -5.47586
-5.47117 -5.47579
-5.47184 -5.47519
-5.47079 -5.47475
-5.47013 -5.47461
-5.47081 -5.47454
-5.47219 -5.47447
-5.4701 -5.47443
-5.48137 -5.47443
-5.47083 -5.47408
-5.47193 -5.47396
-5.47255 -5.47392
-5.47062 -5.4739
-5.47041 -5.47388
-5.47216 -5.47382
-5.47209 -5.47337
-5.4708 -5.47334
-5.4724 -5.47331
-5.47721 -5.47294
-5.49226 -5.47275
-5.46381 -5.47253
-5.47517 -5.47236
-5.46939 -5.47212
-5.47356 -5.47208
-5.46795 -5.47191
-5.47939 -5.47171
-5.47937 -5.47167
-5.46711 -5.4714
-5.46879 -5.47128
-5.46737 -5.47122
-5.48734 -5.47069
-5.46976 -5.4703
-5.46848 -5.47002
-5.47185 -5.47001
-5.46477 -5.46982
-5.46453 -5.46979
-5.46857 -5.46964
-5.46566 -5.46951
-5.47136 -5.4695
-5.47517 -5.46948
-5.46671 -5.46904
-5.46705 -5.46902
-5.47805 -5.46862
-5.46701 -5.46838
-5.46971 -5.46824
-5.46595 -5.46821
-5.47496 -5.46799
-5.46195 -5.46793
-5.46742 -5.46778
-5.46623 -5.46777
-5.47371 -5.46776
-5.46545 -5.46735
-5.46588 -5.46649
-5.46501 -5.46628
-5.46194 -5.46601
-5.4634 -5.46594
-5.46282 -5.46581
-5.46164 -5.46547
-5.46783 -5.46526
-5.46313 -5.46498
-5.4662 -5.46489
-5.46525 -5.4641
-5.4566 -5.46368
-5.46202 -5.46361
-5.45772 -5.4636
-5.47237 -5.46309
-5.46116 -5.46299
-5.45927 -5.46288
-5.46213 -5.46115
-5.46737 -5.46107
-5.45902 -5.46092
-5.45652 -5.46056
-5.46062 -5.46053
-5.44988 -5.45952
-5.46161 -5.45887
-5.46695 -5.45867
-5.4564 -5.45828
-5.45851 -5.45816
-5.45291 -5.45798
-5.45218 -5.45798
-5.45732 -5.45793
-5.46027 -5.45783
-5.46037 -5.4578
-5.46414 -5.45762
-5.45531 -5.45757
-5.45647 -5.45743
-5.45364 -5.45739
-5.45642 -5.45733
-5.45053 -5.45731
-5.46206 -5.45716
-5.45366 -5.45688
-5.46232 -5.45677
-5.4539 -5.45651
-5.45018 -5.45607
-5.44771 -5.45591
-5.4536 -5.45583
-5.45569 -5.45581
-5.45262 -5.45524
-5.45476 -5.45456
-5.46562 -5.45447
-5.45461 -5.45443
-5.4547 -5.45393
-5.45074 -5.45377
-5.45189 -5.45334
-5.45053 -5.45325
-5.45984 -5.45313
-5.45204 -5.45302
-5.44893 -5.45301
-5.4515 -5.45263
-5.46013 -5.45226
-5.45397 -5.45194
-5.4603 -5.45133
-5.44702 -5.45052
-5.45292 -5.45012
-5.45426 -5.45007
-5.44524 -5.44923
-5.45 -5.449
-5.44764 -5.44837
-5.44265 -5.44829
-5.44244 -5.44826
-5.44648 -5.44803
-5.44406 -5.44793
-5.44188 -5.44761
-5.44705 -5.44707
-5.44128 -5.44703
-5.44732 -5.44671
-5.44487 -5.44658
-5.4422 -5.44619
-5.44346 -5.44602
-5.43888 -5.44502
-5.44183 -5.44463
-5.45127 -5.44453
-5.45327 -5.44404
-5.44328 -5.44307
-5.43823 -5.44244
-5.44433 -5.4416
-5.43989 -5.44131
-5.44527 -5.44122
-5.44346 -5.44118
-5.44103 -5.44103
-5.44321 -5.44103
-5.44375 -5.44073
-5.44002 -5.44071
-5.43919 -5.4401
-5.44488 -5.43987
-5.436 -5.43931
-5.44109 -5.43926
-5.43785 -5.43843
-5.43811 -5.43592
-5.43448 -5.43491
-5.43638 -5.4349
-5.43353 -5.43426
-5.43783 -5.43362
-5.42778 -5.43276
-5.43325 -5.43245
-5.42782 -5.43235
-5.42824 -5.43201
-5.43773 -5.43195
-5.43308 -5.43163
-5.42671 -5.43139
-5.43043 -5.43135
-5.43897 -5.43118
-5.44357 -5.4305
-5.43066 -5.4304
-5.42634 -5.43039
-5.42876 -5.429
-5.42684 -5.4283
-5.4263 -5.428
-5.42744 -5.42742
-5.43409 -5.4274
-5.42955 -5.42712
-5.43124 -5.42708
-5.42249 -5.42697
-5.42212 -5.42608
-5.42129 -5.42556
-5.41998 -5.42465
-5.42272 -5.42433
-5.42761 -5.42414
-5.42861 -5.42403
-5.41869 -5.42286
-5.42417 -5.42254
-5.42298 -5.42205
-5.42209 -5.42205
-5.42377 -5.42156
-5.42083 -5.42155
-5.42531 -5.42151
-5.42024 -5.42052
-5.41704 -5.42049
-5.4266 -5.42038
-5.42167 -5.41931
-5.41339 -5.41924
-5.41278 -5.41825
-5.41339 -5.41818
-5.41435 -5.4177
-5.41294 -5.41765
-5.42175 -5.41742
-5.42008 -5.41736
-5.41526 -5.41723
-5.41603 -5.41702
-5.4148 -5.41681
-5.41865 -5.41651
-5.42365 -5.41647
-5.42317 -5.41612
-5.4104 -5.41609
-5.42403 -5.41519
-5.42002 -5.41493
-5.41222 -5.41482
-5.41503 -5.41446
-5.40684 -5.41306
-5.40896 -5.41178
-5.40682 -5.41162
-5.41453 -5.41114
-5.40964 -5.41056
-5.41361 -5.41039
-5.40852 -5.40905
-5.41468 -5.409
-5.40675 -5.40753
-5.40032 -5.40698
-5.40244 -5.40583
-5.40778 -5.4043
-5.40864 -5.40366
-5.40149 -5.40298
-5.39937 -5.40297
-5.39883 -5.4022
-5.39703 -5.40207
-5.40801 -5.40097
-5.39173 -5.39849
-5.40418 -5.39717
-5.39582 -5.39564
-5.3956 -5.39541
-5.39394 -5.39457
-5.40014 -5.3944
-5.39866 -5.39382
-5.40164 -5.39342
-5.39571 -5.393
-5.38797 -5.39082
-5.38252 -5.39036
-5.38553 -5.38948
-5.39208 -5.38874
-5.38195 -5.38853
-5.38877 -5.38839
-5.38046 -5.38806
-5.38336 -5.38787
-5.39424 -5.38782
-5.38886 -5.38659
-5.38361 -5.38574
-5.38125 -5.38533
-5.37962 -5.38493
-5.38304 -5.38404
-5.39004 -5.38388
-5.37972 -5.3836
-5.38201 -5.38348
-5.37856 -5.38324
-5.38383 -5.38293
-5.38711 -5.38218
-5.37344 -5.38191
-5.37789 -5.38021
-5.38015 -5.37918
-5.37566 -5.37907
-5.37118 -5.379
-5.37684 -5.37783
-5.37389 -5.3768
-5.37916 -5.3768
-5.37373 -5.37572
-5.37427 -5.37534
-5.37922 -5.3751
-5.37115 -5.37472
-5.37648 -5.37435
-5.37135 -5.37192
-5.38887 -5.37191
-5.37428 -5.37183
-5.38093 -5.37165
-5.38794 -5.36969
-5.38386 -5.3695
-5.37062 -5.36941
-5.36982 -5.36923
-5.37586 -5.36841
-5.37462 -5.36784
-5.37119 -5.36738
-5.38127 -5.36721
-5.37671 -5.36699
-5.36454 -5.36575
-5.38062 -5.36559
-5.36908 -5.36508
-5.37053 -5.36467
-5.36397 -5.36285
-5.36408 -5.3621
-5.36206 -5.36187
-5.37463 -5.3615
-5.35732 -5.36125
-5.36184 -5.36101
-5.37356 -5.36087
-5.35132 -5.35989
-5.35764 -5.35728
-5.37345 -5.35671
-5.35641 -5.35604
-5.36292 -5.35544
-5.34955 -5.35353
-5.35511 -5.35334
-5.34514 -5.35328
-5.35577 -5.35163
-5.35204 -5.35046
-5.34335 -5.3493
-5.35163 -5.3492
-5.34381 -5.34904
-5.34915 -5.34733
-5.34682 -5.34538
-5.34064 -5.34406
-5.34555 -5.34326
-5.33236 -5.34179
-5.33777 -5.34142
-5.34573 -5.33707
-5.32083 -5.33629
-5.33281 -5.33432
-5.34246 -5.33286
-5.33932 -5.33186
-5.32923 -5.33021
-5.31424 -5.32961
-5.33128 -5.32862
-5.33078 -5.32733
-5.3214 -5.32257
-5.31932 -5.32159
-5.32495 -5.32113
-5.31864 -5.32038
-5.31955 -5.32004
-5.32092 -5.31813
-5.31622 -5.3167
-5.31916 -5.31597
-5.3254 -5.31262
-5.31039 -5.31216
-5.31566 -5.31006
-5.30773 -5.30214
-5.2993 -5.29757
-5.29986 -5.29485
-5.29327 -5.28879
-5.28896 -5.2881
-5.29256 -5.28539
-5.29513 -5.28462
-5.27743 -5.27522
-5.28068 -5.27108
-5.27193 -5.26774
-5.25713 -5.26681
-5.26956 -5.2631
-5.25294 -5.25996
-5.26337 -5.2549
-5.24909 -5.2543
-5.26654 -5.25373
-5.26384 -5.25225
-5.24511 -5.25176
-5.25808 -5.24891
-5.24539 -5.2474
-5.24079 -5.24544
-5.23804 -5.23737
-5.24706 -5.2335
-5.22852 -5.22937
-5.21955 -5.21049
-5.15979 -5.16354
-5.16527 -5.16165
-5.15684 -5.15174
-5.11791 -5.11906
-5.07614 -5.07114
-5.07595 -5.06199
-4.97553 -4.97984
-4.95653 -4.96184
-4.94329 -4.94025
-5.54617 -5.54456
-5.53823 -5.54024
-5.53505 -5.5375
-5.53171 -5.53347
-5.53049 -5.52566
-5.52109 -5.5192
-5.51608 -5.51601
-5.50898 -5.51215
-5.51012 -5.51032
-5.50664 -5.509
-5.495 -5.49614
-5.49325 -5.49481
-5.49087 -5.49159
-5.49001 -5.48826
-5.48715 -5.48772
-5.48641 -5.48593
-5.48195 -5.48559
-5.47941 -5.47902
-5.4756 -5.47851
-5.47604 -5.4778
-5.47412 -5.47346
-5.47177 -5.47225
-5.4701 -5.47148
-5.46914 -5.46997
-5.46236 -5.46419
-5.45681 -5.45732
-5.45376 -5.45144
-5.44997 -5.45092
-5.44927 -5.45063
-5.45164 -5.4489
-5.44797 -5.44771
-5.44755 -5.44711
-5.44493 -5.44492
-5.43908 -5.44119
-5.44576 -5.4411
-5.43445 -5.43425
-5.43019 -5.43215
-5.42837 -5.4286
-5.42638 -5.42734
-5.42581 -5.42565
-5.42357 -5.42282
-5.42415 -5.42218
-5.41885 -5.42219
-5.42089 -5.42057
-5.42233 -5.41804
-5.40962 -5.40864
-5.40745 -5.40765
-5.40571 -5.40614
-5.39803 -5.39743
-5.39385 -5.39469
-5.39273 -5.39338
-5.39463 -5.39317
-5.39193 -5.39255
-5.39342 -5.39262
-5.39155 -5.39178
-5.3914 -5.38782
-5.38613 -5.38647
-5.38222 -5.38277
-5.38186 -5.38196
-5.38017 -5.37944
-5.38045 -5.37929
-5.3752 -5.37463
-5.37178 -5.37185
-5.37014 -5.36995
-5.36657 -5.36873
-5.37196 -5.36613
-5.36223 -5.363
-5.36137 -5.36144
-5.36198 -5.36119
-5.36218 -5.36057
-5.36631 -5.36016
-5.35892 -5.35936
-5.35472 -5.35287
-5.34949 -5.35108
-5.34874 -5.34881
-5.33891 -5.33755
-5.33489 -5.3347
-5.33142 -5.3321
-5.33131 -5.33084
-5.33019 -5.33082
-5.33101 -5.33015
-5.32813 -5.32818
-5.32914 -5.32793
-5.32614 -5.32644
-5.32664 -5.32601
-5.32604 -5.32589
-5.32677 -5.32429
-5.32187 -5.32237
-5.32057 -5.31982
-5.32043 -5.3198
-5.31614 -5.31621
-5.31596 -5.31557
-5.32025 -5.31545
-5.31458 -5.31453
-5.3141 -5.31417
-5.31333 -5.31336
-5.31055 -5.31259
-5.30895 -5.31132
-5.3126 -5.30784
-5.30454 -5.30528
-5.30512 -5.30365
-5.30296 -5.30305
-5.30186 -5.30195
-5.29966 -5.30053
-5.29976 -5.29985
-5.30064 -5.29965
-5.30773 -5.29792
-5.29618 -5.29667
-5.29818 -5.29617
-5.29369 -5.29353
-5.29351 -5.29291
-5.29331 -5.2922
-5.2903 -5.28888
-5.28621 -5.28589
-5.28381 -5.28439
-5.28307 -5.28394
-5.28228 -5.28241
-5.28275 -5.27982
-5.2793 -5.27908
-5.27934 -5.2791
-5.27866 -5.27889
-5.27825 -5.27771
-5.27549 -5.27544
-5.27241 -5.27258
-5.27064 -5.27162
-5.27232 -5.27167
-5.27049 -5.2711
-5.26995 -5.27013
-5.2678 -5.26729
-5.26608 -5.26655
-5.26753 -5.26556
-5.26152 -5.25942
-5.25086 -5.25191
-5.25121 -5.25158
-5.25096 -5.25118
-5.24738 -5.25061
-5.24924 -5.24962
-5.2457 -5.24743
-5.24234 -5.24315
-5.24196 -5.243
-5.24201 -5.24253
-5.24141 -5.2424
-5.24143 -5.24194
-5.24117 -5.24195
-5.23815 -5.2385
-5.23537 -5.23594
-5.2347 -5.23526
-5.23264 -5.23318
-5.23503 -5.23245
-5.23076 -5.23132
-5.22243 -5.22256
-5.21618 -5.21727
-5.217 -5.21706
-5.21628 -5.21695
-5.2182 -5.21653
-5.21536 -5.21534
-5.21368 -5.21347
-5.20804 -5.209
-5.20797 -5.20894
-5.19937 -5.20019
-5.19632 -5.1963
-5.195 -5.19593
-5.19402 -5.19306
-5.19198 -5.19299
-5.1919 -5.19284
-5.18848 -5.18955
-5.1883 -5.18852
-5.18294 -5.18454
-5.18186 -5.18391
-5.17805 -5.17929
-5.17441 -5.17614
-5.18951 -5.17222
-5.16781 -5.16923
-5.16698 -5.16799
-5.16335 -5.1654
-5.16047 -5.16079
-5.15942 -5.15852
-5.15379 -5.15487
-5.14723 -5.14872
-5.13589 -5.13698
-5.13254 -5.13414
-5.12926 -5.13061
-5.12623 -5.12717
-5.12757 -5.12525
-5.12551 -5.12466
-5.12151 -5.12319
-5.11784 -5.11931
-5.12026 -5.11817
-5.11503 -5.11658
-5.11335 -5.11438
-5.11205 -5.11239
-5.10994 -5.10927
-5.10224 -5.10395
-5.09897 -5.10184
-5.09981 -5.10134
-5.09856 -5.09927
-5.09725 -5.09773
-5.08924 -5.09203
-5.08778 -5.0876
-5.08667 -5.08713
-5.07875 -5.08122
-5.0658 -5.06594
-5.06348 -5.06474
-5.05854 -5.06006
-5.05747 -5.0564
-5.05159 -5.05248
-5.04573 -5.04808
-5.0356 -5.03794
-5.03736 -5.0378
-5.02807 -5.02805
-5.02595 -5.02691
-5.02155 -5.02419
-5.0185 -5.02118
-4.98963 -4.99039
-4.98116 -4.98315
-4.98421 -4.98302
-4.97675 -4.97912
-4.95771 -4.95793
-4.94759 -4.94775
-4.93176 -4.93292
-4.929 -4.93193
-4.92922 -4.93182
-4.92344 -4.92267
-4.90731 -4.9108
-4.88636 -4.88963
-4.86368 -4.86589
-4.8549 -4.85632
-4.83595 -4.83596
-4.83472 -4.83577
-4.79387 -4.79765
-4.77395 -4.76702
-4.76444 -4.76172
-4.74835 -4.74529
-4.73633 -4.72974
-4.72011 -4.72659
-5.54001 -5.5475
-5.54798 -5.5465
-5.54111 -5.54585
-5.54591 -5.54476
-5.54583 -5.54322
-5.53994 -5.54217
-5.54443 -5.53977
-5.5338 -5.5387
-5.54018 -5.53604
-5.53714 -5.5345
-5.53915 -5.53417
-5.53036 -5.52879
-5.52693 -5.5247
-5.52737 -5.52377
-5.52443 -5.52096
-5.51905 -5.52004
-5.52071 -5.51619
-5.5237 -5.51496
-5.51302 -5.51299
-5.50365 -5.50851
-5.50216 -5.5073
-5.50439 -5.50601
-5.49687 -5.50466
-5.51456 -5.50412
-5.5119 -5.5037
-5.50852 -5.50276
-5.5102 -5.50275
-5.49502 -5.49995
-5.50089 -5.49898
-5.49418 -5.49809
-5.50622 -5.497
-5.50329 -5.49532
-5.49596 -5.49532
-5.49012 -5.49495
-5.4879 -5.49253
-5.49712 -5.49018
-5.48808 -5.48914
-5.48287 -5.48816
-5.48223 -5.48736
-5.47988 -5.48639
-5.48574 -5.48619
-5.48233 -5.48562
-5.47836 -5.48448
-5.48089 -5.4829
-5.49279 -5.48249
-5.49291 -5.48177
-5.47452 -5.48139
-5.47681 -5.48088
-5.47955 -5.48059
-5.47303 -5.47962
-5.47571 -5.47898
-5.46988 -5.47859
-5.47662 -5.47844
-5.47642 -5.47756
-5.48225 -5.47752
-5.47679 -5.47722
-5.47563 -5.47711
-5.47344 -5.47694
-5.46931 -5.4734
-5.47029 -5.47336
-5.47272 -5.47149
-5.4683 -5.47061
-5.47781 -5.46976
-5.463 -5.46878
-5.46329 -5.46736
-5.46297 -5.4668
-5.46456 -5.46414
-5.45919 -5.45965
-5.47291 -5.45936
-5.45934 -5.45749
-5.4552 -5.4563
-5.44866 -5.45558
-5.4565 -5.45415
-5.4484 -5.45377
-5.44807 -5.45355
-5.44638 -5.4529
-5.45392 -5.45004
-5.44566 -5.44989
-5.44416 -5.44956
-5.45273 -5.4482
-5.44296 -5.44709
-5.45064 -5.44643
-5.44362 -5.44592
-5.44522 -5.4454
-5.455 -5.44404
-5.44109 -5.44389
-5.43843 -5.44034
-5.43829 -5.43146
-5.42704 -5.43086
-5.43906 -5.42881
-5.42334 -5.42655
-5.42312 -5.42445
-5.44081 -5.42398
-5.42749 -5.42371
-5.42143 -5.42327
-5.42587 -5.42062
-5.4212 -5.41973
-5.43457 -5.41922
-5.42849 -5.41856
-5.40579 -5.41314
-5.41222 -5.41062
-5.41789 -5.40881
-5.40494 -5.40685
-5.39935 -5.38556
-5.37631 -5.37723
-5.35637 -5.35435
-5.34935 -5.35234
-5.36128 -5.35021
-5.3199 -5.30993
-5.28858 -5.29197
-5.28057 -5.29023
-5.28958 -5.28113
-5.27177 -5.27438
-5.25199 -5.26521
-5.25728 -5.26198
-5.2512 -5.2461
-5.20312 -5.22757
-5.19639 -5.20829
-5.17821 -5.18333
-5.16188 -5.15982
-5.14257 -5.14885
-5.1331 -5.13983
-5.13067 -5.13054
-5.07818 -5.11324
-5.00921 -5.00619
-4.98059 -4.97774
-4.86263 -4.85521
-5.53149 -5.54247
-5.5315 -5.54247
-5.53131 -5.54235
-5.53132 -5.54233
-5.53136 -5.54234
-5.53124 -5.5423
-5.53122 -5.54233
-5.53143 -5.5423
-5.53129 -5.54225
-5.53126 -5.5423
-5.53131 -5.5422
-5.53104 -5.54216
-5.53152 -5.54245
-5.53147 -5.5425
-5.53139 -5.54246
-5.53144 -5.54243
-5.53149 -5.54244
-5.5314 -5.54241
-5.53146 -5.54241
-5.53142 -5.54236
-5.49863 -5.49787
-5.49862 -5.49787
-5.4985 -5.49775
-5.49854 -5.49777
-5.49845 -5.4977
-5.49848 -5.49772
-5.49842 -5.49768
-5.49839 -5.49765
-5.49847 -5.49771
-5.49846 -5.4977
-5.4983 -5.49754
-5.4983 -5.49754
-5.49862 -5.49786
-5.49862 -5.49786
-5.49858 -5.49782
-5.49859 -5.49784
-5.4986 -5.49784
-5.49857 -5.49781
-5.49855 -5.49779
-5.49853 -5.49778
-5.48201 -5.48051
-5.48198 -5.48049
-5.48185 -5.48039
-5.48188 -5.48041
-5.48186 -5.4804
-5.4818 -5.48032
-5.48179 -5.48034
-5.48174 -5.48028
-5.48175 -5.4803
-5.48172 -5.48027
-5.48166 -5.48022
-5.48161 -5.48018
-5.48198 -5.48049
-5.48196 -5.48047
-5.48196 -5.48047
-5.48194 -5.48045
-5.4819 -5.48042
-5.48193 -5.48044
-5.48193 -5.48046
-5.48187 -5.48039
