-8.66908 -8.66665
-8.36149 -8.35675
-8.98874 -8.98786
-8.37749 -8.38618
-8.73017 -8.72934
-8.25978 -8.25537
-9.23628 -9.23566
-8.76589 -8.76609
-9.30392 -9.29916
-8.60519 -8.61335
-9.17959 -9.17869
-8.97195 -8.97468
-9.02442 -9.02708
-9.30103 -9.29945
-9.06458 -9.06018
-9.09255 -9.0943
-8.8162 -8.81466
-8.78011 -8.78056
-8.63857 -8.64441
-9.00136 -9.00165
-9.11926 -9.11624
-8.93672 -8.93745
-8.96718 -8.97379
-9.28692 -9.28736
-9.16625 -9.16642
-8.73281 -8.73426
-9.0419 -9.04303
-8.79284 -8.79291
-8.96745 -8.96843
-8.90686 -8.9136
-8.50904 -8.5123
-9.10977 -9.10944
-9.17856 -9.1793
-9.04953 -9.05069
-9.10996 -9.1082
-9.24917 -9.2497
-8.87163 -8.87109
-8.88894 -8.88913
-9.23323 -9.23331
-9.11747 -9.11908
-9.1544 -9.15229
-9.26113 -9.26035
-9.24708 -9.2466
-9.1436 -9.1444
-9.05508 -9.05513
-9.08259 -9.08574
-8.9486 -8.94558
-9.10476 -9.10519
-9.24545 -9.24727
-9.11461 -9.11532
-8.86644 -8.86787
-9.18767 -9.18618
-9.10233 -9.10228
-9.11878 -9.11785
-9.11494 -9.11502
-9.17471 -9.17423
-9.1986 -9.19916
-9.2142 -9.21399
-9.25 -9.25178
-9.21772 -9.2197
-9.07444 -9.07226
-9.24361 -9.24173
-9.20492 -9.20467
-9.10627 -9.10488
-9.23403 -9.23605
-9.2916 -9.29163
-9.18627 -9.18431
-9.03132 -9.02947
-9.25799 -9.25657
-9.23555 -9.23528
-9.10439 -9.10495
-9.30849 -9.30859
-9.18829 -9.18831
-9.07309 -9.07228
-9.15674 -9.15533
-9.26568 -9.26429
-9.14229 -9.14188
-9.14768 -9.1467
-8.86535 -8.8642
-9.10121 -9.09987
-9.14062 -9.14119
-9.20305 -9.20101
-9.07552 -9.0745
-9.1834 -9.18318
-9.23282 -9.23138
-9.06097 -9.05977
-8.9949 -8.99476
-9.32399 -9.32588
-9.32399 -9.32524
-9.32399 -9.32401
-9.32399 -9.32336
-9.32399 -9.32309
-9.33376 -9.33376
-9.32535 -9.32831
-9.324 -9.32385
-9.34203 -9.34195
-9.34379 -9.34429
-9.33562 -9.3345
-9.33756 -9.33696
-9.34306 -9.34327
-9.34279 -9.34296
-9.34347 -9.34371
-9.33638 -9.33546
-9.34082 -9.34079
-9.34034 -9.34025
-9.33563 -9.33451
-9.33637 -9.33545
-9.33992 -9.33975
-9.34391 -9.34445
-9.34004 -9.3399
-9.34355 -9.34399
-9.3438 -9.34429
-9.34326 -9.34317
-9.34341 -9.34335
-9.34263 -9.34263
-9.34221 -9.34213
-9.33886 -9.33856
-9.33884 -9.33853
-9.34376 -9.34397
-9.34634 -9.34604
-9.34647 -9.3463
-9.34299 -9.34339
-9.34363 -9.3438
-9.3464 -9.34607
-9.34607 -9.34574
-9.34681 -9.34672
-9.34478 -9.34462
-9.34657 -9.34641
-9.34512 -9.34494
-9.34278 -9.34317
-9.34235 -9.34279
-9.34477 -9.3446
-9.34659 -9.34649
-9.34608 -9.34575
-9.34564 -9.34524
-9.34473 -9.34445
-9.34647 -9.3463
-9.34571 -9.34546
-9.34674 -9.34665
-9.34675 -9.34677
-9.34642 -9.34638
-9.34638 -9.34634
-9.34598 -9.34566
-9.3444 -9.34398
-9.34311 -9.34248
-9.34609 -9.34606
-9.34487 -9.34446
-9.34562 -9.34537
-9.34649 -9.34651
-9.34638 -9.3462
-9.34632 -9.34633
-9.34548 -9.34508
-9.34326 -9.3427
-9.34577 -9.34543
-9.34556 -9.34533
-9.3467 -9.34675
-9.3447 -9.34415
-9.34549 -9.3455
-9.34528 -9.34531
-9.34528 -9.34531
-9.34351 -9.34378
-9.34313 -9.34341
-9.34463 -9.34479
-9.34543 -9.34549
-9.34446 -9.34459
-9.34352 -9.34377
-9.34551 -9.3455
-9.34571 -9.34561
-9.34343 -9.34372
-9.34536 -9.3454
-9.34559 -9.34553
-9.3442 -9.34435
-9.34524 -9.34532
-9.34489 -9.34505
-9.34421 -9.34439
-9.34533 -9.34539
-9.34514 -9.34517
-9.24233 -9.24122
-8.85721 -8.85719
-9.06494 -9.06776
-9.24465 -9.24675
-9.2226 -9.22129
-9.01491 -9.0141
-9.20966 -9.20894
-9.08663 -9.08584
-9.11908 -9.11829
-9.33189 -9.33203
-9.34411 -9.34413
-9.3427 -9.3429
-9.34525 -9.34533
-9.34267 -9.34282
-9.34403 -9.34357
-9.34404 -9.34358
-9.33617 -9.33516
-9.1417 -9.14091
-9.34537 -9.34499
-9.33653 -9.33571
-9.34533 -9.34539
-9.32815 -9.32992
-9.3244 -9.32744
-9.32399 -9.3237
-9.32399 -9.32348
-9.32399 -9.32301
-9.3452 -9.34465
-9.32828 -9.32993
-9.32414 -9.32706
-9.324 -9.32588
-9.34639 -9.34607
-9.34412 -9.34441
-9.324 -9.32448
-9.324 -9.32323
-9.34281 -9.34297
-9.34391 -9.34445
-9.33885 -9.33855
-9.34385 -9.3443
-9.33954 -9.3394
-9.34082 -9.34076
-9.33722 -9.33657
-9.34396 -9.34461
-9.34405 -9.3447
-9.34379 -9.34434
-9.34074 -9.3407
-9.33487 -9.33341
-9.33769 -9.33716
-9.34189 -9.34191
-9.342 -9.34198
-9.34004 -9.33991
-9.34226 -9.34272
-9.3465 -9.34639
-9.34606 -9.34588
-9.34346 -9.34371
-9.34543 -9.34517
-9.34633 -9.34601
-9.34564 -9.34524
-9.34681 -9.34672
-9.34252 -9.34297
-9.34435 -9.34422
-9.3447 -9.34451
-9.34385 -9.344
-9.34624 -9.34594
-9.34548 -9.34509
-9.34599 -9.34591
-9.34607 -9.34592
-9.34459 -9.34415
-9.34549 -9.34509
-9.34599 -9.34576
-9.34639 -9.34628
-9.34657 -9.34659
-9.34663 -9.34669
-9.34671 -9.34675
-9.34218 -9.34146
-9.34168 -9.34089
-9.34227 -9.34157
-9.34597 -9.34565
-9.34618 -9.34605
-9.34607 -9.34591
-9.34605 -9.3459
-9.34649 -9.34651
-9.34182 -9.34104
-9.34473 -9.34426
-9.34631 -9.34624
-9.34286 -9.34311
-9.3427 -9.3429
-9.34324 -9.34351
-9.34555 -9.34553
-9.34488 -9.34503
-9.34601 -9.34575
-9.34583 -9.34567
-9.34419 -9.34435
-9.34313 -9.3434
-9.34525 -9.34532
-9.34559 -9.34553
-9.345 -9.34513
-9.3461 -9.3458
-9.34557 -9.34558
-9.04934 -9.05054
-9.24657 -9.24496
-9.27082 -9.27106
-9.16137 -9.16057
-9.27071 -9.27268
-9.12593 -9.12581
-9.34537 -9.3454
-9.33988 -9.3397
-9.34311 -9.34325
-9.33639 -9.33546
-9.34559 -9.34552
-9.3369 -9.33613
-9.34421 -9.34438
-9.34262 -9.3426
-9.34427 -9.34425
-9.34324 -9.34351
-9.34575 -9.34539
-9.34667 -9.34655
-9.34004 -9.33991
-9.34431 -9.34422
-9.34669 -9.34676
-9.34562 -9.34523
-9.34362 -9.34382
-9.34504 -9.34515
-8.68153 -8.68413
-8.91699 -8.91843
-9.08509 -9.08242
-8.94006 -8.93898
-9.22186 -9.22172
-9.06714 -9.06745
-8.94907 -8.95266
-8.72141 -8.72192
-9.09269 -9.09545
-9.02901 -9.03035
-9.17726 -9.17947
-9.00315 -9.00471
-8.90894 -8.9101
-9.03435 -9.03528
-9.0621 -9.06487
-9.13567 -9.13779
-9.173 -9.17604
-8.86349 -8.86168
-9.122 -9.11342
-8.81725 -8.81211
-9.20463 -9.20506
-8.91674 -8.91511
-9.03379 -9.03529
-9.12695 -9.1273
-9.20168 -9.20146
-9.16598 -9.16936
-9.071 -9.06782
-9.31053 -9.31179
-8.92453 -8.92082
-9.33452 -9.33473
-9.18351 -9.18501
-9.21584 -9.21605
-9.12629 -9.12668
-9.1013 -9.1017
-9.13225 -9.13337
-9.14097 -9.14217
-9.03401 -9.03303
-8.76912 -8.7688
-9.34613 -9.34573
-9.25056 -9.24519
-9.14973 -9.1505
-9.18626 -9.18477
-9.00507 -9.00728
-8.93071 -8.93045
-9.12347 -9.12249
-9.2599 -9.26048
-8.92233 -8.924
-9.19729 -9.1984
-9.27998 -9.28027
-8.9976 -8.9976
-9.17348 -9.17256
-9.05372 -9.05157
-9.14443 -9.14485
-9.13029 -9.12745
-9.06032 -9.06043
-9.21439 -9.21601
-9.09746 -9.09906
-9.07582 -9.07507
-9.1239 -9.12301
-8.87468 -8.87402
-9.08356 -9.08261
-9.25309 -9.25351
-9.17991 -9.18193
-9.19904 -9.19831
-8.64137 -8.63958
-9.24838 -9.24675
-9.24756 -9.24574
-9.07767 -9.07763
-9.29198 -9.29673
-9.00447 -9.00299
-9.15109 -9.15266
-9.13348 -9.13305
-9.10872 -9.11109
-8.85281 -8.85189
-8.84923 -8.84968
-9.09509 -9.09516
-9.04934 -9.05007
-9.18194 -9.18427
-9.27231 -9.27239
-9.13327 -9.13357
-9.11668 -9.11613
-9.01008 -9.01207
-9.26079 -9.26208
-9.09279 -9.09162
-9.02871 -9.02798
-9.27895 -9.27742
-9.21528 -9.21365
-9.27344 -9.27276
-8.93616 -8.93505
-9.34107 -9.3419
-9.33086 -9.33125
-9.32399 -9.32448
-9.32399 -9.32355
-9.32399 -9.32342
-9.324 -9.32448
-9.3283 -9.32993
-9.32534 -9.32831
-9.34332 -9.34327
-9.34363 -9.34383
-9.34355 -9.344
-9.34253 -9.34249
-9.33949 -9.3393
-9.34305 -9.34327
-9.34348 -9.34374
-9.34222 -9.34214
-9.34081 -9.34078
-9.34231 -9.34235
-9.33506 -9.33371
-9.33488 -9.33342
-9.34034 -9.34025
-9.33717 -9.33651
-9.33897 -9.33869
-9.34296 -9.34298
-9.33977 -9.33963
-9.34347 -9.34372
-9.34144 -9.3414
-9.34361 -9.34368
-9.33506 -9.3337
-9.34231 -9.34235
-9.3435 -9.3436
-9.33827 -9.3379
-9.34272 -9.3431
-9.34648 -9.34627
-9.34635 -9.34602
-9.34642 -9.34609
-9.3443 -9.34422
-9.34517 -9.34495
-9.34588 -9.34554
-9.34532 -9.34509
-9.34647 -9.3463
-9.34234 -9.34279
-9.34625 -9.34595
-9.3458 -9.34558
-9.3453 -9.34508
-9.34565 -9.34543
-9.34625 -9.34588
-9.34297 -9.34338
-9.34236 -9.3428
-9.34639 -9.34619
-9.34235 -9.34279
-9.34154 -9.34076
-9.34629 -9.34604
-9.34457 -9.34412
-9.34449 -9.34401
-9.34271 -9.34208
-9.34597 -9.34564
-9.34604 -9.34589
-9.34206 -9.34129
-9.34656 -9.34658
-9.3464 -9.34644
-9.34606 -9.3459
-9.34338 -9.34282
-9.34578 -9.34544
-9.34525 -9.34488
-9.34575 -9.34557
-9.345 -9.34513
-9.34583 -9.34567
-9.34307 -9.34331
-9.34514 -9.34519
-9.34557 -9.34558
-9.34484 -9.34489
-9.34474 -9.34486
-9.34398 -9.34418
-9.34484 -9.34489
-9.34529 -9.34533
-9.34582 -9.34567
-9.34509 -9.3452
-9.34517 -9.34525
-9.34503 -9.34514
-9.34383 -9.34407
-9.34536 -9.34545
-9.34549 -9.34549
-9.24358 -9.24283
-9.23442 -9.23426
-9.25817 -9.25657
-9.12451 -9.12354
-9.21995 -9.21889
-9.25378 -9.25435
-9.21434 -9.21275
-9.19024 -9.1883
-9.34286 -9.3431
-9.34607 -9.34573
-9.34536 -9.34545
-9.34504 -9.34515
-9.34685 -9.34677
-9.34599 -9.34575
-9.34217 -9.34145
-9.34541 -9.34516
-9.3434 -9.34285
-9.34413 -9.34363
-9.33761 -9.33777
-9.32399 -9.32306
-9.34585 -9.34629
-9.324 -9.32419
-9.324 -9.32327
-9.324 -9.32299
-9.324 -9.32348
-9.324 -9.32293
-9.33544 -9.33421
-9.3408 -9.34076
-9.34296 -9.34299
-9.34293 -9.34286
-9.33898 -9.33871
-9.34086 -9.3408
-9.34356 -9.34351
-9.34354 -9.34351
-9.34311 -9.34305
-9.34357 -9.344
-9.34397 -9.34462
-9.34349 -9.34341
-9.33751 -9.33697
-9.34385 -9.34446
-9.34116 -9.3411
-9.3403 -9.34021
-9.34396 -9.34461
-9.34644 -9.34615
-9.34518 -9.34496
-9.34643 -9.34624
-9.34651 -9.34631
-9.34504 -9.34478
-9.34625 -9.34588
-9.34667 -9.34657
-9.34607 -9.34588
-9.34236 -9.3428
-9.34643 -9.34624
-9.3437 -9.3438
-9.34647 -9.34629
-9.3465 -9.3464
-9.34303 -9.34329
-9.34345 -9.3437
-9.34649 -9.3463
-9.34621 -9.34601
-9.34646 -9.34629
-9.3425 -9.34175
-9.34218 -9.34146
-9.34633 -9.34626
-9.34579 -9.34545
-9.34469 -9.34414
-9.34468 -9.34414
-9.34487 -9.34446
-9.34548 -9.34508
-9.34584 -9.34565
-9.3434 -9.34285
-9.34508 -9.3447
-9.34606 -9.34591
-9.34515 -9.34476
-9.34456 -9.34412
-9.34628 -9.34603
-9.34509 -9.34472
-9.34401 -9.34345
-9.34328 -9.34272
-9.34574 -9.34556
-9.34439 -9.34396
-9.3467 -9.34676
-9.34637 -9.34634
-9.34378 -9.34321
-9.34602 -9.34575
-9.34536 -9.34542
-9.3453 -9.34534
-9.34533 -9.3454
-9.34486 -9.34496
-9.34591 -9.34571
-9.34613 -9.34573
-9.34368 -9.34396
-9.34422 -9.34439
-9.34593 -9.34572
-9.34526 -9.34532
-9.34395 -9.34415
-9.34526 -9.34533
-9.34464 -9.34474
-9.34368 -9.34395
-9.34517 -9.34526
-9.34398 -9.34417
-9.3451 -9.3452
-9.34454 -9.34472
-9.34429 -9.34447
-9.34525 -9.34533
-9.18607 -9.18429
-9.20192 -9.20028
-9.14689 -9.14808
-9.10044 -9.10017
-9.19781 -9.1967
-9.14648 -9.1456
-9.09955 -9.09875
-9.18327 -9.18236
-9.15261 -9.15312
-9.34548 -9.34508
-9.34543 -9.34549
-9.34541 -9.34517
-9.34665 -9.34657
-9.34606 -9.34591
-9.324 -9.32474
-9.32402 -9.32404
-9.28078 -9.27894
-9.16018 -9.15826
-9.34655 -9.3466
-9.34351 -9.34378
-9.34369 -9.34397
-9.34402 -9.34474
-9.34288 -9.3423
-9.34487 -9.34447
-8.94033 -8.93988
-8.53633 -8.52648
-9.20814 -9.20764
-8.35937 -8.35945
-9.12276 -9.12342
-8.73651 -8.74997
-9.24493 -9.2472
-8.9776 -8.97414
-9.09974 -9.10105
-8.61102 -8.61286
-8.86908 -8.87313
-8.94662 -8.94653
-8.84482 -8.848
-8.45794 -8.4484
-9.05093 -9.05223
-8.82648 -8.82398
-9.33217 -9.332
-8.99039 -8.99371
-9.04291 -9.04415
-9.26231 -9.26266
-9.09096 -9.09344
-8.90611 -8.9017
-8.98828 -8.98953
-9.20003 -9.20197
-8.90082 -8.90682
-8.71764 -8.7204
-8.94126 -8.94062
-9.15573 -9.15432
-9.33551 -9.33612
-9.09703 -9.09968
-8.75737 -8.75829
-9.13309 -9.13654
-9.32597 -9.32765
-9.24142 -9.24106
-8.9577 -8.95862
-9.08282 -9.08531
-8.82587 -8.82707
-9.16787 -9.17042
-9.02734 -9.0268
-9.1355 -9.13417
-9.22657 -9.22541
-9.12644 -9.12472
-9.01917 -9.01954
-9.1665 -9.16648
-9.07994 -9.08221
-9.12626 -9.12899
-8.83857 -8.83718
-9.12977 -9.13118
-9.24096 -9.2429
-9.24478 -9.24578
-9.28258 -9.28431
-9.21569 -9.21625
-9.20853 -9.20835
-9.09177 -9.09037
-9.19288 -9.19281
-9.13037 -9.12619
-9.22863 -9.22898
-8.90131 -8.90193
-9.26384 -9.26414
-9.0519 -9.05447
-9.01762 -9.01691
-9.33464 -9.33296
-9.15421 -9.15509
-8.92017 -8.91807
-9.20064 -9.20197
-9.04726 -9.04938
-9.24736 -9.24686
-9.26474 -9.26508
-9.12259 -9.12081
-9.05981 -9.06331
-9.23566 -9.23668
-9.23951 -9.23893
-9.13056 -9.13196
-9.12585 -9.12458
-9.13218 -9.1353
-9.33866 -9.33889
-9.32615 -9.32881
-9.25294 -9.2526
-9.1245 -9.1229
-9.1098 -9.10963
-9.1442 -9.14445
-9.13068 -9.13029
-9.02352 -9.02132
-8.99979 -9.00121
-8.92027 -8.91902
-9.1062 -9.10711
-9.27781 -9.27902
-9.23732 -9.23534
-9.10869 -9.10777
-9.15962 -9.16064
-9.15456 -9.15367
-9.18689 -9.18573
-9.15522 -9.15599
-9.33641 -9.33691
-9.33506 -9.33462
-9.32417 -9.32706
-9.34437 -9.3434
-9.324 -9.32297
-9.34106 -9.34064
-9.33293 -9.33286
-9.33073 -9.33127
-9.324 -9.32438
-9.324 -9.32418
-9.324 -9.32327
-9.34348 -9.34373
-9.3437 -9.34385
-9.33974 -9.3396
-9.34323 -9.34324
-9.34082 -9.34076
-9.33769 -9.33716
-9.34265 -9.34264
-9.34385 -9.3443
-9.34342 -9.34377
-9.33545 -9.33423
-9.33771 -9.33718
-9.34225 -9.3423
-9.34402 -9.34474
-9.33469 -9.33314
-9.34262 -9.34261
-9.34296 -9.34299
-9.34297 -9.343
-9.34224 -9.34215
-9.34354 -9.34352
-9.34031 -9.34021
-9.34015 -9.34004
-9.33721 -9.33655
-9.33771 -9.33717
-9.34391 -9.34445
-9.34605 -9.34587
-9.34278 -9.34317
-9.34665 -9.34656
-9.34397 -9.34396
-9.34607 -9.3457
-9.34617 -9.346
-9.34499 -9.34471
-9.34609 -9.34576
-9.34642 -9.34624
-9.34685 -9.34678
-9.34582 -9.3456
-9.34303 -9.3433
-9.34572 -9.34547
-9.34519 -9.34497
-9.34582 -9.34559
-9.34291 -9.34329
-9.34517 -9.34496
-9.34278 -9.34317
-9.34658 -9.34661
-9.34638 -9.3462
-9.34259 -9.34192
-9.34654 -9.3466
-9.34643 -9.34639
-9.34616 -9.34588
-9.34517 -9.34477
-9.34364 -9.34315
-9.34641 -9.34642
-9.34487 -9.34446
-9.34339 -9.34284
-9.3427 -9.34207
-9.34403 -9.34356
-9.34514 -9.34475
-9.34524 -9.34489
-9.34413 -9.34364
-9.34604 -9.34588
-9.3461 -9.3458
-9.34429 -9.34446
-9.34504 -9.34515
-9.34559 -9.34552
-9.34384 -9.34407
-9.34505 -9.34506
-9.34422 -9.34439
-9.34505 -9.34507
-9.34465 -9.34475
-9.34419 -9.34435
-9.34324 -9.34351
-9.34308 -9.34331
-9.34532 -9.34539
-9.34448 -9.34472
-9.34428 -9.34446
-9.34285 -9.3431
-9.34484 -9.34489
-9.34307 -9.3433
-9.34544 -9.3455
-9.34395 -9.34415
-9.34534 -9.3454
-9.34394 -9.34414
-9.34486 -9.34496
-9.34307 -9.3433
-9.34532 -9.34538
-9.34448 -9.34472
-9.34344 -9.34372
-9.03343 -9.03404
-9.2373 -9.23809
-9.24999 -9.24938
-9.16539 -9.164
-9.27607 -9.27666
-9.34517 -9.34495
-9.34588 -9.34568
-9.07955 -9.07726
-9.34495 -9.34503
-9.34351 -9.34377
-9.34448 -9.344
-9.34225 -9.3423
-9.34385 -9.344
-9.34638 -9.34614
-9.33651 -9.33569
-9.34582 -9.34567
-9.34633 -9.34601
-8.99161 -8.99161
-9.34533 -9.34501
-9.34666 -9.34657
-9.32399 -9.32543
-9.32399 -9.32438
-9.32399 -9.32294
-9.32613 -9.32881
-9.324 -9.32489
-9.324 -9.3246
-9.324 -9.32291
-9.34346 -9.34329
-9.324 -9.32392
-9.324 -9.32319
-9.324 -9.32298
-9.34355 -9.34348
-9.34397 -9.34462
-9.33884 -9.33854
-9.34265 -9.34262
-9.34228 -9.34233
-9.34158 -9.34158
-9.34397 -9.34462
-9.33543 -9.3342
-9.34265 -9.34263
-9.34322 -9.34324
-9.34193 -9.34196
-9.34354 -9.34353
-9.33767 -9.33714
-9.33561 -9.33449
-9.3425 -9.34245
-9.3438 -9.34428
-9.34286 -9.34296
-9.34323 -9.34315
-9.33751 -9.33697
-9.34349 -9.34341
-9.34657 -9.34641
-9.34685 -9.34677
-9.34665 -9.34656
-9.34303 -9.3433
-9.34615 -9.34591
-9.34582 -9.3456
-9.34606 -9.34569
-9.34243 -9.34287
-9.34395 -9.34405
-9.34633 -9.34601
-9.34426 -9.34424
-9.34643 -9.34615
-9.3441 -9.34412
-9.34349 -9.34372
-9.34566 -9.34525
-9.34607 -9.34588
-9.34663 -9.34652
-9.34681 -9.34673
-9.34651 -9.34641
-9.34627 -9.34609
-9.34362 -9.34313
-9.34548 -9.34508
-9.34575 -9.34557
-9.34402 -9.34346
-9.3463 -9.34629
-9.34524 -9.34485
-9.34473 -9.34427
-9.34598 -9.3459
-9.34511 -9.34474
-9.34467 -9.34413
-9.34338 -9.34283
-9.34405 -9.34359
-9.34217 -9.34145
-9.34639 -9.34634
-9.34657 -9.34658
-9.3451 -9.34473
-9.3429 -9.34315
-9.34583 -9.34568
-9.34509 -9.3452
-9.34571 -9.3456
-9.34334 -9.34358
-9.34544 -9.34549
-9.34529 -9.34532
-9.3456 -9.34553
-9.34583 -9.34567
-9.34538 -9.34547
-9.34504 -9.34505
-9.34445 -9.34459
-9.34369 -9.34396
-9.3453 -9.34533
-9.3429 -9.34315
-9.34571 -9.34561
-9.34591 -9.34571
-9.12836 -9.13031
-9.19067 -9.19005
-8.98646 -8.98522
-9.1163 -9.11495
-9.21599 -9.21697
-9.03124 -9.03031
-9.07807 -9.07672
-9.10397 -9.10283
-9.18907 -9.18777
-9.25042 -9.24829
-9.15501 -9.15387
-9.2522 -9.25199
-9.07626 -9.0763
-9.22589 -9.2254
-9.34307 -9.3433
-9.34463 -9.34478
-9.34287 -9.34229
-9.34398 -9.34417
-9.34651 -9.34641
-9.33471 -9.33472
-9.34218 -9.34146
-9.34664 -9.34657
-9.34528 -9.34531
-8.83526 -8.83907
-9.34032 -9.34024
-8.88967 -8.88488
-9.09007 -9.09149
-9.14578 -9.14717
-8.93246 -8.93014
-8.28009 -8.28598
-8.68895 -8.67987
-8.88603 -8.88496
-8.37407 -8.37146
-9.08023 -9.08127
-9.15529 -9.15425
-8.79494 -8.7954
-9.15985 -9.15893
-9.11376 -9.11817
-8.76028 -8.76272
-9.14059 -9.14304
-9.21581 -9.21624
-8.97751 -8.97678
-8.89146 -8.89112
-9.08045 -9.0792
-8.99305 -8.98755
-9.0991 -9.09877
-9.1942 -9.19553
-9.06506 -9.06418
-8.99952 -9.00037
-9.28785 -9.28791
-9.18999 -9.18998
-9.03432 -9.03396
-9.18175 -9.18283
-9.03864 -9.04085
-9.08319 -9.08565
-9.12808 -9.12806
-9.05768 -9.06482
-8.83044 -8.82935
-9.12618 -9.12686
-9.19731 -9.19719
-8.90915 -8.90928
-9.1045 -9.10504
-9.33969 -9.33939
-8.98914 -8.98908
-9.12663 -9.12851
-9.17099 -9.17105
-9.18025 -9.17994
-9.06271 -9.06086
-9.02565 -9.02452
-8.91909 -8.92078
-9.24022 -9.2395
-9.1437 -9.14602
-9.06261 -9.06445
-9.16627 -9.16771
-9.04217 -9.04409
-9.30881 -9.31062
-9.17843 -9.17687
-9.18677 -9.18614
-9.1681 -9.17012
-9.25993 -9.26011
-9.24569 -9.248
-8.92768 -8.92614
-9.24715 -9.24774
-9.20961 -9.21245
-9.30229 -9.30231
-9.04754 -9.0507
-9.14767 -9.14643
-9.20601 -9.2055
-9.32399 -9.32565
-9.32399 -9.32428
-9.32399 -9.32327
-9.32399 -9.32316
-9.324 -9.32523
-9.324 -9.32377
-9.33984 -9.33934
-9.32716 -9.32935
-9.324 -9.32309
-9.34379 -9.34429
-9.33871 -9.3384
-9.34194 -9.34197
-9.34326 -9.34317
-9.34362 -9.34384
-9.34397 -9.34462
-9.3369 -9.33612
-9.34033 -9.34023
-9.34081 -9.34077
-9.34114 -9.3411
-9.34018 -9.34007
-9.34084 -9.34078
-9.33767 -9.33714
-9.34378 -9.34411
-9.34084 -9.34077
-9.33488 -9.33341
-9.33469 -9.33314
-9.34471 -9.34452
-9.34685 -9.34678
-9.34643 -9.34611
-9.34365 -9.3438
-9.34673 -9.34662
-9.34667 -9.34657
-9.34327 -9.34357
-9.34608 -9.34574
-9.34573 -9.34548
-9.34618 -9.34601
-9.343 -9.3433
-9.34643 -9.34611
-9.34674 -9.34665
-9.34646 -9.34629
-9.34243 -9.34287
-9.34269 -9.34313
-9.34503 -9.34478
-9.34563 -9.34523
-9.34589 -9.34555
-9.34426 -9.34424
-9.34449 -9.34445
-9.34614 -9.3459
-9.34502 -9.34476
-9.34581 -9.34559
-9.34563 -9.34523
-9.34638 -9.34622
-9.34429 -9.34421
-9.34323 -9.34351
-9.34384 -9.344
-9.34473 -9.34425
-9.3464 -9.34644
-9.34598 -9.34574
-9.34632 -9.34632
-9.34607 -9.3459
-9.34327 -9.34271
-9.34481 -9.34438
-9.34532 -9.345
-9.34479 -9.34437
-9.3455 -9.34518
-9.34339 -9.34283
-9.34573 -9.34554
-9.3425 -9.34175
-9.34154 -9.34076
-9.34473 -9.34426
-9.346 -9.3459
-9.34572 -9.34555
-9.34511 -9.34474
-9.34598 -9.34573
-9.3463 -9.3463
-9.34573 -9.34555
-9.34562 -9.34536
-9.34598 -9.3459
-9.34154 -9.34076
-9.34455 -9.34472
-9.34307 -9.3433
-9.34267 -9.34282
-9.34469 -9.34478
-9.3428 -9.343
-9.34484 -9.34489
-9.34556 -9.34554
-9.34446 -9.34459
-9.34286 -9.34311
-9.34536 -9.34542
-9.34582 -9.34567
-9.34422 -9.3444
-9.34286 -9.34311
-9.34536 -9.34542
-9.34376 -9.34401
-9.34267 -9.34282
-9.34351 -9.34377
-9.34445 -9.34459
-9.345 -9.34507
-9.34474 -9.34486
-9.34347 -9.34371
-9.34488 -9.34503
-9.34527 -9.34529
-9.34557 -9.34558
-9.34551 -9.3455
-9.3428 -9.343
-9.34571 -9.3456
-9.34582 -9.34567
-9.25564 -9.25373
-9.18005 -9.17875
-9.21246 -9.21004
-9.28109 -9.27972
-9.34597 -9.34573
-9.3456 -9.34553
-9.34473 -9.34446
-9.34616 -9.34588
-9.34304 -9.3433
-9.34313 -9.34341
-9.2329 -9.23248
-9.17085 -9.16874
-9.29555 -9.29715
-9.34633 -9.34601
-9.34639 -9.34635
-9.32401 -9.32641
-9.324 -9.32474
-9.34537 -9.34538
-9.324 -9.32524
-9.324 -9.32355
-9.324 -9.32295
-9.34396 -9.34461
-9.34369 -9.34384
-9.34352 -9.34362
-9.34107 -9.34101
-9.34311 -9.34325
-9.3438 -9.3443
-9.34145 -9.34143
-9.3377 -9.33716
-9.33636 -9.33543
-9.34282 -9.34299
-9.342 -9.34199
-9.34323 -9.34326
-9.3436 -9.34396
-9.34351 -9.34361
-9.33581 -9.33474
-9.33635 -9.33543
-9.34361 -9.34381
-9.34144 -9.34141
-9.34229 -9.34233
-9.3408 -9.34074
-9.34294 -9.34296
-9.34346 -9.3437
-9.33638 -9.33545
-9.34332 -9.34326
-9.34667 -9.34655
-9.34582 -9.3456
-9.34659 -9.34649
-9.34665 -9.34656
-9.34427 -9.34424
-9.34646 -9.34617
-9.34638 -9.34622
-9.34651 -9.34641
-9.34614 -9.3459
-9.34673 -9.34662
-9.34362 -9.34381
-9.3447 -9.34452
-9.34533 -9.34497
-9.34431 -9.34421
-9.34607 -9.34574
-9.34431 -9.34423
-9.34537 -9.34505
-9.34272 -9.34309
-9.34249 -9.34297
-9.34638 -9.34623
-9.34685 -9.34678
-9.34169 -9.34089
-9.34573 -9.34556
-9.34628 -9.34603
-9.3438 -9.34324
-9.34439 -9.34397
-9.34628 -9.34603
-9.34575 -9.34557
-9.34628 -9.34603
-9.34655 -9.3466
-9.34655 -9.3466
-9.3444 -9.34398
-9.34576 -9.3454
-9.34636 -9.34613
-9.34512 -9.34474
-9.34468 -9.34413
-9.34486 -9.34445
-9.34509 -9.34472
-9.346 -9.34576
-9.34671 -9.34675
-9.34571 -9.34561
-9.34604 -9.34574
-9.34583 -9.34568
-9.34534 -9.3454
-9.3456 -9.34553
-9.34351 -9.34377
-9.34602 -9.34575
-9.34526 -9.34531
-9.34455 -9.34472
-9.34265 -9.34277
-9.34583 -9.34565
-9.34538 -9.3454
-9.34486 -9.34496
-9.34333 -9.34357
-9.34443 -9.34454
-9.34505 -9.34506
-9.34537 -9.34546
-9.34454 -9.34472
-9.34383 -9.34406
-9.34443 -9.34454
-9.34396 -9.34416
-9.3437 -9.34394
-9.34516 -9.34525
-9.2109 -9.20986
-9.1188 -9.11691
-9.20415 -9.20292
-9.13556 -9.13543
-9.26302 -9.26219
-9.13856 -9.13687
-9.18157 -9.18067
-9.27131 -9.27084
-9.34647 -9.3464
-9.34591 -9.34571
-9.34624 -9.34594
-9.34537 -9.3454
-9.34655 -9.3466
-9.34639 -9.34622
-9.33869 -9.33839
-9.346 -9.34589
-9.34537 -9.3454
-9.34397 -9.34462
-9.16651 -9.16657
-8.67532 -8.67622
-8.75418 -8.75479
-9.17568 -9.17961
-9.03397 -9.03253
-8.88104 -8.88168
-9.19168 -9.1907
-8.91035 -8.9083
-9.03843 -9.03885
-8.88641 -8.88414
-8.71391 -8.7141
-9.19471 -9.19481
-9.31798 -9.3168
-9.06304 -9.06269
-8.56602 -8.56343
-9.02932 -9.02422
-8.85233 -8.85495
-9.01156 -9.01384
-9.01691 -9.01836
-9.16113 -9.16411
-8.97709 -8.97795
-8.85888 -8.8623
-8.60448 -8.60433
-9.19674 -9.19768
-9.2234 -9.21814
-9.14455 -9.14625
-9.11865 -9.11874
-9.04897 -9.05008
-9.324 -9.32565
-8.96908 -8.97127
-9.17275 -9.17388
-9.20919 -9.21202
-8.99046 -8.99759
-8.65192 -8.64933
-9.11228 -9.1149
-9.19413 -9.1941
-9.27583 -9.27574
-9.07904 -9.08046
-9.07895 -9.08057
-8.79941 -8.79824
-9.09529 -9.09421
-9.15814 -9.16039
-9.24034 -9.24332
-8.98699 -8.98631
-9.23562 -9.23683
-9.03432 -9.03605
-9.09839 -9.09746
-9.09977 -9.10295
-8.99733 -8.99809
-9.02074 -9.0202
-9.00548 -9.00706
-9.06757 -9.06805
-9.13392 -9.13515
-9.00286 -9.00231
-9.04451 -9.04474
-9.08294 -9.08392
-9.15444 -9.15259
-9.22517 -9.2248
-9.05361 -9.05439
-9.27074 -9.27077
-9.18528 -9.18391
-8.96164 -8.96101
-9.0846 -9.08274
-9.07764 -9.07868
-9.05652 -9.05705
-9.06909 -9.06808
-9.14142 -9.14286
-9.19339 -9.19302
-9.18878 -9.1906
-9.25097 -9.25031
-9.18196 -9.18364
-9.23358 -9.23331
-9.17237 -9.17477
-9.34265 -9.34266
-9.32399 -9.32385
-9.32399 -9.32362
-9.32399 -9.32331
-9.34613 -9.34572
-9.34174 -9.34072
-9.33296 -9.33286
-9.32437 -9.32744
-9.324 -9.32401
-9.324 -9.32336
-9.34074 -9.3407
-9.33487 -9.33341
-9.33718 -9.33653
-9.34356 -9.34349
-9.34295 -9.34297
-9.34147 -9.34144
-9.34244 -9.34246
-9.34376 -9.34397
-9.34084 -9.34078
-9.34003 -9.33988
-9.34156 -9.34156
-9.34227 -9.34231
-9.34032 -9.34023
-9.34293 -9.34289
-9.33767 -9.33714
-9.34396 -9.34462
-9.34405 -9.3447
-9.34355 -9.34348
-9.34369 -9.34384
-9.34411 -9.34413
-9.34581 -9.34559
-9.34503 -9.34477
-9.3445 -9.34446
-9.34591 -9.34556
-9.34564 -9.34542
-9.34504 -9.34478
-9.3443 -9.34422
-9.34249 -9.34297
-9.34644 -9.34615
-9.34346 -9.34373
-9.34303 -9.3433
-9.34592 -9.34566
-9.34646 -9.34629
-9.34621 -9.34585
-9.34469 -9.34454
-9.3459 -9.34556
-9.34609 -9.34576
-9.34603 -9.34586
-9.34504 -9.34478
-9.34593 -9.34567
-9.34606 -9.34569
-9.34663 -9.34655
-9.34363 -9.34381
-9.34598 -9.3459
-9.34675 -9.34677
-9.34339 -9.34284
-9.34218 -9.34146
-9.34564 -9.34538
-9.34405 -9.34358
-9.3458 -9.34546
-9.34313 -9.34251
-9.3463 -9.34632
-9.34642 -9.34638
-9.34662 -9.34668
-9.34599 -9.34591
-9.34258 -9.3419
-9.34488 -9.34447
-9.34377 -9.34319
-9.34404 -9.34357
-9.34628 -9.34603
-9.34617 -9.34589
-9.34611 -9.34606
-9.34647 -9.3464
-9.34265 -9.34277
-9.34344 -9.34372
-9.34567 -9.34558
-9.34504 -9.34515
-9.34516 -9.34525
-9.34525 -9.34533
-9.34537 -9.34541
-9.34347 -9.34372
-9.34517 -9.34526
-9.34525 -9.34532
-9.34308 -9.34331
-9.34396 -9.34416
-9.34429 -9.34447
-9.34572 -9.34565
-9.3428 -9.343
-9.3455 -9.34549
-9.3435 -9.34377
-9.34454 -9.34472
-9.34465 -9.34475
-9.34559 -9.34554
-9.15545 -9.15588
-9.08867 -9.08823
-9.21341 -9.212
-9.11206 -9.11371
-9.18368 -9.18538
-9.06574 -9.06442
-9.19872 -9.19744
-9.27148 -9.27045
-9.2565 -9.25598
-9.25037 -9.24897
-9.21599 -9.2144
-9.27711 -9.27569
-9.20851 -9.20736
-9.1132 -9.11197
-9.25336 -9.25139
-9.34667 -9.34657
-9.34598 -9.34574
-9.34169 -9.34089
-9.34084 -9.34077
-9.34332 -9.34327
-9.34469 -9.34478
-9.33385 -9.33375
-9.32399 -9.323
-9.324 -9.32613
-9.324 -9.32428
-9.324 -9.32336
-9.324 -9.32331
-9.324 -9.32298
-9.33559 -9.33576
-9.324 -9.3241
-9.324 -9.3237
-9.324 -9.32316
-9.3436 -9.34395
-9.34386 -9.34446
-9.34379 -9.34429
-9.33653 -9.3357
-9.34325 -9.34318
-9.34229 -9.34233
-9.34157 -9.34157
-9.3436 -9.34381
-9.34379 -9.34429
-9.34252 -9.34247
-9.34204 -9.34201
-9.34199 -9.34198
-9.34325 -9.34316
-9.34228 -9.34232
-9.34296 -9.34298
-9.34538 -9.34507
-9.34595 -9.34552
-9.34626 -9.34603
-9.3447 -9.34452
-9.34571 -9.34547
-9.34638 -9.34624
-9.34303 -9.34331
-9.34538 -9.34507
-9.34616 -9.346
-9.34565 -9.34524
-9.3436 -9.3438
-9.345 -9.3447
-9.34586 -9.34547
-9.34359 -9.34379
-9.34632 -9.346
-9.34657 -9.34641
-9.34182 -9.34104
-9.34628 -9.34603
-9.34671 -9.34675
-9.34271 -9.34208
-9.34515 -9.34475
-9.34599 -9.34575
-9.34598 -9.34574
-9.34329 -9.34273
-9.34404 -9.34357
-9.34599 -9.34589
-9.34384 -9.34332
-9.34182 -9.34104
-9.34228 -9.34158
-9.34647 -9.3464
-9.3464 -9.34641
-9.34531 -9.34499
-9.34547 -9.34507
-9.3463 -9.34629
-9.3463 -9.34632
-9.34258 -9.34191
-9.34674 -9.34683
-9.34446 -9.34459
-9.34464 -9.34474
-9.34527 -9.34533
-9.34537 -9.34546
-9.34456 -9.34473
-9.34504 -9.34515
-9.34485 -9.34489
-9.34335 -9.3436
-9.34446 -9.3446
-9.3437 -9.34394
-9.34549 -9.3455
-9.34291 -9.34315
-9.34567 -9.34558
-9.34549 -9.3455
-9.34559 -9.34553
-9.34462 -9.34479
-9.34543 -9.34549
-9.34446 -9.3446
-9.34604 -9.34574
-9.34286 -9.34311
-9.34542 -9.34548
-9.16469 -9.16612
-9.13489 -9.13491
-9.14732 -9.14658
-9.23882 -9.23827
-9.24282 -9.24157
-9.24394 -9.24332
-9.16783 -9.16762
-9.21564 -9.21413
-9.19218 -9.19066
-9.10891 -9.10902
-9.34685 -9.34677
-9.34446 -9.3446
-9.1872 -9.18652
-9.324 -9.32303
-9.34289 -9.3423
-9.34488 -9.34447
-9.324 -9.32641
-9.17622 -9.17532
-9.34654 -9.34659
-9.32526 -9.32831
-9.34582 -9.34567
-9.34414 -9.34365
-9.00218 -9.00147
-9.06177 -9.06101
-8.59724 -8.59925
-8.90643 -8.90759
-8.90299 -8.90293
-9.05063 -9.05251
-8.44748 -8.45937
-8.77203 -8.7683
-8.37517 -8.36728
-9.15444 -9.1566
-8.67542 -8.67709
-8.88022 -8.88159
-8.94822 -8.94786
-8.54662 -8.54999
-9.21036 -9.21227
-8.52774 -8.52492
-9.23563 -9.24155
-9.05553 -9.05454
-8.85479 -8.85613
-8.81355 -8.80837
-9.11481 -9.11702
-9.09875 -9.10145
-9.12996 -9.13124
-8.85519 -8.85244
-9.17475 -9.17399
-9.04726 -9.04777
-9.25863 -9.26043
-8.83548 -8.83392
-8.91384 -8.91507
-9.17231 -9.17186
-9.04606 -9.04546
-9.10404 -9.10583
-8.83562 -8.83566
-8.8925 -8.89451
-9.34099 -9.34152
-9.09153 -9.09022
-9.17435 -9.17386
-9.28201 -9.2759
-9.10038 -9.10204
-9.19276 -9.1952
-9.1165 -9.11718
-9.00772 -9.00985
-8.93778 -8.93984
-9.20726 -9.20965
-9.17861 -9.17724
-9.1714 -9.17151
-8.97785 -8.97621
-8.95545 -8.95578
-9.33883 -9.3377
-9.17141 -9.17229
-9.11839 -9.11922
-9.26656 -9.27089
-9.28328 -9.2828
-9.10647 -9.10888
-9.23692 -9.2366
-9.05463 -9.05454
-9.34541 -9.34529
-9.16675 -9.16668
-9.3418 -9.3425
-9.00941 -9.00927
-9.17956 -9.17859
-9.28426 -9.2837
-9.20183 -9.20242
-8.97949 -8.97698
-9.18585 -9.18427
-9.08903 -9.08979
-9.16992 -9.1709
-9.32948 -9.33056
-9.18529 -9.18522
-9.2009 -9.19989
-9.10972 -9.10902
-9.07961 -9.07981
-9.17653 -9.17664
-9.14621 -9.1459
-9.17431 -9.17291
-9.15629 -9.1565
-9.07987 -9.08093
-9.19529 -9.19784
-9.324 -9.32505
-9.26936 -9.27199
-9.27389 -9.27347
-9.04984 -9.05307
-9.09678 -9.09589
-9.33426 -9.33368
-9.32399 -9.3246
-9.32399 -9.32295
-9.324 -9.323
-9.324 -9.32362
-9.324 -9.32331
-9.33563 -9.33451
-9.34376 -9.34397
-9.34003 -9.33989
-9.33825 -9.33789
-9.34145 -9.34141
-9.34117 -9.34112
-9.34286 -9.34296
-9.33583 -9.33475
-9.34352 -9.34362
-9.34227 -9.34231
-9.34146 -9.34142
-9.34356 -9.34349
-9.33973 -9.33958
-9.3413 -9.34126
-9.34081 -9.34074
-9.33868 -9.33838
-9.34305 -9.34326
-9.33817 -9.33772
-9.34244 -9.34246
-9.34341 -9.34376
-9.34397 -9.34462
-9.34225 -9.3423
-9.34234 -9.34279
-9.34607 -9.34575
-9.34566 -9.34525
-9.34384 -9.34399
-9.34566 -9.34525
-9.34581 -9.34559
-9.34564 -9.34524
-9.34298 -9.34338
-9.3462 -9.346
-9.34504 -9.34479
-9.34518 -9.34496
-9.34607 -9.34574
-9.3458 -9.34558
-9.3465 -9.34631
-9.34297 -9.34338
-9.34542 -9.34499
-9.34634 -9.34602
-9.34516 -9.34495
-9.34502 -9.34476
-9.34471 -9.34455
-9.34582 -9.3456
-9.34639 -9.34617
-9.34637 -9.34633
-9.34632 -9.34634
-9.34637 -9.34623
-9.34339 -9.34283
-9.34559 -9.34537
-9.3463 -9.34604
-9.34406 -9.3436
-9.34474 -9.34426
-9.3467 -9.34676
-9.34669 -9.34676
-9.34379 -9.34322
-9.34332 -9.34273
-9.34362 -9.34312
-9.34637 -9.34623
-9.3464 -9.34622
-9.3427 -9.34207
-9.34654 -9.34659
-9.34612 -9.34605
-9.34169 -9.34089
-9.34332 -9.34273
-9.34583 -9.34565
-9.34395 -9.34415
-9.34368 -9.34396
-9.34484 -9.3449
-9.34443 -9.34454
-9.34465 -9.34474
-9.3451 -9.3452
-9.34516 -9.34525
-9.34514 -9.34518
-9.34593 -9.34572
-9.34377 -9.34402
-9.3429 -9.34315
-9.34496 -9.34504
-9.34527 -9.34529
-9.34604 -9.34573
-9.22884 -9.2276
-9.14659 -9.14495
-9.20064 -9.20182
-9.25501 -9.25515
-9.34639 -9.3462
-9.34259 -9.34192
-9.34516 -9.34525
-9.34658 -9.34648
-9.34409 -9.34435
-9.34518 -9.34496
-9.34411 -9.34412
-9.34403 -9.34357
-9.34459 -9.34414
-9.15387 -9.15254
-9.34293 -9.34287
-9.34299 -9.3433
-9.34639 -9.34625
-9.34609 -9.34605
-9.34524 -9.34486
-9.33586 -9.33562
-9.32399 -9.32505
-9.32399 -9.32312
-9.32399 -9.32298
-9.324 -9.32401
-9.324 -9.32316
-9.324 -9.32306
-9.324 -9.32293
-9.324 -9.32543
-9.324 -9.32385
-9.34357 -9.34401
-9.34354 -9.34353
-9.34264 -9.34263
-9.33898 -9.3387
-9.34225 -9.34218
-9.33829 -9.33793
-9.33885 -9.33854
-9.34332 -9.34327
-9.34368 -9.34384
-9.34397 -9.34461
-9.34343 -9.34378
-9.34107 -9.34101
-9.34281 -9.34298
-9.33953 -9.33938
-9.33989 -9.33972
-9.34146 -9.34144
-9.34356 -9.34351
-9.33842 -9.33806
-9.34402 -9.34474
-9.34235 -9.34279
-9.34346 -9.34373
-9.34646 -9.34629
-9.34452 -9.34447
-9.34664 -9.34652
-9.3465 -9.34639
-9.34471 -9.34452
-9.3462 -9.34601
-9.34272 -9.34309
-9.34644 -9.34616
-9.34588 -9.34549
-9.34381 -9.34398
-9.34469 -9.34451
-9.34609 -9.34575
-9.3443 -9.34421
-9.345 -9.3447
-9.34333 -9.34359
-9.34396 -9.34398
-9.34634 -9.34603
-9.34471 -9.34452
-9.3464 -9.34641
-9.34617 -9.34595
-9.34339 -9.34284
-9.34577 -9.34544
-9.34516 -9.34477
-9.3426 -9.34193
-9.34259 -9.34192
-9.34662 -9.34668
-9.34473 -9.34424
-9.34488 -9.34447
-9.34479 -9.34437
-9.34579 -9.34546
-9.34546 -9.34507
-9.34488 -9.34448
-9.34383 -9.34331
-9.34508 -9.3447
-9.34368 -9.34396
-9.34267 -9.34282
-9.34422 -9.34439
-9.34602 -9.34575
-9.34593 -9.34572
-9.34517 -9.34525
-9.3442 -9.34436
-9.3455 -9.34549
-9.34463 -9.3448
-9.34398 -9.34418
-9.34421 -9.34439
-9.345 -9.34507
-9.34484 -9.34489
-9.34571 -9.34564
-9.34267 -9.34282
-9.34571 -9.34561
-9.34525 -9.34533
-9.3456 -9.34554
-9.34556 -9.34553
-9.34484 -9.34489
-9.34503 -9.34514
-9.34455 -9.34472
-9.34346 -9.3437
-9.34445 -9.34458
-9.34555 -9.34552
-9.34495 -9.34503
-9.34567 -9.34558
-9.34368 -9.34396
-9.34301 -9.3432
-9.19172 -9.19002
-9.19904 -9.19826
-9.17307 -9.17171
-9.01192 -9.01045
-9.22116 -9.21948
-9.00073 -9.00045
-9.14892 -9.14822
-9.17697 -9.17588
-9.23011 -9.22899
-9.22163 -9.22015
-9.34573 -9.34554
-9.34379 -9.34429
-9.34646 -9.34629
-9.2351 -9.23497
-9.32951 -9.33057
-9.34429 -9.34448
-9.324 -9.32292
-9.34402 -9.34347
-9.34199 -9.34196
-9.32399 -9.32303
-9.34509 -9.34472
-8.63966 -8.6392
-8.74038 -8.74075
-8.99223 -8.98762
-8.66966 -8.67189
-8.80249 -8.8086
-9.01421 -9.01644
-8.36665 -8.36514
-9.34275 -9.34214
-9.25126 -9.24347
-8.99566 -8.99051
-9.06509 -9.06489
-8.82984 -8.82944
-9.22783 -9.22882
-9.19744 -9.19624
-9.26652 -9.26707
-9.08404 -9.08497
-8.9247 -8.92564
-9.08699 -9.08444
-9.06692 -9.0714
-9.10531 -9.10651
-9.06263 -9.06303
-8.95775 -8.95723
-9.04512 -9.04576
-9.00242 -9.00221
-8.89869 -8.89875
-9.11307 -9.11359
-8.98855 -8.98904
-9.17179 -9.17199
-9.15644 -9.15706
-9.02268 -9.02439
-9.03877 -9.0401
-8.92548 -8.92647
-9.08691 -9.08899
-9.28864 -9.2905
-9.27788 -9.27799
-9.29482 -9.29497
-9.25099 -9.24977
-9.21241 -9.21399
-9.31877 -9.31514
-9.27516 -9.2777
-9.14661 -9.147
-8.84168 -8.84358
-8.81037 -8.81239
-9.00174 -9.00219
-8.965 -8.9669
-8.9053 -8.90477
-9.03317 -9.0326
-8.9866 -8.98906
-9.26668 -9.26697
-8.93311 -8.93103
-9.01348 -9.01197
-9.23027 -9.23003
-9.10758 -9.10987
-8.81377 -8.814
-8.92184 -8.92015
-9.21294 -9.21343
-9.18692 -9.18708
-9.07512 -9.07548
-8.83516 -8.83378
-9.15377 -9.15384
-9.18567 -9.18477
-9.0769 -9.07665
-8.96492 -8.96635
-9.16316 -9.16302
-9.26306 -9.2615
-9.09749 -9.09505
-9.06494 -9.06599
-9.23794 -9.23696
-9.18355 -9.18377
-8.9751 -8.97463
-9.11285 -9.11574
-9.19752 -9.19538
-9.13474 -9.13754
-9.21646 -9.21518
-9.11123 -9.11327
-9.07336 -9.0716
-9.09747 -9.09639
-9.06907 -9.07124
-9.07584 -9.07407
-9.22277 -9.22457
-9.34307 -9.3433
-9.04248 -9.0423
-9.22788 -9.22739
-9.20876 -9.21168
-9.33963 -9.33999
-9.32475 -9.32786
-9.33199 -9.33204
-9.32956 -9.33057
-9.324 -9.3237
-9.324 -9.32362
-9.324 -9.32301
-9.34299 -9.34324
-9.324 -9.32613
-9.324 -9.32505
-9.324 -9.32377
-9.34286 -9.34297
-9.33487 -9.33341
-9.34231 -9.34234
-9.34297 -9.343
-9.34344 -9.34379
-9.34205 -9.34202
-9.34223 -9.34216
-9.34342 -9.34335
-9.34326 -9.34316
-9.34292 -9.34289
-9.33978 -9.33964
-9.33887 -9.33857
-9.34294 -9.34297
-9.33506 -9.33369
-9.34378 -9.34412
-9.3431 -9.34306
-9.33768 -9.33715
-9.34342 -9.34333
-9.33884 -9.33854
-9.33896 -9.33868
-9.3431 -9.34304
-9.34142 -9.34139
-9.34278 -9.34295
-9.34107 -9.341
-9.34074 -9.3407
-9.33487 -9.33341
-9.34674 -9.34665
-9.34264 -9.34311
-9.34325 -9.34352
-9.34619 -9.34601
-9.34503 -9.34477
-9.34498 -9.3447
-9.34642 -9.34615
-9.34361 -9.34379
-9.34565 -9.3453
-9.34649 -9.3463
-9.34582 -9.3456
-9.34634 -9.34604
-9.34685 -9.34677
-9.34667 -9.34655
-9.34272 -9.3431
-9.34607 -9.3457
-9.34626 -9.34602
-9.34563 -9.34542
-9.34646 -9.34624
-9.3465 -9.34639
-9.34681 -9.34672
-9.34378 -9.34321
-9.34642 -9.34645
-9.34574 -9.34557
-9.34606 -9.3459
-9.34656 -9.34658
-9.34611 -9.34605
-9.34547 -9.34508
-9.34512 -9.34474
-9.34447 -9.34399
-9.34649 -9.34652
-9.34638 -9.34626
-9.34617 -9.34595
-9.34574 -9.34539
-9.34642 -9.34638
-9.34639 -9.34634
-9.34523 -9.34485
-9.3464 -9.34641
-9.34662 -9.34668
-9.34613 -9.34572
-9.34557 -9.34558
-9.34559 -9.34552
-9.345 -9.34507
-9.34424 -9.34442
-9.34446 -9.34459
-9.34384 -9.34406
-9.34454 -9.34473
-9.34583 -9.34567
-9.34369 -9.34392
-9.34525 -9.34532
-9.34572 -9.34564
-9.34351 -9.34378
-9.34568 -9.34554
-9.34613 -9.34573
-9.16607 -9.16496
-9.24644 -9.24553
-9.13092 -9.13027
-9.16221 -9.16064
-9.20036 -9.19919
-9.10865 -9.10897
-9.14049 -9.14017
-9.15866 -9.15733
-9.15294 -9.15267
-9.29964 -9.29885
-9.34642 -9.34638
-9.34259 -9.34191
-9.34339 -9.34283
-9.34584 -9.34567
-9.17682 -9.17626
-9.34632 -9.346
-9.1552 -9.15622
-9.324 -9.3246
-9.34635 -9.34602
-9.34632 -9.34625
-9.34605 -9.34587
-9.326 -9.32881
-9.3468 -9.34649
-9.32402 -9.32672
-9.324 -9.3241
-9.33429 -9.33343
-9.324 -9.32641
-9.324 -9.32588
-9.33827 -9.3379
-9.33751 -9.33697
-9.33506 -9.3337
-9.34361 -9.34381
-9.34263 -9.34262
-9.34297 -9.34302
-9.3399 -9.33973
-9.3423 -9.34234
-9.34032 -9.34023
-9.34252 -9.34247
-9.34231 -9.34235
-9.33885 -9.33854
-9.34362 -9.34366
-9.34304 -9.34325
-9.33883 -9.33852
-9.34325 -9.34318
-9.34263 -9.3426
-9.34359 -9.34396
-9.34397 -9.34462
-9.33992 -9.33974
-9.34512 -9.34494
-9.34579 -9.34559
-9.34681 -9.34672
-9.34503 -9.34477
-9.34363 -9.3438
-9.34644 -9.34616
-9.34519 -9.34497
-9.3447 -9.34452
-9.34628 -9.34604
-9.34586 -9.34547
-9.34537 -9.34506
-9.34272 -9.3431
-9.34395 -9.34406
-9.34564 -9.34529
-9.34644 -9.34611
-9.34588 -9.34553
-9.34613 -9.34589
-9.34681 -9.34672
-9.34673 -9.34662
-9.34226 -9.34272
-9.34579 -9.34559
-9.34169 -9.34089
-9.34487 -9.34446
-9.34414 -9.34365
-9.3464 -9.34622
-9.34605 -9.34589
-9.34597 -9.34589
-9.34575 -9.34557
-9.34654 -9.34659
-9.34511 -9.34473
-9.34642 -9.34645
-9.34658 -9.34661
-9.34637 -9.34633
-9.34205 -9.34128
-9.34605 -9.34588
-9.34669 -9.34676
-9.34301 -9.3432
-9.34605 -9.34573
-9.34395 -9.34415
-9.34346 -9.34371
-9.34454 -9.34472
-9.34425 -9.34443
-9.34527 -9.3453
-9.34395 -9.34415
-9.345 -9.34513
-9.34588 -9.34568
-9.34302 -9.3432
-9.34504 -9.34515
-9.34583 -9.34567
-9.34528 -9.34531
-9.34543 -9.34549
-9.34536 -9.34541
-9.34538 -9.3454
-9.34503 -9.34514
-9.34554 -9.34552
-9.34527 -9.3453
-9.34395 -9.34415
-9.34583 -9.34565
-9.34593 -9.34572
-9.34613 -9.34572
-9.22015 -9.21989
-9.28359 -9.28277
-9.19259 -9.19246
-9.177 -9.17617
-8.93697 -8.93552
-9.10514 -9.10591
-9.25492 -9.25436
-9.11008 -9.10922
-9.13127 -9.13054
-9.2049 -9.20368
-9.34349 -9.34341
-9.34614 -9.3459
-9.27342 -9.27483
-9.34486 -9.34445
-9.34376 -9.34401
-9.34404 -9.34358
-9.34517 -9.34526
-9.34531 -9.34509
-9.34035 -9.34026
-8.93481 -8.93383
-8.66885 -8.66122
-8.30046 -8.30369
-8.82356 -8.82456
-8.58902 -8.60364
-8.76217 -8.76307
-8.94527 -8.94292
-9.05552 -9.05718
-8.36768 -8.3746
-9.32478 -9.32786
-8.45255 -8.45613
-9.23195 -9.23157
-8.82832 -8.82735
-9.22854 -9.22644
-9.16271 -9.16526
-9.27546 -9.27408
-9.22855 -9.22845
-9.16161 -9.16199
-8.83989 -8.83997
-8.88439 -8.88179
-9.19484 -9.19328
-9.03183 -9.03229
-8.9085 -8.90659
-9.0233 -9.02474
-9.01928 -9.01968
-9.19062 -9.18922
-9.31145 -9.31501
-9.22254 -9.22256
-8.93309 -8.93445
-9.1858 -9.188
-8.97338 -8.97411
-9.18772 -9.19222
-9.19775 -9.19806
-9.17143 -9.17278
-8.94724 -8.94616
-9.05759 -9.05783
-9.22984 -9.23053
-8.45471 -8.44855
-9.06948 -9.06822
-9.15389 -9.15411
-9.2487 -9.25099
-8.96812 -8.96728
-9.25725 -9.25767
-9.20814 -9.2079
-8.98921 -8.98968
-9.1301 -9.13223
-9.07232 -9.07351
-9.18028 -9.18385
-9.02585 -9.02627
-9.25367 -9.25448
-9.06691 -9.06839
-9.08112 -9.07995
-9.0365 -9.03895
-9.23964 -9.23717
-9.23134 -9.23497
-9.28829 -9.28837
-8.95068 -8.95091
-9.01809 -9.01943
-9.08588 -9.08844
-9.10433 -9.10571
-9.0949 -9.09318
-9.13765 -9.13796
-9.07864 -9.07709
-9.16152 -9.16419
-9.02745 -9.0294
-9.11916 -9.11838
-9.13461 -9.13412
-9.18455 -9.1839
-8.95953 -8.95908
-9.13501 -9.13638
-9.21682 -9.21694
-9.16335 -9.16446
-9.18466 -9.18499
-9.10781 -9.1091
-9.25035 -9.24925
-9.17196 -9.17127
-8.92347 -8.92193
-9.08153 -9.07993
-9.21527 -9.21564
-8.92833 -8.92859
-9.10472 -9.10376
-9.06914 -9.07117
-9.22822 -9.22793
-9.01076 -9.01044
-9.00681 -9.00556
-9.07005 -9.06807
-8.90491 -8.90341
-9.2237 -9.22224
-9.16356 -9.16325
-9.34405 -9.3447
-9.23721 -9.24
-9.05866 -9.05855
-9.12897 -9.12818
-9.14778 -9.14608
-9.25736 -9.25624
-9.32399 -9.32474
-9.32399 -9.32319
-9.33771 -9.33812
-9.324 -9.32312
-9.33673 -9.33688
-9.324 -9.32342
-9.324 -9.32306
-9.34405 -9.3447
-9.33582 -9.33474
-9.33815 -9.3377
-9.34116 -9.34112
-9.3402 -9.34009
-9.34342 -9.34333
-9.342 -9.34197
-9.33948 -9.33928
-9.34378 -9.34411
-9.34361 -9.34382
-9.33617 -9.33516
-9.3436 -9.34395
-9.34324 -9.34316
-9.34286 -9.34297
-9.34224 -9.34217
-9.34325 -9.34319
-9.33948 -9.33934
-9.33828 -9.33791
-9.34265 -9.34264
-9.33636 -9.33543
-9.34377 -9.34428
-9.33563 -9.33451
-9.34614 -9.34591
-9.34609 -9.34576
-9.34519 -9.34497
-9.34613 -9.34589
-9.34386 -9.34401
-9.34647 -9.34625
-9.34324 -9.34352
-9.34478 -9.34461
-9.34663 -9.3465
-9.34579 -9.34559
-9.34672 -9.34662
-9.34474 -9.34446
-9.34451 -9.34447
-9.34516 -9.34495
-9.34618 -9.34601
-9.34243 -9.34287
-9.34273 -9.3431
-9.34573 -9.34554
-9.34669 -9.34676
-9.34671 -9.34675
-9.34524 -9.34486
-9.34259 -9.34192
-9.34534 -9.34501
-9.3451 -9.34472
-9.34636 -9.34613
-9.34617 -9.34589
-9.3462 -9.34607
-9.34526 -9.3449
-9.34639 -9.34635
-9.3426 -9.34193
-9.34675 -9.34677
-9.34671 -9.34675
-9.34599 -9.34575
-9.34632 -9.34631
-9.34559 -9.34536
-9.3462 -9.34607
-9.34616 -9.34594
-9.34516 -9.34477
-9.34596 -9.34589
-9.3426 -9.34193
-9.34364 -9.34314
-9.34596 -9.34563
-9.34627 -9.34608
-9.34658 -9.34661
-9.34642 -9.34645
-9.34286 -9.34311
-9.34369 -9.34393
-9.34484 -9.3449
-9.34351 -9.34377
-9.34456 -9.34473
-9.3441 -9.34436
-9.34396 -9.34416
-9.34411 -9.34437
-9.34533 -9.34539
-9.34307 -9.34331
-9.3427 -9.3429
-9.34464 -9.34474
-9.34558 -9.34558
-9.34483 -9.34489
-9.34533 -9.34539
-9.3441 -9.34437
-9.34351 -9.34377
-9.34485 -9.3449
-9.34351 -9.34377
-9.3456 -9.34553
-9.34267 -9.34282
-9.25885 -9.25811
-9.20171 -9.2041
-9.13122 -9.13082
-9.20472 -9.20424
-9.09251 -9.0905
-9.15083 -9.14919
-9.20031 -9.20099
-9.25912 -9.258
-9.22282 -9.22147
-9.34263 -9.34261
-9.34638 -9.34634
-9.11079 -9.10963
-9.34086 -9.3408
-9.3461 -9.3458
-9.34604 -9.34574
-9.34379 -9.34429
-9.34079 -9.34075
-9.34332 -9.34273
-9.34663 -9.34669
-9.34574 -9.34556
-9.34253 -9.34298
-9.34206 -9.34128
-9.32399 -9.32392
-9.32399 -9.32377
-9.32399 -9.32299
-9.33539 -9.33578
-9.324 -9.32342
-9.324 -9.32303
-9.324 -9.32565
-9.33637 -9.33543
-9.34362 -9.34366
-9.34017 -9.34006
-9.3419 -9.34193
-9.34379 -9.34428
-9.34386 -9.34446
-9.34324 -9.34316
-9.34355 -9.34348
-9.3431 -9.34324
-9.33824 -9.33787
-9.34085 -9.34079
-9.34385 -9.3443
-9.34378 -9.34428
-9.34386 -9.34446
-9.33617 -9.33516
-9.34357 -9.34401
-9.34685 -9.34677
-9.34394 -9.34406
-9.34664 -9.34656
-9.34682 -9.34672
-9.34565 -9.34524
-9.34593 -9.34567
-9.34681 -9.34673
-9.34681 -9.34672
-9.34649 -9.3463
-9.34226 -9.34272
-9.34477 -9.34461
-9.3465 -9.34639
-9.34605 -9.34587
-9.34502 -9.34476
-9.34615 -9.34591
-9.34564 -9.34529
-9.34664 -9.34656
-9.34266 -9.34312
-9.34512 -9.34494
-9.34662 -9.34668
-9.34662 -9.34668
-9.34557 -9.34534
-9.34628 -9.34603
-9.34616 -9.34594
-9.34489 -9.34448
-9.34628 -9.34609
-9.34469 -9.34415
-9.34627 -9.34609
-9.34564 -9.34538
-9.34636 -9.34622
-9.34675 -9.34677
-9.34588 -9.34568
-9.34536 -9.3454
-9.34527 -9.3453
-9.34584 -9.34565
-9.34527 -9.3453
-9.34469 -9.34477
-9.34568 -9.34558
-9.34604 -9.34573
-9.3427 -9.3429
-9.34528 -9.34531
-9.34423 -9.34442
-9.34504 -9.34515
-9.34334 -9.34359
-9.34308 -9.34331
-9.34422 -9.34439
-9.34539 -9.34547
-9.09532 -9.09455
-9.09176 -9.09162
-9.26168 -9.26036
-9.21517 -9.21324
-9.23943 -9.23791
-9.23199 -9.2325
-9.20804 -9.20692
-9.05767 -9.05653
-9.34613 -9.3459
-9.34641 -9.34644
-9.34572 -9.34555
-9.34351 -9.34378
-9.26714 -9.26979
-9.34146 -9.34143
-9.34169 -9.34089
-9.34539 -9.34547
-9.33992 -9.33974
-8.74375 -8.74838
-9.19142 -9.19177
-8.56476 -8.55883
-8.96014 -8.9611
-8.94034 -8.94967
-8.80211 -8.79947
-9.00537 -9.00635
-9.25175 -9.25224
-8.61358 -8.60799
-9.07813 -9.07744
-9.13724 -9.13626
-9.089 -9.08517
-9.17123 -9.16476
-9.05355 -9.05434
-8.75525 -8.75819
-9.03862 -9.03695
-9.18917 -9.19014
-9.15306 -9.15708
-9.34039 -9.34102
-9.22533 -9.22437
-9.32839 -9.32584
-8.85163 -8.85472
-8.95237 -8.94981
-9.29413 -9.29324
-9.25989 -9.26011
-9.08109 -9.07478
-8.90977 -8.90968
-9.06267 -9.06489
-9.07199 -9.07294
-8.9011 -8.89961
-8.97039 -8.96849
-9.20925 -9.20235
-8.89084 -8.8912
-8.91602 -8.91909
-8.79768 -8.8005
-9.29198 -9.29112
-8.98178 -8.9835
-9.08869 -9.09196
-9.03455 -9.02866
-9.08211 -9.0828
-8.85619 -8.8568
-9.1757 -9.17828
-9.23739 -9.23785
-9.04473 -9.04541
-9.25673 -9.25908
-9.19839 -9.19842
-9.06523 -9.06732
-9.00598 -9.00424
-9.27794 -9.27803
-9.1699 -9.16901
-9.1505 -9.1469
-9.14695 -9.14814
-9.2408 -9.24155
-8.99086 -8.99054
-9.11861 -9.11925
-9.09853 -9.09892
-9.05519 -9.05525
-9.34332 -9.34207
-9.34148 -9.34062
-9.13672 -9.13986
-9.16567 -9.1648
-9.26843 -9.26902
-9.21856 -9.21912
-8.98148 -8.98065
-9.19964 -9.19999
-9.13269 -9.13491
-9.11126 -9.11272
-8.99843 -8.99622
-9.15302 -9.15538
-9.19716 -9.19862
-9.21548 -9.21786
-9.324 -9.32438
-9.10931 -9.11128
-8.93103 -8.93007
-9.19709 -9.19638
-8.90575 -8.90542
-8.89501 -8.89514
-9.10189 -9.09995
-9.20822 -9.20932
-9.34638 -9.34606
-9.12387 -9.12274
-9.223 -9.22351
-9.14994 -9.14958
-9.00351 -9.00156
-9.0787 -9.07726
-9.30874 -9.31028
-9.33331 -9.33281
-9.32697 -9.32934
-9.32399 -9.32419
-9.324 -9.32348
-9.324 -9.32309
-9.34378 -9.34412
-9.34034 -9.34024
-9.33754 -9.33693
-9.34133 -9.34129
-9.34264 -9.34261
-9.3387 -9.33839
-9.34202 -9.342
-9.34312 -9.34326
-9.34004 -9.3399
-9.33827 -9.3379
-9.33487 -9.33341
-9.34295 -9.34299
-9.3437 -9.34386
-9.33948 -9.33929
-9.33651 -9.33568
-9.33635 -9.33541
-9.3437 -9.34384
-9.33544 -9.33421
-9.34379 -9.34434
-9.34243 -9.34287
-9.34477 -9.3446
-9.34634 -9.34602
-9.34564 -9.34524
-9.34622 -9.34585
-9.3459 -9.34555
-9.34333 -9.34359
-9.34647 -9.3463
-9.34607 -9.34574
-9.34614 -9.3459
-9.34646 -9.34624
-9.3464 -9.34623
-9.34359 -9.34379
-9.34562 -9.34523
-9.34658 -9.34648
-9.34394 -9.34405
-9.34681 -9.34673
-9.34605 -9.34587
-9.34346 -9.34373
-9.3465 -9.34631
-9.34227 -9.34157
-9.34205 -9.34128
-9.3455 -9.34518
-9.34573 -9.34556
-9.34525 -9.3449
-9.34403 -9.34357
-9.34636 -9.34621
-9.34611 -9.34606
-9.34612 -9.34606
-9.34218 -9.34146
-9.34632 -9.34625
-9.34182 -9.34104
-9.34638 -9.34634
-9.34597 -9.34574
-9.34637 -9.34633
-9.3431 -9.34247
-9.34629 -9.34604
-9.3463 -9.34605
-9.34549 -9.34509
-9.34478 -9.34436
-9.34338 -9.34282
-9.34312 -9.3425
-9.34606 -9.34589
-9.34584 -9.34565
-9.34654 -9.34659
-9.34627 -9.34602
-9.34533 -9.34539
-9.34473 -9.34486
-9.34454 -9.34472
-9.34446 -9.34461
-9.34429 -9.34447
-9.34514 -9.34518
-9.34307 -9.3433
-9.34445 -9.34459
-9.3453 -9.34534
-9.34312 -9.3434
-9.34528 -9.34532
-9.34516 -9.34525
-9.34455 -9.34473
-9.34307 -9.34331
-9.34483 -9.34489
-9.34468 -9.34477
-9.34324 -9.34351
-9.34265 -9.34277
-9.27242 -9.2722
-9.20989 -9.20891
-9.188 -9.1858
-9.3435 -9.34373
-9.10564 -9.10416
-9.34561 -9.34555
-9.34361 -9.34382
-9.3449 -9.34505
-9.06307 -9.06215
-9.34542 -9.34547
-9.33882 -9.33851
-9.34638 -9.34614
-9.34611 -9.34605
-9.34592 -9.34566
-9.32399 -9.32613
-9.32399 -9.32297
-9.32711 -9.32935
-9.34631 -9.346
-9.32476 -9.32786
-9.324 -9.32489
-9.324 -9.323
-9.324 -9.32299
-9.33992 -9.33974
-9.33843 -9.33807
-9.3377 -9.33716
-9.34397 -9.34461
-9.34325 -9.34317
-9.33691 -9.33613
-9.33883 -9.33854
-9.33989 -9.33973
-9.34362 -9.34368
-9.34144 -9.34141
-9.34145 -9.34141
-9.34296 -9.34298
-9.34378 -9.34428
-9.34385 -9.34429
-9.33562 -9.33449
-9.33814 -9.33769
-9.33752 -9.33691
-9.33755 -9.33694
-9.33637 -9.33544
-9.33689 -9.33612
-9.34034 -9.34026
-9.34293 -9.34296
-9.34384 -9.344
-9.34607 -9.34589
-9.34681 -9.34672
-9.34614 -9.34591
-9.34474 -9.34447
-9.34303 -9.3433
-9.34541 -9.345
-9.34581 -9.34559
-9.34469 -9.34454
-9.34566 -9.34544
-9.34633 -9.34601
-9.34436 -9.34423
-9.34267 -9.34313
-9.34664 -9.34656
-9.34607 -9.34589
-9.34503 -9.34478
-9.34614 -9.34591
-9.34386 -9.34396
-9.34518 -9.34496
-9.34644 -9.34616
-9.34361 -9.34379
-9.34633 -9.34601
-9.34531 -9.34508
-9.34304 -9.34331
-9.34651 -9.34641
-9.34644 -9.34615
-9.34643 -9.34611
-9.34508 -9.3447
-9.34384 -9.34332
-9.34649 -9.34652
-9.34258 -9.34191
-9.34598 -9.34574
-9.34638 -9.34633
-9.34576 -9.34541
-9.34488 -9.34448
-9.34584 -9.34564
-9.34549 -9.34518
-9.34547 -9.34508
-9.34228 -9.34158
-9.34542 -9.34548
-9.34526 -9.34531
-9.34538 -9.34541
-9.34486 -9.34497
-9.34444 -9.34455
-9.34504 -9.34505
-9.3428 -9.343
-9.34568 -9.34554
-9.34446 -9.3446
-9.34505 -9.34506
-9.34473 -9.34486
-9.34499 -9.34506
-9.34376 -9.34401
-9.34602 -9.34575
-9.23486 -9.23457
-9.0926 -9.09138
-9.19987 -9.19946
-9.18987 -9.1889
-9.24998 -9.25281
-9.24056 -9.24266
-9.24738 -9.24647
-9.26261 -9.26161
-9.29045 -9.28911
-9.34362 -9.34379
-9.34612 -9.34589
-9.3464 -9.34623
-9.3425 -9.34175
-9.34431 -9.34422
-9.34384 -9.34332
-9.34542 -9.34548
-9.34526 -9.34531
-9.34528 -9.34531
-9.33673 -9.33667
-8.68662 -8.68908
-8.49804 -8.49971
-9.03077 -9.03578
-8.43279 -8.42906
-8.73922 -8.73342
-8.95137 -8.95809
-9.18143 -9.1856
-8.94622 -8.93904
-9.21709 -9.21849
-8.8858 -8.88671
-9.09146 -9.10318
-9.01802 -9.01896
-9.15314 -9.14816
-9.06083 -9.05846
-8.72307 -8.72075
-8.88742 -8.88879
-8.85781 -8.85814
-8.9676 -8.9682
-8.5877 -8.58424
-9.12217 -9.11673
-9.09317 -9.09497
-8.87711 -8.88176
-9.12174 -9.12328
-8.99434 -8.99177
-8.94418 -8.94446
-8.92634 -8.92766
-9.15535 -9.15536
-9.0777 -9.07978
-9.0895 -9.08932
-9.12464 -9.12509
-9.01276 -9.01392
-9.0449 -9.046
-9.29342 -9.29345
-9.28464 -9.28434
-9.22713 -9.22853
-9.14138 -9.14297
-9.00273 -9.0007
-9.19613 -9.19821
-9.07433 -9.07462
-9.20107 -9.202
-9.25523 -9.25461
-9.02931 -9.02801
-9.31014 -9.31063
-8.92117 -8.91903
-9.19032 -9.19129
-8.95363 -8.95196
-9.32405 -9.32672
-9.2337 -9.23624
-9.19462 -9.19778
-9.10541 -9.1052
-9.15077 -9.14999
-8.86993 -8.87113
-8.98832 -8.98743
-9.00801 -9.00993
-9.1714 -9.1751
-9.16529 -9.16744
-9.13695 -9.13744
-9.25515 -9.25554
-9.07772 -9.07757
-9.14057 -9.14126
-9.1625 -9.16142
-9.34583 -9.34564
-9.08114 -9.08223
-9.06065 -9.06014
-9.23281 -9.2317
-9.09171 -9.09128
-9.21025 -9.21039
-9.24948 -9.25288
-9.00037 -9.00006
-9.15824 -9.1574
-9.07154 -9.07031
-9.1416 -9.1399
-9.21217 -9.21343
-9.2236 -9.22334
-9.10907 -9.10725
-9.05228 -9.05205
-9.00104 -8.99987
-9.1351 -9.13411
-9.11678 -9.11524
-9.15461 -9.15538
-9.20977 -9.20976
-9.17074 -9.17088
-9.34675 -9.34677
-9.32439 -9.32744
-9.324 -9.32319
-9.34021 -9.33956
-9.32415 -9.32706
-9.32404 -9.32672
-9.324 -9.32428
-9.324 -9.32312
-9.324 -9.32301
-9.33469 -9.33314
-9.34296 -9.34299
-9.34244 -9.34245
-9.34033 -9.34024
-9.34228 -9.34233
-9.34325 -9.34318
-9.3395 -9.33936
-9.34132 -9.34127
-9.34146 -9.34143
-9.34032 -9.34023
-9.34362 -9.34383
-9.33768 -9.33715
-9.34358 -9.34401
-9.34281 -9.34297
-9.33563 -9.33451
-9.33843 -9.33807
-9.34245 -9.34245
-9.34144 -9.34141
-9.34348 -9.34374
-9.34131 -9.34127
-9.34322 -9.34326
-9.33947 -9.33927
-9.34081 -9.34078
-9.34362 -9.34383
-9.34281 -9.34297
-9.3465 -9.34631
-9.34646 -9.34629
-9.3464 -9.34623
-9.34565 -9.3453
-9.34563 -9.34523
-9.34644 -9.34616
-9.34604 -9.34586
-9.34293 -9.3433
-9.34396 -9.34398
-9.34682 -9.34672
-9.3443 -9.34422
-9.34324 -9.34351
-9.34542 -9.34517
-9.34645 -9.34617
-9.34628 -9.34604
-9.34538 -9.345
-9.34647 -9.3463
-9.34478 -9.34462
-9.34511 -9.34474
-9.34669 -9.34676
-9.34547 -9.34508
-9.34654 -9.34659
-9.34606 -9.34589
-9.34653 -9.34659
-9.3447 -9.34415
-9.34638 -9.34617
-9.34258 -9.34191
-9.34486 -9.34445
-9.34639 -9.34628
-9.34549 -9.34517
-9.34653 -9.34659
-9.34638 -9.3462
-9.34568 -9.34554
-9.34559 -9.34553
-9.34496 -9.34504
-9.34446 -9.3446
-9.34542 -9.34548
-9.34517 -9.34526
-9.34555 -9.34552
-9.34557 -9.34558
-9.34533 -9.34539
-9.34395 -9.34415
-9.34484 -9.34489
-9.34425 -9.34443
-9.34536 -9.34542
-9.07957 -9.07867
-9.09921 -9.0986
-9.28355 -9.28327
-9.11352 -9.11238
-9.15282 -9.15273
-9.15572 -9.1536
-9.13352 -9.13171
-9.05301 -9.05159
-9.14791 -9.14873
-9.01983 -9.01818
-8.99493 -8.99345
-9.20179 -9.20061
-9.34031 -9.34022
-9.34655 -9.3466
-9.34547 -9.34508
-9.34403 -9.34347
-9.34156 -9.34155
-9.324 -9.32392
-9.34643 -9.34639
-9.32399 -9.32489
-9.32399 -9.3241
-9.32399 -9.32323
-9.32399 -9.32292
-9.34405 -9.3447
-9.324 -9.32543
-9.324 -9.32355
-9.324 -9.32323
-9.33827 -9.33808
-9.324 -9.32297
-9.34379 -9.34434
-9.33636 -9.33544
-9.3431 -9.34306
-9.33769 -9.33716
-9.3437 -9.34384
-9.34107 -9.341
-9.33818 -9.33772
-9.3438 -9.34428
-9.33843 -9.33807
-9.33637 -9.33543
-9.34363 -9.34383
-9.34145 -9.34142
-9.34356 -9.344
-9.34405 -9.3447
-9.34273 -9.3431
-9.34651 -9.34641
-9.34682 -9.34672
-9.3464 -9.34626
-9.34625 -9.34595
-9.34615 -9.34592
-9.34503 -9.34477
-9.34472 -9.34456
-9.34541 -9.34501
-9.34664 -9.3465
-9.34652 -9.34641
-9.34634 -9.34604
-9.34502 -9.34477
-9.34326 -9.34356
-9.34664 -9.34656
-9.3447 -9.34415
-9.34674 -9.34683
-9.34631 -9.34631
-9.34378 -9.34321
-9.34619 -9.34605
-9.34512 -9.34475
-9.34339 -9.34283
-9.34641 -9.34645
-9.34674 -9.34683
-9.34169 -9.34089
-9.34288 -9.3423
-9.34639 -9.3462
-9.34402 -9.34356
-9.34379 -9.34322
-9.34653 -9.34659
-9.34639 -9.34617
-9.34642 -9.34638
-9.34675 -9.34677
-9.34448 -9.34472
-9.34572 -9.34565
-9.34524 -9.34532
-9.34395 -9.34415
-9.34538 -9.34541
-9.34504 -9.34515
-9.34557 -9.34558
-9.34559 -9.34553
-9.34601 -9.34575
-9.34571 -9.3456
-9.34516 -9.34525
-9.34535 -9.3454
-9.34533 -9.3454
-9.34483 -9.34489
-9.34583 -9.34567
-9.34504 -9.34515
-9.34602 -9.34575
-9.15851 -9.15884
-9.23397 -9.2322
-9.23424 -9.23312
-9.17379 -9.17251
-9.15966 -9.15846
-9.13742 -9.13636
-9.19603 -9.19645
-9.14744 -9.14649
-9.34549 -9.34509
-9.33583 -9.33475
-9.34446 -9.34398
-9.12923 -9.12921
-9.34436 -9.34422
-9.34267 -9.34282
-9.33886 -9.33856
-9.34362 -9.34383
-9.33083 -9.33127
-9.25286 -9.25145
-9.22594 -9.22424
-9.34599 -9.34589
-9.34084 -9.34077
-9.34638 -9.34626
-9.3456 -9.34554
-9.324 -9.32295
-9.16799 -9.16807
-9.14703 -9.14537
-9.15592 -9.15609
-9.25311 -9.25356
-9.26933 -9.26972
-9.14102 -9.14137
-9.31517 -9.31495
-9.31588 -9.31577
-9.31285 -9.31353
-9.30773 -9.30778
-9.30968 -9.31001
-9.30885 -9.30886
-9.30983 -9.31022
-9.30244 -9.30268
-9.31019 -9.31026
-9.30512 -9.30509
-9.2788 -9.27883
-9.28673 -9.28662
-9.27648 -9.27594
-9.27936 -9.27931
-9.27474 -9.27454
-9.27852 -9.27864
-9.22618 -9.22655
-9.22466 -9.22534
-9.25239 -9.25299
-9.22433 -9.22428
-9.23616 -9.2358
-9.23237 -9.23296
-9.23169 -9.2314
-9.23798 -9.23768
-9.20216 -9.20232
-9.18012 -9.17984
-9.19448 -9.19435
-9.18749 -9.18762
-9.21287 -9.21302
-9.21257 -9.21183
-9.19581 -9.19568
-9.21009 -9.20892
-9.16972 -9.16996
-9.19131 -9.19202
-9.13109 -9.133
-9.15598 -9.15667
-9.15496 -9.15414
-9.16959 -9.16916
-9.17186 -9.17211
-9.28394 -9.28428
-9.23454 -9.23447
-9.22423 -9.22446
-9.24131 -9.24186
-9.25541 -9.25583
-9.31376 -9.3141
-9.19001 -9.19005
-9.22866 -9.22998
-9.165 -9.16673
-9.23826 -9.23829
-9.31284 -9.31317
-9.30956 -9.30944
-9.30991 -9.31022
-9.31081 -9.3111
-9.31366 -9.31386
-9.31389 -9.31402
-9.31126 -9.31166
-9.31024 -9.31064
-9.30819 -9.30842
-9.27831 -9.27889
-9.27778 -9.27801
-9.27414 -9.27412
-9.26256 -9.26305
-9.27655 -9.27732
-9.26417 -9.26449
-9.26966 -9.26887
-9.27108 -9.27079
-9.28156 -9.28165
-9.22669 -9.22661
-9.23753 -9.23748
-9.22743 -9.22823
-9.2308 -9.23174
-9.24741 -9.24803
-9.22499 -9.22601
-9.22969 -9.23035
-9.16674 -9.16827
-9.21794 -9.21756
-9.19285 -9.19345
-9.21591 -9.21591
-9.19113 -9.19166
-9.20514 -9.20557
-9.15444 -9.15436
-9.15405 -9.15372
-9.16877 -9.16956
-9.18307 -9.18231
-9.15872 -9.15755
-9.18175 -9.18162
-9.17367 -9.17411
-9.19054 -9.1899
-9.17827 -9.17985
-9.30495 -9.30564
-9.26571 -9.26618
-9.31053 -9.31107
-9.26249 -9.26332
-9.15273 -9.15322
-9.30281 -9.30285
-9.16813 -9.16826
-9.22169 -9.22118
-9.27433 -9.2743
-9.306 -9.30649
-9.3081 -9.30809
-9.30813 -9.30799
-9.30714 -9.3071
-9.3011 -9.30129
-9.26147 -9.26235
-9.26469 -9.26523
-9.27 -9.27047
-9.28147 -9.28192
-9.26832 -9.26805
-9.23505 -9.23524
-9.21637 -9.2154
-9.2361 -9.23545
-9.22865 -9.22806
-9.25015 -9.25019
-9.23268 -9.23307
-9.25452 -9.25466
-9.26071 -9.26085
-9.19744 -9.19709
-9.19546 -9.1956
-9.19822 -9.19802
-9.15369 -9.15311
-9.14511 -9.14596
-9.17219 -9.17258
-9.28198 -9.28126
-9.17562 -9.17652
-9.22561 -9.2254
-9.20575 -9.20602
-9.31226 -9.31237
-9.21482 -9.21473
-9.15723 -9.15773
-9.31052 -9.3106
-9.30469 -9.30498
-9.30413 -9.30448
-9.30515 -9.30539
-9.30997 -9.31007
-9.30936 -9.30945
-9.31284 -9.31318
-9.30373 -9.30419
-9.31004 -9.31029
-9.30764 -9.30732
-9.27782 -9.27839
-9.27328 -9.27376
-9.28012 -9.27997
-9.28029 -9.28082
-9.27496 -9.27485
-9.27464 -9.27476
-9.2711 -9.27095
-9.27931 -9.27888
-9.26907 -9.2684
-9.2851 -9.28546
-9.26535 -9.26584
-9.26515 -9.26541
-9.27702 -9.27705
-9.26728 -9.26703
-9.28424 -9.28463
-9.23698 -9.23775
-9.22422 -9.22476
-9.2348 -9.23497
-9.24806 -9.24818
-9.21749 -9.21718
-9.24085 -9.24095
-9.2342 -9.23472
-9.24576 -9.24577
-9.20691 -9.20747
-9.18895 -9.19061
-9.19493 -9.1949
-9.20372 -9.2048
-9.22573 -9.22524
-9.19067 -9.19237
-9.22465 -9.22531
-9.21615 -9.21689
-9.19735 -9.19805
-9.14914 -9.14922
-9.16529 -9.16534
-9.19185 -9.19278
-9.17446 -9.17476
-9.17388 -9.17399
-9.18177 -9.18409
-9.25515 -9.25607
-9.1859 -9.18657
-9.10366 -9.10579
-9.23727 -9.23773
-9.20024 -9.20143
-9.31036 -9.31061
-9.19578 -9.19603
-9.26927 -9.26961
-9.16871 -9.16818
-9.18185 -9.18095
-9.23621 -9.23646
-9.1859 -9.18562
-9.18681 -9.18804
-9.19369 -9.19411
-9.31072 -9.31072
-9.30971 -9.30972
-9.3052 -9.30553
-9.3113 -9.31185
-9.30711 -9.30729
-9.30633 -9.30619
-9.30765 -9.30772
-9.30365 -9.30371
-9.27503 -9.27525
-9.26453 -9.26459
-9.27143 -9.27155
-9.26909 -9.27007
-9.27227 -9.27273
-9.27012 -9.26984
-9.28127 -9.28127
-9.26908 -9.26914
-9.22952 -9.22944
-9.22477 -9.22565
-9.22951 -9.22965
-9.22731 -9.2274
-9.2141 -9.21526
-9.23589 -9.2363
-9.234 -9.23419
-9.20629 -9.20697
-9.21232 -9.21266
-9.19631 -9.19722
-9.21427 -9.21366
-9.21827 -9.21788
-9.17035 -9.17139
-9.22975 -9.22978
-9.20013 -9.20003
-9.20536 -9.20526
-9.18653 -9.18599
-9.16215 -9.16236
-9.16063 -9.16061
-9.18498 -9.1852
-9.1373 -9.13842
-9.18581 -9.18544
-9.17533 -9.17686
-9.18179 -9.18169
-9.31391 -9.31394
-9.25774 -9.25768
-9.31052 -9.3108
-9.24273 -9.24282
-9.15232 -9.15232
-9.16051 -9.16139
-9.17817 -9.17836
-9.17195 -9.17281
-9.27017 -9.27022
-9.31109 -9.31152
-9.30998 -9.31005
-9.3043 -9.30427
-9.30607 -9.30635
-9.30705 -9.30704
-9.31117 -9.3115
-9.30682 -9.30708
-9.30584 -9.30606
-9.26397 -9.26438
-9.27526 -9.27532
-9.26951 -9.26937
-9.27957 -9.27867
-9.27092 -9.27133
-9.22892 -9.22875
-9.24088 -9.24089
-9.23685 -9.23691
-9.23912 -9.23844
-9.22003 -9.2203
-9.24236 -9.24305
-9.24582 -9.2455
-9.22784 -9.22833
-9.26024 -9.26071
-9.18329 -9.18391
-9.1918 -9.1916
-9.19609 -9.19582
-9.18621 -9.18616
-9.22271 -9.22199
-9.1984 -9.19884
-9.19979 -9.19922
-9.22086 -9.22135
-9.20326 -9.2029
-9.19796 -9.19746
-9.18774 -9.18865
-9.22761 -9.22845
-9.16488 -9.16417
-9.16973 -9.17022
-9.16296 -9.1629
-9.18883 -9.19042
-9.15135 -9.1511
-9.19748 -9.19806
-9.23479 -9.23456
-9.17095 -9.17221
-9.30971 -9.30991
-9.19663 -9.19679
-9.19974 -9.19782
-9.12113 -9.12214
-9.16684 -9.16666
-9.26955 -9.26921
-9.19329 -9.19433
-9.30435 -9.30506
-9.30912 -9.30939
-9.30257 -9.30251
-9.30816 -9.30819
-9.31201 -9.31181
-9.30928 -9.30924
-9.31085 -9.31097
-9.30835 -9.30869
-9.31177 -9.31178
-9.30689 -9.307
-9.30176 -9.30174
-9.26961 -9.27022
-9.27707 -9.27722
-9.25696 -9.25715
-9.26756 -9.26756
-9.2746 -9.27402
-9.2737 -9.27349
-9.2862 -9.28632
-9.24143 -9.24127
-9.22797 -9.22869
-9.23102 -9.23088
-9.24439 -9.244
-9.27266 -9.27277
-9.22388 -9.22414
-9.20489 -9.20592
-9.1977 -9.19845
-9.17559 -9.17575
-9.2027 -9.2022
-9.16127 -9.16184
-9.17227 -9.17266
-9.16089 -9.16008
-9.16442 -9.16438
-9.16933 -9.17134
-9.1625 -9.16111
-9.15556 -9.15533
-9.17388 -9.17343
-9.19166 -9.19138
-9.1257 -9.12658
-9.27678 -9.2768
-9.25981 -9.26026
-9.16435 -9.16442
-9.30903 -9.30937
-9.11038 -9.10986
-9.31297 -9.31296
-9.31586 -9.31587
-9.30274 -9.30285
-9.3083 -9.30839
-9.31352 -9.31332
-9.31352 -9.31361
-9.30611 -9.30624
-9.31152 -9.3116
-9.30296 -9.30331
-9.31504 -9.31521
-9.30923 -9.30936
-9.28107 -9.28145
-9.28338 -9.28384
-9.27998 -9.28089
-9.25355 -9.25361
-9.27577 -9.27587
-9.27189 -9.27209
-9.27435 -9.2746
-9.25642 -9.25664
-9.22232 -9.22246
-9.25342 -9.25306
-9.23403 -9.23393
-9.24204 -9.2426
-9.21834 -9.21855
-9.24207 -9.24241
-9.22913 -9.22976
-9.26022 -9.26031
-9.2504 -9.25022
-9.22997 -9.22968
-9.19829 -9.19839
-9.1961 -9.19619
-9.18518 -9.18598
-9.20152 -9.20119
-9.21506 -9.21653
-9.22428 -9.225
-9.17544 -9.17469
-9.19384 -9.19409
-9.19582 -9.19574
-9.1761 -9.17605
-9.15314 -9.15365
-9.17684 -9.17651
-9.1696 -9.17043
-9.16081 -9.1609
-9.15219 -9.15214
-9.14582 -9.14656
-9.16389 -9.16441
-9.26671 -9.2669
-9.27879 -9.27845
-9.31066 -9.31093
-9.16754 -9.16725
-9.3016 -9.30184
-9.16779 -9.16785
-9.26204 -9.26222
-9.10979 -9.11173
-9.17455 -9.17527
-9.20144 -9.20158
-9.30894 -9.30921
-9.31506 -9.31533
-9.3076 -9.30816
-9.30897 -9.30922
-9.31086 -9.311
-9.30652 -9.30705
-9.30733 -9.30719
-9.26694 -9.26697
-9.26176 -9.26223
-9.2858 -9.28599
-9.26425 -9.26444
-9.2547 -9.25506
-9.278 -9.27782
-9.27578 -9.27566
-9.27827 -9.27826
-9.25109 -9.2509
-9.23298 -9.23356
-9.22732 -9.22798
-9.25279 -9.25247
-9.23403 -9.2338
-9.22401 -9.22434
-9.22454 -9.2248
-9.23639 -9.23659
-9.23853 -9.23827
-9.24435 -9.24521
-9.24398 -9.24431
-9.22992 -9.23006
-9.2209 -9.22074
-9.23011 -9.23096
-9.23588 -9.23628
-9.19622 -9.19612
-9.17575 -9.17558
-9.19365 -9.19326
-9.18501 -9.18536
-9.22083 -9.22109
-9.23507 -9.23496
-9.21707 -9.21761
-9.19636 -9.19483
-9.19572 -9.19656
-9.20537 -9.20541
-9.2261 -9.22601
-9.15106 -9.1522
-9.18385 -9.18309
-9.13428 -9.13247
-9.19181 -9.19039
-9.1731 -9.17351
-9.18872 -9.18786
-9.14499 -9.14547
-9.17742 -9.17738
-9.15493 -9.15375
-9.17039 -9.17142
-9.14576 -9.1461
-9.20257 -9.20153
-9.30802 -9.3082
-9.27618 -9.27659
-9.20243 -9.20271
-9.27709 -9.27754
-9.14766 -9.14774
-9.26719 -9.26781
-9.15026 -9.15043
-9.16611 -9.16669
-9.1315 -9.13025
-9.17378 -9.17449
-9.15368 -9.15249
-9.24422 -9.24421
-9.23582 -9.23627
-9.20744 -9.20763
-9.3073 -9.30781
-9.30329 -9.30314
-9.31081 -9.31084
-9.3088 -9.30903
-9.30707 -9.30722
-9.31365 -9.31427
-9.30162 -9.30208
-9.31322 -9.31314
-9.25695 -9.25707
-9.26302 -9.26351
-9.2763 -9.27594
-9.2647 -9.26383
-9.27442 -9.27465
-9.28214 -9.28249
-9.27956 -9.27975
-9.26957 -9.26959
-9.27153 -9.27123
-9.26722 -9.26656
-9.27164 -9.27201
-9.23694 -9.23667
-9.2605 -9.26053
-9.25663 -9.25645
-9.21985 -9.21937
-9.23611 -9.23603
-9.24687 -9.24769
-9.22461 -9.22432
-9.24187 -9.24206
-9.24638 -9.24641
-9.18983 -9.19078
-9.20885 -9.20773
-9.18028 -9.18099
-9.19732 -9.19722
-9.20511 -9.20472
-9.21011 -9.21067
-9.1838 -9.18357
-9.17172 -9.17043
-9.14434 -9.14517
-9.18453 -9.18454
-9.15321 -9.15269
-9.17275 -9.17311
-9.17959 -9.17974
