-6.24162 -6.24173
-6.17451 -6.17378
-6.2495 -6.24998
-6.17111 -6.17071
-6.23215 -6.23315
-6.18126 -6.18168
-6.21589 -6.21587
-6.16348 -6.16469
-6.24526 -6.24552
-6.29261 -6.29272
-6.23886 -6.23967
-6.14143 -6.14156
-6.18789 -6.18802
-6.22419 -6.22384
-6.24249 -6.2429
-6.08623 -6.08601
-6.22243 -6.22209
-6.16643 -6.16672
-6.15341 -6.15428
-6.22718 -6.22681
-6.25593 -6.25576
-6.24028 -6.23895
-6.15927 -6.15969
-6.17482 -6.17412
-6.16122 -6.16126
-6.24364 -6.24459
-6.14342 -6.14139
-6.24103 -6.24155
-6.21524 -6.2159
-6.22358 -6.22518
-6.14694 -6.14661
-6.24378 -6.24333
-6.21482 -6.21403
-6.29736 -6.2976
-6.23822 -6.23888
-6.16858 -6.16876
-6.2212 -6.22105
-6.18979 -6.19072
-6.19255 -6.19169
-6.24976 -6.24971
-6.19064 -6.19008
-6.29799 -6.29824
-6.25064 -6.25078
-6.29473 -6.2949
-6.24507 -6.24527
-6.28053 -6.28064
-6.17932 -6.1793
-6.18739 -6.18653
-6.17623 -6.1763
-6.17095 -6.17024
-6.14087 -6.13924
-6.29173 -6.29183
-6.24179 -6.24157
-6.2643 -6.26427
-6.16642 -6.16727
-6.13654 -6.13656
-6.23772 -6.23759
-6.18774 -6.18813
-6.19159 -6.19089
-6.13464 -6.13404
-6.16315 -6.16281
-6.20654 -6.20735
-6.20278 -6.20219
-6.25287 -6.25311
-6.21822 -6.21813
-6.14726 -6.14509
-6.25686 -6.25709
-6.188 -6.18767
-6.25328 -6.25366
-6.27905 -6.27886
-6.17161 -6.17078
-6.2636 -6.26382
-6.18712 -6.18644
-6.15388 -6.15485
-6.22709 -6.22767
-6.14292 -6.14359
-6.25828 -6.25829
-6.29883 -6.29909
-6.16151 -6.16123
-6.16403 -6.16389
-6.17211 -6.17268
-6.24063 -6.23999
-6.29797 -6.29818
-6.23799 -6.23779
-6.06821 -6.06823
-6.24261 -6.24211
-6.19883 -6.19946
-6.14208 -6.14201
-6.14393 -6.14469
-6.29275 -6.29288
-6.21651 -6.2159
-6.15709 -6.15627
-6.17877 -6.17939
-6.22295 -6.22219
-6.29825 -6.29851
-6.27543 -6.27547
-6.19038 -6.19045
-6.15509 -6.15578
-6.19559 -6.19526
-6.24075 -6.24084
-6.19271 -6.19327
-6.18349 -6.18312
-6.19127 -6.19084
-6.23922 -6.23939
-6.20565 -6.2063
-6.24164 -6.2423
-6.23569 -6.23547
-6.30578 -6.30608
-6.18647 -6.18541
-6.23311 -6.23322
-6.13257 -6.13205
-6.28232 -6.28249
-6.20519 -6.20487
-6.11921 -6.1188
-6.24394 -6.24367
-6.24424 -6.24473
-6.12108 -6.12177
-6.24013 -6.2403
-6.23085 -6.23047
-6.24568 -6.24575
-6.24866 -6.24925
-6.24863 -6.24953
-6.16164 -6.16102
-6.26586 -6.26597
-6.2434 -6.24358
-6.25276 -6.2526
-6.2672 -6.26741
-6.26351 -6.26396
-6.22479 -6.2244
-6.20402 -6.20407
-6.30092 -6.30113
-6.23486 -6.23547
-6.18611 -6.1851
-6.26615 -6.2663
-6.29898 -6.2992
-6.22967 -6.22919
-6.24156 -6.24123
-6.20877 -6.20885
-6.18135 -6.18213
-6.20989 -6.21057
-6.24636 -6.247
-6.22543 -6.22565
-6.28033 -6.28021
-6.21691 -6.21665
-6.26515 -6.26537
-6.24106 -6.24108
-6.24001 -6.24174
-6.26014 -6.2603
-6.29986 -6.30011
-6.23928 -6.2398
-6.29439 -6.29459
-6.1511 -6.1504
-6.2805 -6.28066
-6.24408 -6.24418
-6.2578 -6.25791
-6.1902 -6.19047
-6.27762 -6.27769
-6.19561 -6.19577
-6.2062 -6.20679
-6.25655 -6.2564
-6.23531 -6.23635
-6.18786 -6.18818
-6.11688 -6.11694
-6.24075 -6.24102
-6.21857 -6.21842
-6.23135 -6.23261
-6.28098 -6.28115
-6.23489 -6.23547
-6.24962 -6.24951
-6.229 -6.22792
-6.23683 -6.23689
-6.30337 -6.30364
-6.14802 -6.14868
-6.26602 -6.26634
-6.27247 -6.27252
-6.23734 -6.237
-6.27071 -6.27091
-6.22465 -6.22451
-6.20734 -6.20732
-6.1636 -6.16432
-6.15571 -6.15474
-6.20026 -6.19983
-6.26512 -6.26561
-6.19293 -6.19244
-6.18564 -6.18581
-6.18474 -6.18396
-6.24934 -6.24895
-6.23895 -6.23908
-6.16697 -6.1674
-6.23748 -6.23772
-6.26716 -6.26745
-6.26524 -6.26543
-6.14486 -6.1445
-6.23829 -6.23829
-6.25409 -6.25424
-6.24802 -6.24806
-6.17933 -6.17949
-6.14874 -6.14886
-6.148 -6.14917
-6.21445 -6.21498
-6.29054 -6.29053
-6.24242 -6.2439
-6.28838 -6.28835
-6.28896 -6.28937
-6.23237 -6.23341
-6.09041 -6.09015
-6.16828 -6.16751
-6.18931 -6.1893
-6.23612 -6.23703
-6.20371 -6.20372
-6.23108 -6.23088
-6.21942 -6.21933
-6.13169 -6.13172
-6.26849 -6.26843
-6.26311 -6.26352
-6.19761 -6.19776
-6.22365 -6.22301
-6.14306 -6.14183
-6.24267 -6.24327
-6.27772 -6.2778
-6.20048 -6.20166
-6.2447 -6.24536
-6.15751 -6.15684
-6.22885 -6.22852
-6.1384 -6.1377
-6.19305 -6.19292
-6.23706 -6.23735
-6.16847 -6.16862
-6.26131 -6.26126
-6.11392 -6.11356
-6.24151 -6.24178
-6.23342 -6.23359
-6.23821 -6.23821
-6.25588 -6.25564
-6.15434 -6.1547
-6.26985 -6.27015
-6.17392 -6.17453
-6.19823 -6.19828
-6.08692 -6.08588
-6.22079 -6.22049
-6.186 -6.18601
-6.21354 -6.21358
-6.21093 -6.21145
-6.29378 -6.29389
-6.3046 -6.30488
-6.23951 -6.23939
-6.14353 -6.14297
-6.30191 -6.30216
-6.18525 -6.18589
-6.24691 -6.24736
-6.2833 -6.28338
-6.24651 -6.24678
-6.15134 -6.15124
-6.25922 -6.2594
-6.23891 -6.23809
-6.22304 -6.2237
-6.16253 -6.16266
-6.27052 -6.27054
-6.10357 -6.1023
-6.23582 -6.23547
-6.25772 -6.25801
-6.25078 -6.25104
-6.23574 -6.23667
-6.20065 -6.19966
-6.24271 -6.24353
-6.25411 -6.25391
-6.29272 -6.29275
-6.21559 -6.21546
-6.16046 -6.15936
-6.20957 -6.20982
-6.2422 -6.2417
-6.16328 -6.1644
-6.28752 -6.2877
-6.27628 -6.27655
-6.23141 -6.23148
-6.24059 -6.24141
-6.06457 -6.06427
-6.23694 -6.23686
-6.26388 -6.26398
-6.18941 -6.18917
-6.27485 -6.27491
-6.26829 -6.26812
-6.24848 -6.2485
-6.26932 -6.26947
-6.1518 -6.15156
-6.23767 -6.23771
-6.12747 -6.12761
-6.12816 -6.12796
-6.24601 -6.24608
-6.26756 -6.26769
-6.17326 -6.17431
-6.24237 -6.24202
-6.30092 -6.3012
-6.17225 -6.17164
-6.12591 -6.12598
-6.24914 -6.24964
-6.23746 -6.23778
-6.21917 -6.21987
-6.23491 -6.23543
-6.22829 -6.22815
-6.26889 -6.26927
-6.22104 -6.22229
-6.20303 -6.20302
-6.27489 -6.27492
-6.16215 -6.16098
-6.15036 -6.1507
-6.2596 -6.25962
-6.25892 -6.25958
-6.22975 -6.23128
-6.19574 -6.19598
-6.19287 -6.19353
-6.21188 -6.21219
-6.2832 -6.28334
-6.17968 -6.17921
-6.23217 -6.23197
-6.20831 -6.20815
-6.26214 -6.26233
-6.25064 -6.2506
-6.21747 -6.21746
-6.1858 -6.18603
-6.23748 -6.23714
-6.27171 -6.27186
-6.17305 -6.17264
-6.303 -6.30326
-6.29896 -6.2992
-6.24193 -6.24227
-6.23231 -6.23318
-6.1337 -6.13513
-6.17904 -6.17826
-6.23285 -6.23258
-6.18208 -6.18062
-6.21721 -6.21862
-6.23794 -6.23867
-6.21752 -6.21683
-6.1913 -6.19139
-6.21507 -6.21545
-6.23178 -6.23199
-6.23469 -6.23395
-6.30233 -6.3026
-6.24672 -6.24668
-6.17401 -6.17444
-6.30591 -6.30963
-6.23908 -6.23855
-6.2583 -6.25851
-6.27448 -6.27475
-6.20615 -6.20583
-6.27466 -6.27471
-6.19491 -6.1946
-6.28697 -6.28709
-6.26391 -6.26411
-6.16117 -6.161
-6.18267 -6.18322
-6.2441 -6.24488
-6.24609 -6.24731
-6.16149 -6.16194
-6.27777 -6.27779
-6.27598 -6.2762
-6.29301 -6.29326
-6.19133 -6.19134
-6.23761 -6.23759
-6.23866 -6.23794
-6.24393 -6.24649
-6.26811 -6.26815
-6.24345 -6.24323
-6.27123 -6.27117
-6.23673 -6.23577
-6.22422 -6.22459
-6.27967 -6.27961
-6.21651 -6.21633
-6.23944 -6.24029
-6.23898 -6.23993
-6.22981 -6.22995
-6.28896 -6.289
-6.13827 -6.13799
-6.17856 -6.17839
-6.24721 -6.247
-6.22455 -6.22423
-6.22708 -6.22809
-6.20071 -6.20052
-6.28846 -6.28841
-6.23999 -6.24068
-6.21632 -6.21704
-6.22183 -6.22149
-6.1961 -6.19665
-6.17359 -6.17163
-6.24136 -6.24207
-6.30127 -6.30154
-6.29445 -6.2946
-6.2179 -6.21765
-6.28959 -6.28972
-6.29297 -6.29314
-6.13092 -6.13173
-6.23802 -6.23809
-6.28952 -6.28951
-6.29372 -6.29397
-6.23918 -6.23968
-6.2412 -6.24148
-6.25709 -6.25723
-6.18327 -6.18282
-6.30189 -6.30216
-6.12192 -6.12195
-6.19477 -6.19553
-6.23398 -6.23377
-6.23582 -6.23568
-6.24098 -6.24233
-6.15563 -6.15652
-6.20138 -6.20147
-6.2137 -6.21353
-6.1628 -6.1628
-6.20247 -6.20218
-6.2413 -6.24189
-6.23346 -6.23345
-6.24081 -6.24092
-6.2829 -6.28296
-6.25338 -6.25297
-6.23994 -6.24006
-6.25655 -6.25675
-6.13457 -6.13397
-6.16817 -6.16796
-6.15455 -6.15467
-6.23236 -6.23276
-6.22136 -6.2215
-6.24082 -6.24175
-6.23888 -6.23938
-6.13141 -6.13288
-6.24015 -6.24002
-6.2514 -6.25129
-6.22057 -6.22015
-6.17624 -6.17672
-6.15532 -6.15578
-6.24606 -6.24678
-6.23536 -6.23458
-6.23151 -6.23204
-6.24933 -6.24889
-6.21821 -6.21812
-6.28661 -6.28671
-6.24373 -6.2436
-6.27371 -6.27376
-6.23523 -6.23557
-6.22839 -6.22827
-6.21204 -6.21201
-6.28638 -6.28663
-6.19491 -6.19468
-6.27844 -6.27861
-6.13245 -6.13285
-6.29247 -6.29254
-6.24003 -6.24048
-6.15103 -6.15046
-6.15438 -6.1534
-6.22261 -6.22279
-6.26961 -6.2695
-6.2609 -6.26143
-6.27702 -6.27721
-6.19482 -6.19454
-6.17582 -6.17621
-6.26368 -6.26392
-6.23545 -6.23579
-6.26603 -6.26637
-6.173 -6.17242
-6.2478 -6.24766
-6.20986 -6.20966
-6.23866 -6.23921
-6.1149 -6.11475
-6.15782 -6.15863
-6.23611 -6.2364
-6.20417 -6.20422
-6.16363 -6.16376
-6.20948 -6.20976
-6.19423 -6.19418
-6.18249 -6.18238
-6.14776 -6.14766
-6.28489 -6.28508
-6.18649 -6.18684
-6.25907 -6.25939
-6.22705 -6.22717
-6.2469 -6.24715
-6.23634 -6.23578
-6.1676 -6.16884
-6.20799 -6.208
-6.23701 -6.23723
-6.18204 -6.18139
-6.29952 -6.29975
-6.12542 -6.12566
-6.26053 -6.2605
-6.24525 -6.24519
-6.23413 -6.23481
-6.249 -6.24863
-6.22852 -6.22782
-6.23867 -6.23865
-6.22326 -6.22298
-6.17764 -6.17723
-6.28091 -6.28115
-6.24112 -6.24106
-6.15564 -6.15394
-6.29226 -6.29233
-6.22921 -6.22958
-6.19396 -6.19457
-6.3027 -6.30294
-6.29132 -6.29133
-6.22546 -6.22569
-6.2763 -6.27636
-6.16246 -6.16124
-6.20142 -6.2011
-6.2135 -6.21315
-6.17715 -6.17709
-6.19791 -6.19858
-6.24326 -6.24334
-6.19513 -6.19534
-6.24241 -6.24215
-6.23546 -6.23654
-6.21018 -6.2101
-6.245 -6.24513
-6.27022 -6.27022
-6.24273 -6.24263
-6.26037 -6.26038
-6.2231 -6.22341
-6.25744 -6.25759
-6.13138 -6.13063
-6.25709 -6.25756
-6.24076 -6.2422
-6.19351 -6.1937
-6.24687 -6.24748
-6.16384 -6.16426
-6.19872 -6.19895
-6.22057 -6.22098
-6.23149 -6.23196
-6.18603 -6.18621
-6.24554 -6.24533
-6.17886 -6.17878
-6.23584 -6.23556
-6.28578 -6.28577
-6.30208 -6.30235
-6.2544 -6.25442
-6.15307 -6.15243
-6.2316 -6.23185
-6.15622 -6.15723
-6.26017 -6.26021
-6.21278 -6.21227
-6.2789 -6.27887
-6.17374 -6.17384
-6.19865 -6.19923
-6.24202 -6.24291
-6.16117 -6.16134
-6.30039 -6.30064
-6.19053 -6.18932
-6.13106 -6.13154
-6.29203 -6.29175
-6.15153 -6.1517
-6.21422 -6.21394
-6.23637 -6.23764
-6.17724 -6.17748
-6.28165 -6.28194
-6.13645 -6.13689
-6.18309 -6.18323
-6.23401 -6.23521
-6.28498 -6.28511
-6.11516 -6.11494
-6.23022 -6.22994
-6.21011 -6.21053
-6.17641 -6.17315
-6.19607 -6.19588
-6.18222 -6.18204
-6.26696 -6.26731
-6.23518 -6.23505
-6.18951 -6.19029
-6.28067 -6.28068
-6.28378 -6.28391
-6.26099 -6.26129
-6.24121 -6.24082
-6.24368 -6.24388
-6.27339 -6.27404
-6.20295 -6.20298
-6.17958 -6.17881
-6.15551 -6.15525
-6.15117 -6.15114
-6.18042 -6.17948
-6.24451 -6.24488
-6.26019 -6.26046
-6.16402 -6.16381
-6.27628 -6.27623
-6.15853 -6.15662
-6.18852 -6.18833
-6.15919 -6.15786
-6.12178 -6.12136
-6.09171 -6.09179
-6.29202 -6.29212
-6.245 -6.2452
-6.18523 -6.1845
-6.28749 -6.28754
-6.19973 -6.20004
-6.29699 -6.29719
-6.26807 -6.26829
-6.24755 -6.2477
-6.21234 -6.21317
-6.23154 -6.2314
-6.22466 -6.22444
-6.23792 -6.23807
-6.24478 -6.24508
-6.25979 -6.26036
-6.28504 -6.28516
-6.18207 -6.18222
-6.21501 -6.21541
-6.29153 -6.29158
-6.16521 -6.16453
-6.2132 -6.21346
-6.24334 -6.24326
-6.24593 -6.24543
-6.21144 -6.2118
-6.23284 -6.23284
-6.23846 -6.23735
-6.18178 -6.18233
-6.18695 -6.18738
-6.28866 -6.28866
-6.28498 -6.28506
-6.24265 -6.24243
-6.22705 -6.2272
-6.15968 -6.15976
-6.23476 -6.23494
-6.17822 -6.17823
-6.30207 -6.30233
-6.18705 -6.18696
-6.16059 -6.16042
-6.24406 -6.24471
-6.24903 -6.24973
-6.27545 -6.27575
-6.26828 -6.26832
-6.23465 -6.23478
-6.18146 -6.18188
-6.15642 -6.1567
-6.26622 -6.26645
-6.25509 -6.25537
-6.25291 -6.25284
-6.29548 -6.29562
-6.18198 -6.18114
-6.15001 -6.15052
-6.30591 -6.3062
-6.2822 -6.28215
-6.19926 -6.19951
-6.2877 -6.28769
-6.18787 -6.1882
-6.13638 -6.13566
-6.19641 -6.19636
-6.15375 -6.15408
-6.17243 -6.17195
-6.29717 -6.29736
-6.12755 -6.12698
-6.17068 -6.16942
-6.25139 -6.25174
-6.20977 -6.2106
-6.27049 -6.27059
-6.13914 -6.13891
-6.29571 -6.29586
-6.24715 -6.24698
-6.24425 -6.24438
-6.14614 -6.14727
-6.17637 -6.17689
-6.18669 -6.18648
-6.18014 -6.1808
-6.16173 -6.16167
-6.24357 -6.24314
-6.28824 -6.28842
-6.14925 -6.14927
-6.2503 -6.25037
-6.25914 -6.25977
-6.26919 -6.26945
-6.26161 -6.26235
-6.16761 -6.16779
-6.23654 -6.23633
-6.2498 -6.24953
-6.23945 -6.23959
-6.22635 -6.22613
-6.18034 -6.18087
-6.13996 -6.14055
-6.21746 -6.2175
-6.26708 -6.26702
-6.22844 -6.2289
-6.28265 -6.28285
-6.23621 -6.23627
-6.23681 -6.23722
-6.28941 -6.28961
-6.17973 -6.17904
-6.23074 -6.23035
-6.21375 -6.21367
-6.23999 -6.23961
-6.23575 -6.23593
-6.23699 -6.2375
-6.2858 -6.28596
-6.18782 -6.18755
-6.21724 -6.21752
-6.23509 -6.23537
-6.21492 -6.215
-6.16572 -6.16608
-6.12138 -6.12196
-6.23957 -6.2396
-6.19477 -6.19531
-6.23235 -6.2328
-6.2107 -6.21135
-6.23216 -6.23323
-6.14084 -6.14163
-6.21401 -6.2144
-6.24775 -6.24813
-6.28298 -6.28309
-6.24546 -6.24663
-6.18448 -6.18498
-6.1723 -6.17163
-6.22709 -6.22691
-6.27506 -6.27568
-6.24425 -6.24447
-6.25656 -6.25682
-6.18781 -6.18666
-6.27936 -6.27934
-6.11824 -6.11728
-6.27233 -6.27238
-6.26482 -6.26496
-6.23803 -6.23819
-6.17788 -6.17788
-6.29739 -6.29764
-6.21997 -6.22018
-6.12738 -6.1268
-6.27753 -6.27758
-6.18662 -6.18739
-6.23812 -6.23839
-6.19623 -6.19698
-6.14824 -6.14866
-6.24389 -6.24354
-6.23326 -6.23453
-6.30176 -6.30199
-6.25309 -6.25323
-6.24478 -6.24445
-6.20612 -6.20723
-6.24549 -6.24545
-6.26178 -6.26214
-6.23563 -6.23603
-6.14116 -6.14112
-6.22749 -6.22758
-6.24346 -6.24362
-6.21378 -6.2131
-6.29827 -6.2985
-6.24151 -6.24174
-6.12611 -6.12586
-6.25382 -6.25411
-6.15343 -6.15326
-6.28277 -6.28297
-6.16532 -6.16435
-6.16872 -6.1697
-6.24723 -6.24704
-6.18101 -6.17953
-6.16545 -6.16562
-6.26387 -6.26427
-6.16287 -6.16222
-6.21801 -6.21737
-6.23977 -6.24067
-6.21159 -6.21181
-6.25309 -6.25369
-6.21644 -6.21676
-6.24561 -6.24501
-6.17783 -6.17728
-6.26824 -6.26813
-6.22991 -6.2294
-6.26865 -6.2688
-6.16727 -6.16792
-6.2199 -6.22005
-6.27268 -6.27284
-6.19178 -6.19206
-6.23667 -6.23684
-6.19662 -6.19783
-6.28835 -6.28845
-6.22951 -6.22929
-6.19422 -6.19349
-6.2436 -6.24342
-6.12192 -6.12212
-6.14614 -6.14651
-6.30392 -6.3042
-6.22195 -6.22128
