0.400166 0.392691
0.436579 0.435242
0.371648 0.371035
0.44547 0.451106
0.269494 0.266953
0.282284 0.27183
0.334676 0.315435
0.432213 0.432306
0.258604 0.239992
0.420959 0.405703
0.352336 0.34094
0.411001 0.418834
0.357575 0.37115
0.31393 0.301522
0.467099 0.471517
0.284587 0.273387
0.343952 0.326239
0.392757 0.404923
0.187728 0.190709
0.217495 0.211624
0.176005 0.148994
0.35799 0.358762
0.41464 0.3956
0.291187 0.271148
0.630235 0.634891
0.263967 0.251942
0.429617 0.431812
0.411014 0.376226
0.201417 0.174256
0.450215 0.435747
0.479272 0.483329
0.355178 0.341337
0.496168 0.438869
0.489726 0.465469
0.237517 0.281494
0.344012 0.318644
0.196011 0.180933
0.112935 0.0896647
0.137089 0.12059
0.376445 0.338605
0.641955 0.639055
0.659856 0.65937
0.705683 0.699144
0.641543 0.635547
0.605238 0.589889
0.718704 0.712454
0.624212 0.641716
0.574636 0.567472
0.494939 0.487554
0.736304 0.751581
0.755453 0.762872
0.51184 0.509563
0.643814 0.633317
0.494871 0.474595
0.560933 0.546933
0.481579 0.468326
0.683561 0.671373
0.690743 0.684586
0.588096 0.604444
0.629574 0.631137
0.524843 0.505736
0.582277 0.613212
0.441182 0.468571
0.674784 0.651992
0.860588 0.866888
0.598179 0.568791
0.748925 0.73496
0.75289 0.767629
0.679887 0.696969
0.560751 0.537935
0.687879 0.656719
0.70714 0.694083
0.896503 0.907284
0.643824 0.623647
0.564528 0.593798
0.690025 0.703676
0.820695 0.800283
0.535176 0.539667
0.606353 0.625914
0.78577 0.816461
0.0940593 0.0921152
0.0992052 0.0934869
0.0878066 0.0768287
0.155748 0.15243
0.129953 0.122251
0.0401974 0.0220205
0.0200312 0.0263113
0.0512816 0.0308839
0.132157 0.117716
0.137465 0.129267
-0.0274304 -0.0405051
0.11835 0.107559
0.0158231 -0.00469208
0.0980744 0.110259
0.0649658 0.0920855
0.145272 0.166724
0.0700629 0.0740729
-0.00742189 0.0183181
0.098441 0.113478
-0.188149 -0.187172
0.0681268 0.0611229
0.008229 -0.00565408
0.0980769 0.0630463
0.279308 0.263163
0.245962 0.241699
-0.0919115 -0.0992576
0.0362544 0.0558767
-0.159013 -0.161869
0.170118 0.181273
0.210831 0.236792
0.207727 0.211186
-0.0809597 -0.0579267
0.0228375 0.0393916
-0.00341326 -0.0530982
0.0117847 -0.0239
0.0174529 -0.0365569
0.0193153 0.0195347
0.170449 0.17384
0.127524 0.12791
0.111917 0.123789
0.0440118 0.0430292
-0.0180877 -0.0192655
-0.0334116 -0.030029
-0.0172325 -0.0310258
-0.0245538 -0.0309901
-0.0286944 -0.0311147
-0.0318789 -0.0310594
-0.0329884 -0.0311496
-0.0310106 -0.0312362
-0.0295169 -0.0311621
-0.0292976 -0.0311723
-0.0292976 -0.0311597
-0.0292978 -0.0312118
-0.0292981 -0.0311857
-0.0292989 -0.0311575
-0.0292987 -0.031103
-0.0292975 -0.031107
1.32064 1.33919
1.34558 1.32048
-0.234845 -0.226595
0.0354872 0.0366985
0.492658 0.470848
-0.251272 -0.259291
1.04542 1.02759
0.744902 0.730091
-0.218806 -0.230598
1.63728 1.62576
1.2618 1.28237
0.157154 0.163358
1.08829 1.09475
1.48899 1.47894
1.04893 1.05786
0.417738 0.412624
0.476324 0.463324
0.398416 0.390561
0.435249 0.422851
0.292294 0.272772
0.383618 0.37698
0.404471 0.40301
0.52703 0.512024
0.43422 0.442723
0.470474 0.455783
0.57174 0.575875
0.382687 0.358815
0.330231 0.304359
0.325905 0.319902
0.432383 0.410119
0.487808 0.489506
0.461053 0.484472
0.500677 0.476506
0.126405 0.125711
0.214968 0.197999
0.296298 0.279538
0.482904 0.48132
0.302732 0.284816
0.168269 0.156016
0.415066 0.418371
0.333249 0.372278
0.3193 0.302954
0.42469 0.408714
0.356184 0.342901
0.338974 0.326807
0.640967 0.648995
0.613939 0.604711
0.590513 0.602379
0.477999 0.512167
-0.00776759 -0.0427335
0.126449 0.129657
0.0971264 0.0789201
0.24981 0.257318
0.385584 0.374621
0.47427 0.487085
0.641795 0.628345
0.682079 0.66881
0.748154 0.740845
0.652687 0.64452
0.610876 0.596965
0.692092 0.68055
0.57966 0.558668
0.528946 0.533165
0.463094 0.440272
0.671353 0.657523
0.652399 0.62641
0.535822 0.528014
0.563236 0.566525
0.644789 0.636227
0.56289 0.567
0.447724 0.426717
0.564116 0.563774
0.568033 0.564978
0.488866 0.469094
0.712292 0.712298
0.89547 0.919709
0.745792 0.752563
0.514207 0.505682
0.617364 0.616647
0.707768 0.722662
0.509195 0.553781
0.777503 0.791227
0.59489 0.622024
0.502084 0.487919
0.783199 0.77433
0.33132 0.366986
0.842392 0.880932
0.617763 0.622922
0.993449 1.05564
0.8495 0.857172
0.521021 0.528905
0.876391 0.892596
0.542346 0.588786
0.316644 0.320125
0.624109 0.604205
0.112456 0.106035
0.133594 0.13342
0.178841 0.180724
0.160246 0.161037
0.124072 0.12889
0.207892 0.21523
0.0452073 0.0418863
0.103272 0.0988391
0.116338 0.142206
0.0573726 0.0637513
0.160616 0.158602
0.33082 0.333136
0.0926422 0.0914217
0.149349 0.127934
0.0153175 -0.0258443
0.19326 0.163079
-0.0385608 -0.0315998
-0.101384 -0.0950483
0.217115 0.230394
-0.200865 -0.18059
-0.0645049 -0.0531955
0.0802046 0.0989675
-0.00527428 -0.00463092
0.0860938 0.0830269
0.0571395 0.0597124
-0.184179 -0.174045
-0.143959 -0.126469
0.0945889 0.127079
-0.0320127 -0.017143
-0.168864 -0.159496
-0.00786006 -0.00631525
-0.0847156 -0.0607043
-0.0550874 -0.0617066
0.080293 0.074714
0.0493906 0.077629
-0.284871 -0.307583
0.15915 0.181022
-0.152328 -0.124625
0.159978 0.198715
-0.0998782 -0.124983
0.0440189 0.0430692
-0.0180811 -0.0192577
-0.0334035 -0.0300609
-0.0172254 -0.0309463
-0.0245479 -0.0309384
-0.0286883 -0.031087
-0.0318726 -0.0310659
-0.0329816 -0.0312219
-0.0310038 -0.031302
-0.0295096 -0.0311509
-0.0292908 -0.0310858
-0.0292891 -0.0311738
-0.0292888 -0.0311922
-0.0292893 -0.0312438
-0.0292901 -0.0311303
-0.0292899 -0.0310902
-0.0292888 -0.0311153
0.720169 0.748116
1.10562 1.11289
0.77404 0.785074
-0.0736965 -0.0777282
1.48325 1.53132
0.617946 0.65178
1.11058 1.12453
0.324959 0.339313
0.0372885 0.0395527
0.946356 0.93925
0.14202 0.140804
0.729756 0.761635
0.548549 0.566551
1.08062 1.08188
0.228463 0.248382
0.683459 0.697592
0.716867 0.731487
0.661402 0.679584
0.721919 0.742389
0.6367 0.657616
0.586027 0.613796
0.698432 0.707526
0.715095 0.728401
0.534871 0.550669
0.796149 0.805159
0.730074 0.741978
0.688293 0.712565
0.534044 0.557133
0.610372 0.63483
0.690489 0.68979
0.538157 0.536509
0.636693 0.67961
0.617634 0.631977
0.450777 0.461058
0.522252 0.526992
0.568143 0.545902
0.617667 0.640366
0.730797 0.72363
0.504658 0.504295
0.653567 0.657368
0.446704 0.482029
0.460622 0.493779
0.516028 0.548113
0.486732 0.531976
0.567347 0.557252
0.720313 0.744197
0.623378 0.586813
0.335928 0.324716
0.568767 0.589217
0.587639 0.570241
0.398539 0.39035
0.409562 0.407991
0.547445 0.549289
0.312134 0.293231
0.484743 0.492635
0.676961 0.684056
0.673171 0.67983
0.664728 0.677396
0.614056 0.623079
0.664184 0.669859
0.647791 0.65205
0.547675 0.566049
0.604339 0.623632
0.62142 0.636014
0.738129 0.742131
0.716966 0.72232
0.544589 0.566979
0.456447 0.477987
0.678259 0.691663
0.67736 0.672556
0.576942 0.597708
0.413167 0.459492
0.430187 0.470163
0.70663 0.730698
0.653559 0.659388
0.443893 0.435772
0.675305 0.627081
0.536699 0.516452
0.668433 0.640778
0.538975 0.531377
0.392161 0.383183
0.666571 0.619406
0.469918 0.444388
0.371341 0.333101
0.617219 0.593952
0.40978 0.38791
0.715217 0.688535
0.727104 0.696679
0.380329 0.415332
0.416585 0.391715
0.686585 0.667113
0.386857 0.403007
0.531425 0.525294
0.519391 0.499611
0.526564 0.532976
0.695624 0.712015
0.727349 0.743975
0.692917 0.702733
0.674764 0.689411
0.711552 0.727903
0.700153 0.711124
0.66803 0.681902
0.755883 0.766488
0.704618 0.715096
0.691408 0.693486
0.606813 0.619401
0.749371 0.786311
0.630796 0.631964
0.451028 0.435365
0.512966 0.517274
0.800081 0.763441
0.550917 0.572577
0.560761 0.570461
0.618072 0.631697
0.457832 0.424637
0.485222 0.455316
0.656094 0.68832
0.502106 0.466116
0.608118 0.592565
0.548355 0.550154
0.590373 0.568298
0.585127 0.557995
0.602958 0.584989
0.44705 0.450773
0.620314 0.621234
0.612504 0.591679
0.52973 0.47426
0.778794 0.767054
0.497729 0.49994
0.386376 0.382765
0.212246 0.210515
0.412247 0.412389
0.451747 0.422972
0.517133 0.517705
0.614709 0.597451
0.287412 0.291734
0.0716939 0.0700552
-0.019787 -0.0203918
-0.0496642 -0.0433397
-0.050057 -0.0446058
-0.0388281 -0.0414404
-0.0314165 -0.0383416
-0.0318022 -0.0363119
-0.0290696 -0.0348355
-0.0262026 -0.0336468
-0.0292488 -0.0330253
-0.029248 -0.0326695
-0.0292482 -0.0322143
-0.029252 -0.0319818
-0.0292533 -0.031796
-0.0292525 -0.0317803
-0.0292513 -0.0316172
0.635621 0.603217
0.35198 0.35619
0.43568 0.408798
-0.0876889 -0.100145
1.43758 1.45055
-0.0363933 -0.0535401
1.15601 1.14909
0.252444 0.225016
0.90202 0.90364
1.09874 1.10171
1.64772 1.64451
0.126442 0.0962125
1.50207 1.49714
0.177687 0.144289
1.37706 1.38507
-0.0199008 -0.0232728
-0.00764925 -0.00124733
-0.00208382 -0.0024645
-0.0296818 -0.0346606
0.0347426 0.0348498
-0.057106 -0.062981
-0.00923766 -0.00199167
0.0404499 0.0427395
0.056569 0.0624673
0.0107311 -0.0205876
0.00272612 0.0251372
-0.0300592 -0.0521917
0.0898505 0.107521
0.0264986 0.0314913
-0.07029 -0.0885099
0.0579849 0.0775851
-0.0170138 -0.00448575
-0.0387987 -0.0283661
-0.121408 -0.128349
0.0024354 -0.0115378
0.0433217 0.0543946
0.0952376 0.108468
-0.0789926 -0.084383
-0.00492392 -0.00526225
-0.0302619 -0.026094
0.0745745 0.106916
0.0572073 0.0493577
0.0608975 0.0805711
0.0127382 0.00744867
-0.0817755 -0.0874779
-0.0536428 -0.0449769
-0.0607243 -0.0614272
-0.0342545 -0.0184439
0.0677036 0.0790701
0.000472727 0.0222827
-0.0171572 -0.00749992
0.0113473 0.00300933
-0.0709073 -0.0908105
-0.00669991 -0.0281127
-0.0318425 -0.0512832
0.0201838 0.0260957
0.00709272 0.00212717
-0.0433361 -0.0435718
-0.021369 -0.0369161
-0.0191864 -0.0131513
-0.0191371 -0.0095175
-0.0121615 -0.0326421
0.0172555 0.0351502
0.0420365 0.0453133
-0.0110858 -0.0133344
0.00435714 -0.0170978
0.0395398 0.0539811
0.0542976 0.0852841
0.143409 0.157081
-0.0132576 -0.0100576
0.0235331 -0.00568075
-0.0401328 -0.0349011
0.00702424 -0.0191737
-0.0571603 -0.0590476
0.0223905 0.0142247
-0.126016 -0.155635
-0.0266872 -0.0246432
-0.0431662 -0.0243241
0.098115 0.105035
0.0386965 0.0303493
0.127366 0.143297
0.0883465 0.107825
-0.175407 -0.173814
-0.0513751 -0.0349058
0.052852 0.0642076
0.0732278 0.0664005
0.098722 0.104723
-0.0465978 -0.0751917
-0.0771872 -0.0192802
-0.0302534 -0.037791
0.0984061 0.120495
-0.0601442 -0.0739002
-0.132316 -0.175996
0.0283437 0.0303085
-0.0510535 -0.0467147
0.0162082 0.0192441
0.00622214 0.00363717
-0.0227497 -0.0177404
0.00546053 -0.00157108
-0.00676421 -0.0113368
-0.0202007 -0.0224223
-0.0192053 -0.029894
-0.0379093 -0.0305148
0.0488133 0.0629736
-0.0220658 -0.0224657
0.0302302 0.0277319
0.00712578 0.0127696
0.0292833 0.0382826
0.0261695 0.0240922
-0.0829212 -0.0906056
0.0545134 0.0484741
-0.0152835 -0.0217936
-0.00281162 -0.0148521
-0.00747471 0.00165258
-0.00474675 -0.00394175
0.0121386 0.0126821
-0.00890075 -0.00767517
-0.00846266 -0.00440492
-0.0279571 -0.0227423
-0.0889913 -0.101073
-0.0246559 -0.0481328
0.0678016 0.0621847
-0.0552941 -0.068013
0.102662 0.125215
0.0654082 0.0810801
0.0587501 0.0551252
0.0593348 0.0645264
0.108287 0.117223
-0.0231431 -0.00794333
0.0808673 0.108143
-0.0677301 -0.0733464
-0.0322413 -0.0298844
0.0110961 0.0108419
0.0648211 0.0844982
-0.0597338 -0.0665078
2.40505e-05 0
2.36352e-05 0
2.35473e-05 0
2.35145e-05 0
2.35537e-05 0
2.35636e-05 0
2.35045e-05 0
2.3504e-05 0
2.34983e-05 0
2.34877e-05 0
2.34678e-05 0
2.35184e-05 0
2.34642e-05 0
2.3541e-05 0
2.3516e-05 0
2.35003e-05 0
2.35179e-05 0
-0.396895 -0.384789
0.0540357 0.0486844
-0.18815 -0.17741
-0.331322 -0.325326
0.188177 0.189093
-0.281442 -0.272944
-0.164189 -0.165159
-0.113295 -0.116691
0.110032 0.119312
0.344652 0.345559
0.056381 0.0621948
0.119693 0.128232
-0.304261 -0.28423
0.269056 0.268938
-0.00628064 0.00458604
-0.0217611 -0.0244003
0.00749693 0.00884117
0.0101918 0.0101982
-0.0271541 -0.0360687
-0.00753753 -0.0150354
-0.0904709 -0.0996648
-0.0335343 -0.0365359
0.0427964 0.0531652
0.0478563 0.0437776
-0.0176065 -0.0240159
-0.0607014 -0.0816523
-0.0849134 -0.0946161
0.024981 0.0220562
0.00987014 0.00715975
-0.0344019 -0.0499596
-0.0347442 -0.0567667
0.0558588 0.0701261
0.00775731 0.0157835
-0.0217276 -0.00312517
0.0685807 0.0982168
-0.0561036 -0.0548113
0.00725635 -0.0278216
-0.0920961 -0.0771829
-0.00487247 0.00427
-0.0308382 -0.00194683
0.182574 0.215588
-0.0243857 -0.0207008
0.0332011 0.0531668
0.131725 0.137026
0.000249792 -0.0306068
0.192827 0.233022
-0.0422123 -0.0433649
0.204558 0.220504
0.0298481 0.0399032
0.0641633 0.0672556
-0.0135907 -0.0388617
0.0219769 -0.00512408
0.0954858 0.0953179
-0.0817473 -0.0826182
-0.262499 -0.26608
0.0165388 0.0181962
0.00743235 0.00961183
0.020549 0.0205934
-0.0479451 -0.0469358
-0.0111498 -0.0130517
0.0608648 0.0671803
0.0236756 0.0315717
0.0127953 0.00602958
-0.0248365 -0.0241236
-0.0173471 -0.0203948
0.0400347 0.0558956
-0.100374 -0.1143
0.0231463 0.0346107
0.0158621 0.0267432
-0.0851543 -0.0820932
-0.0865943 -0.0966628
0.136748 0.155346
0.0663173 0.0687064
-0.00538281 0.00186133
0.0266737 0.0284434
-0.0271651 -0.00793925
-0.00926387 -0.0157557
0.0625721 0.0673287
0.0808284 0.0873839
0.151467 0.179899
-0.00567379 -0.0047645
0.0789972 0.0843265
0.0329516 0.028302
-0.15462 -0.160566
0.174516 0.182377
0.0440566 0.05059
-0.0853876 -0.101459
0.157545 0.185232
0.020675 0.0290316
0.0990958 0.111099
0.0916987 0.095348
-0.106693 -0.129111
0.0273971 0.0350866
0.066217 0.0768392
0.0381413 0.0432806
-0.00289485 -0.00311425
-0.0262956 -0.0262065
-0.00119418 -0.00477967
0.0160625 0.0183947
0.0141181 0.0120793
0.0560873 0.0584151
0.0286653 0.0329455
-0.0618556 -0.0666132
-0.0265036 -0.0316468
-0.0696454 -0.0811838
-0.0391746 -0.0358013
0.0708446 0.0703476
-0.103653 -0.0975831
-0.0137057 0.0141335
0.0539679 0.0687163
0.0107692 0.0328487
-0.0472162 -0.0539007
-0.013568 -0.00858025
-0.0191542 -0.0145244
0.148222 0.160949
0.0706174 0.0622173
-0.0290902 -0.0355642
0.0318419 0.0407122
0.0258083 0.0216441
-0.00882834 0.00640392
0.105722 0.116566
0.0126654 0.017525
-0.00439218 -0.0113886
0.0626696 0.065189
-0.0636166 -0.0765696
0.0117641 0.0194907
-0.0226531 -0.0280191
0.0925193 0.0812968
0.00382668 0.00900833
0.0545742 0.0775522
-0.176326 -0.176334
-0.084241 -0.0809372
0.00862251 0.0272831
0.273845 0.287717
0.103229 0.113958
-1.25789e-05 -5.19167e-05
-1.22737e-05 1.15e-05
-1.15943e-05 -7.18333e-05
-1.11805e-05 2.49167e-05
-1.06448e-05 -8.83333e-06
-1.06005e-05 3.7e-05
-1.10678e-05 -1.16667e-05
-1.10336e-05 -1.76667e-05
-1.06812e-05 0.0001145
-1.08073e-05 1.86667e-05
-1.08192e-05 5.75e-06
-1.12528e-05 1.425e-05
-1.13961e-05 -2.58333e-05
-1.13338e-05 -2.90833e-05
-1.27546e-05 -7.03333e-05
-1.27126e-05 -4.3e-05
-1.28624e-05 5.41667e-06
-0.0944649 -0.103935
0.0304158 -0.00548042
-0.0591763 -0.0831232
0.149488 0.119932
0.109738 0.105885
-0.0537543 -0.0798777
0.0647947 0.0495875
-0.0776552 -0.103992
0.0276846 0.0356088
0.142597 0.122331
0.240512 0.232031
-0.261596 -0.286217
-0.240042 -0.239938
0.0853793 0.0616504
-0.0811613 -0.0754162
-0.00165153 0.000707333
-0.0248056 -0.0301806
-0.0129502 -0.01489
0.0138933 0.0182123
0.0395873 0.0434918
-0.0108263 -0.0024815
0.00186401 0.00032975
-0.0147101 -0.0208037
0.000617247 -0.007893
0.107939 0.120597
0.0138605 -0.0009455
0.0519531 0.0587899
-0.0372629 -0.0353756
-0.123423 -0.125108
0.0288978 0.0548488
-0.0474325 -0.0486651
-0.0455451 -0.0534893
-0.0328423 -0.0343248
0.106197 0.103315
-0.044543 -0.0562561
-0.00698565 -0.00289217
-0.0710844 -0.0807873
0.104634 0.116169
0.0183229 0.0165411
-6.5811e-05 0.0029655
0.0370922 0.0330778
0.164758 0.169564
0.0248684 0.0417608
-0.0538414 -0.0465302
-0.0124141 -0.0146108
0.102025 0.0957031
0.155523 0.16147
-0.0475891 -0.0474228
0.0653254 0.0715302
-0.16768 -0.166813
-0.135159 -0.153571
0.0508185 0.0551015
-0.0621939 -0.0673249
0.0950768 0.0938263
0.00565258 0.0074655
-0.00766716 -0.0123917
0.012632 0.0149965
-0.0178899 -0.0211683
-0.0147362 -0.011835
0.0305274 0.0251197
0.0194991 0.0256062
-0.0444787 -0.0413097
-0.0744971 -0.0710895
0.0437168 0.0448269
-0.102461 -0.0997161
0.0624374 0.0636795
0.054078 0.0577933
-0.0221051 -0.0206424
-0.0333585 -0.0328724
0.00928006 0.0112251
-0.118352 -0.125403
-0.075668 -0.0791555
0.0297588 0.00655092
-0.0132506 -0.0103777
-0.0409075 -0.0541227
-0.0907274 -0.0957688
0.00630462 -0.00340142
0.0801493 0.088527
0.113471 0.114639
-0.0350926 -0.0326742
0.0266038 0.0255313
-0.0647265 -0.0717023
0.0038129 0.00597833
0.0136148 0.0164322
0.0561352 0.0671791
-0.191339 -0.195193
0.0503295 0.0781659
-0.116011 -0.113469
0.070894 0.0715119
-0.0851008 -0.0952753
-0.0590266 -0.0514317
-0.0690252 -0.079766
0.143728 0.166431
-0.0359326 -0.0318452
0.100378 0.11048
-0.00495137 -0.0036605
-0.00922924 -0.009974
-0.00770734 -0.00344558
0.0031351 0.00378442
0.0493756 0.0513558
-0.0235188 -0.031264
0.0456754 0.0440652
0.0071752 0.0107196
0.130033 0.135711
0.00928778 0.0157732
0.0174852 0.0246875
-0.0153986 -0.0208152
-0.0510666 -0.0487527
0.0210844 0.0260442
-0.0134487 -0.0234192
-0.0525977 -0.047667
-0.0558432 -0.0489777
-0.0407164 -0.0407685
-0.0447914 -0.0538683
-0.0805732 -0.078094
0.0441142 0.0546803
-0.0787225 -0.0935134
0.0196631 0.0174808
-0.0138153 -0.0142061
0.0232209 0.0290639
0.0815957 0.0807187
0.0413142 0.0475327
0.107083 0.110796
-0.0217173 -0.0425922
-0.0937219 -0.11042
0.0458245 0.0271767
0.125756 0.120394
0.186263 0.197254
0.058239 0.0680991
-0.0918915 -0.0858356
0.0036933 0.00530425
0.0168687 0.0149719
-0.0618932 -0.052248
0.0666369 0.0771615
-0.155577 -0.150894
-7.31163e-06 0
-7.15235e-06 0
-7.10587e-06 0
-7.2248e-06 0
-7.15386e-06 0
-7.22135e-06 0
-7.23451e-06 0
-7.28779e-06 0
-7.20881e-06 0
-7.31219e-06 0
-7.29561e-06 0
-7.26494e-06 0
-7.32814e-06 0
-7.2144e-06 0
-7.2193e-06 0
-7.22402e-06 0
-7.20968e-06 0
-0.353421 -0.358364
-0.0189376 -0.0240883
0.159159 0.158112
0.260554 0.277123
0.240929 0.239482
-0.327265 -0.323863
-0.00599701 0.013742
0.244971 0.254926
0.0678364 0.0660457
-0.296636 -0.304286
-0.379466 -0.409839
0.106154 0.0977386
0.173729 0.200026
0.0897777 0.0857045
-0.287087 -0.292225
