-8.5767 -8.57662
-8.23753 -8.23471
-8.87812 -8.87694
-8.24555 -8.25634
-8.64283 -8.63956
-8.13461 -8.13036
-9.10105 -9.09965
-8.66404 -8.66273
-9.17063 -9.1677
-8.46657 -8.47399
-9.05732 -9.05741
-8.86419 -8.86651
-8.88893 -8.8922
-9.1725 -9.17214
-8.92528 -8.91953
-9.00338 -9.00306
-8.70889 -8.70703
-8.64712 -8.6477
-8.52224 -8.52167
-8.9028 -8.90366
-8.98615 -8.98406
-8.83274 -8.8315
-8.82891 -8.83602
-9.16788 -9.16968
-9.0629 -9.06327
-8.64312 -8.64314
-8.94639 -8.94678
-8.70174 -8.70146
-8.86156 -8.86126
-8.76605 -8.77501
-8.38508 -8.38628
-9.00909 -9.00965
-9.08902 -9.08976
-8.9548 -8.95519
-8.99695 -8.99373
-9.15899 -9.15841
-8.78099 -8.78002
-8.79764 -8.79999
-9.14199 -9.14261
-9.02284 -9.02322
-9.06447 -9.06306
-9.15938 -9.15958
-9.14615 -9.14732
-9.02024 -9.02117
-8.95733 -8.95753
-8.99201 -8.99249
-8.85854 -8.85631
-9.00356 -9.00491
-9.15249 -9.1523
-8.99922 -9.00083
-8.77755 -8.77857
-9.09675 -9.09645
-8.99888 -8.99757
-9.02865 -9.0287
-9.02496 -9.02465
-9.05974 -9.05911
-9.1022 -9.10267
-9.09705 -9.0969
-9.11745 -9.1182
-9.10271 -9.10539
-8.98377 -8.98267
-9.15364 -9.15308
-9.1155 -9.11574
-9.01546 -9.01516
-9.12346 -9.12588
-9.17062 -9.17064
-9.09446 -9.09551
-8.94076 -8.94014
-9.15717 -9.15739
-9.13855 -9.13851
-9.01361 -9.01398
-9.21143 -9.21166
-9.08974 -9.09045
-8.98255 -8.98294
-9.06602 -9.06615
-9.17518 -9.17483
-9.05162 -9.05137
-9.0586 -9.05797
-8.77546 -8.77493
-9.01108 -9.01153
-9.05047 -9.05061
-9.11302 -9.11182
-8.98437 -8.98468
-9.09302 -9.093
-9.12191 -9.12214
-8.97074 -8.97068
-8.90405 -8.90398
-9.23367 -9.23389
-9.23367 -9.23386
-9.23367 -9.23389
-9.23367 -9.23382
-9.23367 -9.23381
-9.23279 -9.23449
-9.23367 -9.23411
-9.23367 -9.23388
-9.23424 -9.23371
-9.22004 -9.22064
-9.2125 -9.21089
-9.21416 -9.21334
-9.21917 -9.21963
-9.21888 -9.21931
-9.21961 -9.22006
-9.21316 -9.21185
-9.21714 -9.21715
-9.21666 -9.21662
-9.2125 -9.2109
-9.21315 -9.21183
-9.21627 -9.21611
-9.22016 -9.2208
-9.21636 -9.21627
-9.21976 -9.22034
-9.22004 -9.22064
-9.21924 -9.21952
-9.21939 -9.2197
-9.21872 -9.21898
-9.21832 -9.21848
-9.21532 -9.21493
-9.21529 -9.2149
-9.21991 -9.22032
-9.22973 -9.22925
-9.22939 -9.22924
-9.22922 -9.22967
-9.22945 -9.22946
-9.2298 -9.22927
-9.22976 -9.22928
-9.22876 -9.22901
-9.22982 -9.22941
-9.22904 -9.22891
-9.22971 -9.22931
-9.22917 -9.22973
-9.22853 -9.22969
-9.22982 -9.2294
-9.22895 -9.22891
-9.22976 -9.22928
-9.22981 -9.22928
-9.22953 -9.22913
-9.2294 -9.22924
-9.22966 -9.22926
-9.22882 -9.22897
-9.22789 -9.22813
-9.22785 -9.22774
-9.22776 -9.22771
-9.22734 -9.22702
-9.22573 -9.22536
-9.22457 -9.22387
-9.22743 -9.22742
-9.22615 -9.22583
-9.22696 -9.22674
-9.22783 -9.22788
-9.22783 -9.22756
-9.22763 -9.2277
-9.22677 -9.22646
-9.22472 -9.22408
-9.22711 -9.2268
-9.22686 -9.2267
-9.22787 -9.22812
-9.22593 -9.22553
-9.23153 -9.23144
-9.23143 -9.23125
-9.23142 -9.23125
-9.22963 -9.22973
-9.22902 -9.22936
-9.23096 -9.23073
-9.23169 -9.23142
-9.23077 -9.23053
-9.22964 -9.22972
-9.23162 -9.23144
-9.23125 -9.23154
-9.22956 -9.22967
-9.23137 -9.23133
-9.23144 -9.23146
-9.23045 -9.2303
-9.23164 -9.23126
-9.23114 -9.23099
-9.23057 -9.23033
-9.23171 -9.23133
-9.23151 -9.23111
-9.15233 -9.15161
-8.76635 -8.76789
-8.97385 -8.97452
-9.15459 -9.1544
-9.13216 -9.13216
-8.92393 -8.92355
-9.11928 -9.11923
-8.99596 -8.99628
-9.02878 -9.02895
-9.23352 -9.23442
-9.22969 -9.22946
-9.22812 -9.22885
-9.23126 -9.23127
-9.22799 -9.22878
-9.22539 -9.22495
-9.2254 -9.22496
-9.21298 -9.21154
-9.05148 -9.05128
-9.22979 -9.22929
-9.21329 -9.21209
-9.23171 -9.23133
-9.23367 -9.23425
-9.23367 -9.23401
-9.23367 -9.23388
-9.23367 -9.23384
-9.23367 -9.23382
-9.23231 -9.23267
-9.23367 -9.23426
-9.23367 -9.23397
-9.23367 -9.23389
-9.22783 -9.22743
-9.23277 -9.23243
-9.23367 -9.23385
-9.23367 -9.23382
-9.21891 -9.21932
-9.22016 -9.2208
-9.21531 -9.21492
-9.22008 -9.22064
-9.21594 -9.21577
-9.21703 -9.21712
-9.21389 -9.21294
-9.22023 -9.22096
-9.22025 -9.22105
-9.22005 -9.22069
-9.21698 -9.21707
-9.21177 -9.2098
-9.21428 -9.21353
-9.21798 -9.21827
-9.21809 -9.21834
-9.21636 -9.21627
-9.22848 -9.22975
-9.229 -9.229
-9.22948 -9.22927
-9.22956 -9.22966
-9.22973 -9.22929
-9.22979 -9.22927
-9.2298 -9.22928
-9.22876 -9.22901
-9.22882 -9.22973
-9.22951 -9.22921
-9.2298 -9.22936
-9.22968 -9.22959
-9.2297 -9.22925
-9.22678 -9.22646
-9.22732 -9.22728
-9.22746 -9.22729
-9.22587 -9.22552
-9.22679 -9.22647
-9.22737 -9.22713
-9.22783 -9.22764
-9.22785 -9.22795
-9.22783 -9.22805
-9.22787 -9.22811
-9.2238 -9.22285
-9.22341 -9.22228
-9.22389 -9.22296
-9.22733 -9.22702
-9.22759 -9.22742
-9.22745 -9.22728
-9.22744 -9.22726
-9.22784 -9.22788
-9.22351 -9.22243
-9.22599 -9.22564
-9.22774 -9.22761
-9.22848 -9.22906
-9.22812 -9.22885
-9.2292 -9.22946
-9.23138 -9.23147
-9.23113 -9.23098
-9.23118 -9.23169
-9.23126 -9.23161
-9.23045 -9.23029
-9.22902 -9.22936
-9.23126 -9.23126
-9.23144 -9.23147
-9.23119 -9.23107
-9.23114 -9.23174
-9.23157 -9.23151
-8.95913 -8.95909
-9.15655 -9.15508
-9.18051 -9.18023
-9.07109 -9.07092
-9.17884 -9.17861
-9.03578 -9.03558
-9.23137 -9.23133
-9.21623 -9.21607
-9.21921 -9.2196
-9.21317 -9.21184
-9.23144 -9.23146
-9.21359 -9.21251
-9.23057 -9.23033
-9.2187 -9.21896
-9.22979 -9.22953
-9.2292 -9.22945
-9.22706 -9.22676
-9.22901 -9.22916
-9.21636 -9.21628
-9.22961 -9.22934
-9.22787 -9.22812
-9.22986 -9.22933
-9.21974 -9.22017
-9.23123 -9.23109
-8.54794 -8.55029
-8.8215 -8.82141
-8.95182 -8.94687
-8.80869 -8.80813
-9.0884 -9.08596
-8.96506 -8.96381
-8.80692 -8.81167
-8.59708 -8.59776
-8.96203 -8.96018
-8.93512 -8.93542
-9.08724 -9.08751
-8.9015 -8.90059
-8.79726 -8.79843
-8.91692 -8.91738
-8.96868 -8.97005
-8.99341 -8.99829
-9.08227 -9.08269
-8.77364 -8.77186
-8.98504 -8.97868
-8.69264 -8.68588
-9.09465 -9.09589
-8.82688 -8.82555
-8.90822 -8.90958
-9.03628 -9.03592
-9.09635 -9.09651
-9.05886 -9.06247
-8.93285 -8.92965
-9.21576 -9.21601
-8.78635 -8.78143
-9.23246 -9.23451
-9.09358 -9.09376
-9.10128 -9.103
-9.0363 -9.03621
-9.00653 -9.00664
-9.04174 -9.04146
-9.03469 -9.03541
-8.89584 -8.8943
-8.67773 -8.67912
-9.23113 -9.23166
-9.11695 -9.11339
-9.03811 -9.03864
-9.09555 -9.09532
-8.91465 -8.91505
-8.83974 -8.83943
-9.03364 -9.0335
-9.13579 -9.13692
-8.82273 -8.82368
-9.10229 -9.10295
-9.1723 -9.17245
-8.87045 -8.87264
-9.08307 -9.08308
-8.96352 -8.96209
-9.0541 -9.05367
-8.99986 -8.99589
-8.94562 -8.94502
-9.12413 -9.12423
-9.00314 -9.00341
-8.98564 -8.98505
-9.03425 -9.03481
-8.78355 -8.78486
-8.99286 -8.99333
-9.15109 -9.15131
-9.08765 -9.08777
-9.09899 -9.09943
-8.55077 -8.55036
-9.15809 -9.15796
-9.14273 -9.14009
-8.98179 -8.98103
-9.15842 -9.1603
-8.91345 -8.91366
-9.06089 -9.06081
-9.04306 -9.04276
-9.01783 -9.01768
-8.76312 -8.76277
-8.75928 -8.75885
-8.99383 -8.995
-8.9586 -8.95783
-9.09135 -9.09084
-9.1691 -9.16813
-9.04294 -9.04303
-9.01657 -9.01692
-8.91958 -8.91991
-9.16718 -9.16683
-9.00251 -9.0034
-8.93778 -8.9382
-9.18871 -9.18798
-9.12518 -9.12456
-9.18369 -9.18346
-8.84558 -8.84504
-9.23034 -9.23187
-9.23361 -9.23434
-9.23367 -9.23385
-9.23367 -9.23385
-9.23367 -9.23382
-9.23367 -9.23385
-9.23367 -9.23426
-9.23367 -9.23411
-9.21931 -9.21962
-9.21975 -9.22018
-9.21977 -9.22035
-9.21864 -9.21884
-9.2159 -9.21566
-9.21916 -9.21962
-9.21963 -9.22009
-9.21834 -9.21849
-9.21713 -9.21714
-9.21838 -9.2187
-9.21197 -9.2101
-9.21178 -9.20981
-9.21665 -9.21661
-9.21384 -9.21289
-9.21541 -9.21506
-9.21901 -9.21934
-9.21614 -9.21599
-9.21961 -9.22007
-9.21768 -9.21776
-9.21965 -9.22003
-9.21197 -9.21009
-9.21838 -9.2187
-9.21956 -9.21995
-9.21482 -9.21427
-9.22872 -9.22945
-9.22924 -9.22894
-9.2298 -9.22927
-9.22977 -9.22923
-9.22961 -9.22934
-9.22973 -9.2293
-9.22975 -9.22926
-9.22969 -9.22928
-9.2294 -9.22924
-9.22854 -9.22971
-9.22971 -9.22925
-9.22961 -9.22927
-9.2297 -9.22928
-9.22961 -9.22926
-9.22974 -9.22919
-9.22925 -9.22971
-9.22853 -9.22968
-9.22953 -9.22926
-9.22853 -9.22969
-9.22332 -9.22216
-9.22772 -9.22741
-9.22585 -9.2255
-9.22574 -9.22539
-9.22424 -9.22347
-9.22733 -9.22701
-9.22743 -9.22726
-9.22371 -9.22268
-9.22784 -9.22794
-9.22768 -9.2278
-9.22744 -9.22727
-9.2248 -9.22421
-9.22713 -9.22681
-9.22651 -9.22626
-9.22708 -9.22694
-9.23119 -9.23107
-9.23126 -9.23161
-9.22892 -9.22926
-9.23151 -9.23113
-9.23158 -9.23152
-9.23118 -9.23083
-9.23104 -9.23081
-9.23024 -9.23012
-9.23118 -9.23083
-9.23158 -9.23127
-9.23126 -9.23161
-9.23134 -9.23114
-9.23149 -9.23119
-9.23123 -9.23108
-9.23011 -9.23002
-9.23178 -9.23139
-9.23153 -9.23143
-9.14313 -9.14415
-9.14482 -9.14435
-9.16813 -9.16728
-9.03381 -9.03362
-9.13015 -9.13013
-9.1592 -9.15867
-9.12412 -9.12382
-9.1 -9.09933
-9.22848 -9.22906
-9.22976 -9.22927
-9.23177 -9.23139
-9.23123 -9.23109
-9.22857 -9.22884
-9.22737 -9.22712
-9.22379 -9.22284
-9.22973 -9.22929
-9.22482 -9.22423
-9.22545 -9.22501
-9.23442 -9.23409
-9.23367 -9.23382
-9.22478 -9.22519
-9.23367 -9.23388
-9.23367 -9.23381
-9.23367 -9.23385
-9.23367 -9.23384
-9.23367 -9.23388
-9.21233 -9.2106
-9.21711 -9.21712
-9.21902 -9.21934
-9.21896 -9.21922
-9.21542 -9.21508
-9.21708 -9.21717
-9.21953 -9.21986
-9.21952 -9.21986
-9.21912 -9.2194
-9.21979 -9.22035
-9.22024 -9.22097
-9.21945 -9.21976
-9.21415 -9.21335
-9.22013 -9.2208
-9.21733 -9.21746
-9.21662 -9.21657
-9.22023 -9.22096
-9.22972 -9.22926
-9.22973 -9.2293
-9.22919 -9.22894
-9.22951 -9.22925
-9.2298 -9.22936
-9.22973 -9.22919
-9.2289 -9.22898
-9.22951 -9.22927
-9.22853 -9.22968
-9.22918 -9.22893
-9.22933 -9.22929
-9.22939 -9.22924
-9.22885 -9.2289
-9.22897 -9.22935
-9.22955 -9.22967
-9.22952 -9.22926
-9.22939 -9.22915
-9.2294 -9.22924
-9.22407 -9.22314
-9.2238 -9.22285
-9.22775 -9.22762
-9.22714 -9.22682
-9.22592 -9.22552
-9.22591 -9.22551
-9.22615 -9.22584
-9.22677 -9.22645
-9.2272 -9.22702
-9.22482 -9.22423
-9.22632 -9.22608
-9.22745 -9.22727
-9.22643 -9.22613
-9.22584 -9.22549
-9.22771 -9.2274
-9.22635 -9.22609
-9.22531 -9.22483
-9.22473 -9.2241
-9.22707 -9.22693
-9.22572 -9.22534
-9.22788 -9.22812
-9.22776 -9.22771
-9.22511 -9.2246
-9.23118 -9.23169
-9.23168 -9.23136
-9.23159 -9.23128
-9.23172 -9.23134
-9.23119 -9.23091
-9.23125 -9.23165
-9.23113 -9.23166
-9.22992 -9.22991
-9.23058 -9.23034
-9.2312 -9.23165
-9.23131 -9.23126
-9.23018 -9.2301
-9.23126 -9.23127
-9.23096 -9.23068
-9.22992 -9.2299
-9.2315 -9.2312
-9.23023 -9.23012
-9.23135 -9.23114
-9.23088 -9.23066
-9.23063 -9.23042
-9.23126 -9.23127
-9.0955 -9.09491
-9.11188 -9.11139
-9.05679 -9.05567
-9.01042 -9.00984
-9.10747 -9.10738
-9.05599 -9.05585
-9.00876 -9.00923
-9.09301 -9.09294
-9.05244 -9.05345
-9.22677 -9.22645
-9.23175 -9.23142
-9.22973 -9.22929
-9.2288 -9.22891
-9.22745 -9.22727
-9.23367 -9.23384
-9.19378 -9.19252
-9.19032 -9.18984
-9.07044 -9.06987
-9.22781 -9.22796
-9.22963 -9.22972
-9.22993 -9.22992
-9.22025 -9.22108
-9.22441 -9.22369
-9.22615 -9.22584
-8.80272 -8.80268
-8.39602 -8.38675
-9.118 -9.11802
-8.23264 -8.23123
-9.00679 -9.00791
-8.61392 -8.62121
-9.15253 -9.1531
-8.88693 -8.88459
-8.96288 -8.96183
-8.5216 -8.52108
-8.73373 -8.73331
-8.85598 -8.85565
-8.75314 -8.75494
-8.33794 -8.33076
-8.91586 -8.91806
-8.69048 -8.69264
-9.23347 -9.23439
-8.90013 -8.90064
-8.9172 -8.91864
-9.12213 -9.12419
-8.97112 -8.97391
-8.76898 -8.76431
-8.89084 -8.89206
-9.10976 -9.10918
-8.75803 -8.76677
-8.59608 -8.5964
-8.85175 -8.84961
-9.06586 -9.06575
-9.20631 -9.20721
-8.9567 -8.96032
-8.66536 -8.66859
-9.00155 -9.0033
-9.19544 -9.19612
-9.15063 -9.15044
-8.86647 -8.86648
-8.98992 -8.99026
-8.72631 -8.72729
-9.07521 -9.07611
-8.93679 -8.93713
-9.04511 -9.04514
-9.13641 -9.13608
-9.03558 -9.03548
-8.87896 -8.8803
-9.06855 -9.06889
-8.98886 -8.98973
-9.01097 -9.01338
-8.7473 -8.74676
-9.02595 -9.02682
-9.12601 -9.12719
-9.13086 -9.13251
-9.18904 -9.18911
-9.1082 -9.10785
-9.09439 -9.09486
-9.00172 -9.00134
-9.08749 -9.08645
-8.99075 -8.98827
-9.12592 -9.12643
-8.81091 -8.81134
-9.17374 -9.17383
-8.9607 -8.9607
-8.92668 -8.92581
-9.21148 -9.20936
-9.05098 -9.05041
-8.82932 -8.82828
-9.1063 -9.10649
-8.95383 -8.95492
-9.14148 -9.1405
-9.16148 -9.16079
-9.03189 -9.03165
-8.96941 -8.9701
-9.14533 -9.14512
-9.13777 -9.13884
-9.04005 -9.04004
-9.03535 -9.03532
-9.00224 -9.00492
-9.23425 -9.23382
-9.23367 -9.23416
-9.14876 -9.14854
-9.03431 -9.03361
-9.02091 -9.02098
-9.02782 -9.02941
-9.04037 -9.04033
-8.93237 -8.93204
-8.90543 -8.90554
-8.82957 -8.82933
-9.00486 -9.00609
-9.18791 -9.18768
-9.14674 -9.14608
-9.01833 -9.01859
-9.06923 -9.06924
-9.06484 -9.06425
-9.09618 -9.09656
-9.0649 -9.0634
-9.23356 -9.23449
-9.23288 -9.2344
-9.23367 -9.23397
-9.23364 -9.23337
-9.23367 -9.23387
-9.23469 -9.23405
-9.23319 -9.23446
-9.23365 -9.23436
-9.23367 -9.23386
-9.23367 -9.23388
-9.23367 -9.23382
-9.21962 -9.22008
-9.21977 -9.2202
-9.2161 -9.21597
-9.21926 -9.2196
-9.21703 -9.21712
-9.21428 -9.21354
-9.21873 -9.21899
-9.22009 -9.22065
-9.21959 -9.22012
-9.21235 -9.21061
-9.2143 -9.21355
-9.21833 -9.21866
-9.22025 -9.22108
-9.21155 -9.20953
-9.2187 -9.21896
-9.21902 -9.21935
-9.21903 -9.21936
-9.21835 -9.21851
-9.21952 -9.21986
-9.21661 -9.21658
-9.21651 -9.21641
-9.21387 -9.21293
-9.21429 -9.21355
-9.22016 -9.2208
-9.22949 -9.22928
-9.22917 -9.22973
-9.2288 -9.2289
-9.2294 -9.22925
-9.22981 -9.22928
-9.22941 -9.22925
-9.22987 -9.22942
-9.22977 -9.22928
-9.22917 -9.22892
-9.22873 -9.22904
-9.22961 -9.22927
-9.22898 -9.22936
-9.22966 -9.22925
-9.22972 -9.2293
-9.22961 -9.22927
-9.22916 -9.22965
-9.22973 -9.2293
-9.22917 -9.22973
-9.2278 -9.22798
-9.22783 -9.22756
-9.22416 -9.22331
-9.22781 -9.22796
-9.22786 -9.22776
-9.22755 -9.22724
-9.22644 -9.22614
-9.22505 -9.22453
-9.22772 -9.22778
-9.22615 -9.22583
-9.22481 -9.22422
-9.22424 -9.22346
-9.22538 -9.22494
-9.22642 -9.22612
-9.22651 -9.22626
-9.22546 -9.22502
-9.22743 -9.22725
-9.23114 -9.23174
-9.23063 -9.23041
-9.23123 -9.23109
-9.23144 -9.23146
-9.23011 -9.23002
-9.23136 -9.231
-9.23058 -9.23034
-9.23136 -9.23101
-9.23097 -9.23069
-9.23046 -9.23029
-9.22921 -9.22946
-9.22892 -9.22926
-9.23171 -9.23133
-9.23084 -9.23066
-9.23063 -9.2304
-9.22847 -9.22905
-9.23118 -9.23083
-9.22891 -9.22925
-9.2317 -9.23143
-9.23018 -9.2301
-9.23172 -9.23134
-9.23017 -9.23009
-9.23119 -9.2309
-9.22891 -9.22926
-9.23171 -9.23132
-9.23084 -9.23066
-9.22956 -9.22967
-8.94278 -8.94275
-9.14764 -9.14807
-9.15976 -9.1594
-9.07513 -9.07475
-9.1677 -9.16796
-9.22973 -9.2293
-9.23122 -9.23162
-8.98955 -8.98798
-9.23121 -9.23098
-9.22964 -9.22972
-9.22573 -9.22538
-9.21833 -9.21865
-9.22969 -9.22959
-9.22781 -9.22751
-9.21328 -9.21207
-9.23126 -9.23161
-9.22979 -9.22927
-8.90094 -8.90121
-9.22662 -9.22638
-9.22883 -9.22891
-9.23367 -9.23387
-9.23367 -9.23386
-9.23367 -9.23388
-9.23367 -9.23416
-9.23367 -9.23384
-9.23367 -9.23384
-9.23367 -9.23388
-9.21943 -9.21964
-9.23367 -9.23388
-9.23367 -9.23382
-9.23367 -9.23386
-9.21952 -9.21983
-9.22023 -9.22097
-9.21529 -9.21491
-9.21872 -9.21898
-9.21835 -9.21869
-9.21778 -9.21794
-9.22023 -9.22097
-9.21232 -9.21059
-9.21872 -9.21898
-9.21925 -9.21959
-9.21802 -9.21831
-9.21953 -9.21988
-9.21426 -9.21351
-9.21249 -9.21088
-9.21861 -9.21881
-9.22004 -9.22063
-9.21894 -9.21931
-9.21923 -9.2195
-9.21415 -9.21335
-9.21945 -9.21976
-9.22905 -9.22892
-9.22856 -9.22884
-9.2288 -9.2289
-9.22898 -9.22935
-9.2296 -9.22927
-9.22961 -9.22927
-9.22983 -9.22929
-9.22859 -9.22965
-9.22971 -9.22959
-9.22979 -9.22927
-9.22978 -9.22953
-9.22967 -9.22924
-9.2297 -9.22946
-9.22952 -9.22962
-9.22981 -9.22928
-9.22952 -9.22927
-9.22897 -9.22906
-9.22869 -9.22895
-9.22886 -9.22891
-9.22771 -9.22745
-9.22504 -9.22451
-9.22677 -9.22645
-9.22708 -9.22694
-9.22532 -9.22484
-9.22766 -9.22766
-9.22653 -9.22622
-9.22599 -9.22565
-9.22731 -9.22727
-9.22638 -9.22611
-9.2259 -9.2255
-9.2248 -9.22421
-9.22541 -9.22497
-9.22379 -9.22284
-9.22778 -9.22771
-9.22785 -9.22795
-9.22637 -9.2261
-9.22859 -9.2291
-9.23127 -9.23161
-9.23134 -9.23114
-9.23125 -9.23154
-9.22939 -9.22953
-9.2317 -9.23143
-9.23143 -9.23126
-9.23144 -9.23147
-9.23126 -9.23161
-9.23178 -9.23141
-9.23135 -9.23099
-9.23076 -9.23053
-9.22993 -9.22991
-9.23157 -9.23127
-9.22859 -9.2291
-9.23125 -9.23154
-9.23125 -9.23165
-9.03774 -9.03788
-9.10017 -9.10034
-8.89563 -8.89528
-9.02601 -9.02556
-9.12066 -9.12087
-8.94037 -8.9401
-8.98725 -8.98722
-9.01401 -9.01398
-9.09865 -9.09894
-9.16029 -9.1593
-9.06438 -9.06451
-9.16196 -9.16152
-8.98583 -8.98563
-9.1359 -9.13544
-9.22892 -9.22925
-9.23095 -9.23072
-9.2244 -9.22368
-9.23024 -9.23012
-9.22886 -9.22891
-9.23279 -9.2345
-9.2238 -9.22285
-9.22879 -9.2289
-9.23142 -9.23125
-8.70272 -8.70252
-9.21664 -9.2166
-8.76047 -8.75557
-8.98867 -8.99018
-9.05165 -9.05192
-8.84248 -8.84041
-8.16542 -8.16366
-8.54583 -8.53896
-8.79518 -8.79562
-8.27987 -8.27748
-8.9885 -8.98815
-9.06538 -9.06499
-8.70509 -8.70366
-9.0683 -9.06935
-8.97612 -8.9792
-8.62604 -8.62775
-9.03149 -9.03392
-9.1253 -9.12492
-8.88687 -8.88792
-8.79037 -8.79126
-8.99019 -8.98977
-8.85891 -8.85159
-9.00895 -9.00893
-9.06285 -9.06485
-8.97361 -8.97424
-8.90872 -8.90909
-9.19745 -9.19728
-9.06137 -9.06081
-8.91563 -8.91456
-9.09147 -9.09002
-8.94721 -8.94707
-8.99175 -8.99201
-9.02236 -9.0209
-8.92549 -8.92925
-8.73968 -8.73985
-9.02957 -9.03019
-9.08051 -9.08174
-8.81783 -8.81844
-9.01431 -9.0151
-9.23555 -9.23432
-8.89878 -8.89929
-9.01095 -9.01277
-9.06994 -9.07133
-9.07984 -9.0809
-8.97219 -8.97194
-8.93497 -8.93423
-8.82817 -8.82774
-9.13441 -9.13354
-9.05368 -9.05418
-8.97213 -8.97227
-9.07581 -9.07626
-8.95137 -8.95135
-9.21878 -9.21887
-9.08816 -9.08747
-9.09631 -9.09587
-9.07748 -9.07763
-9.16954 -9.16944
-9.15362 -9.15368
-8.83708 -8.83639
-9.14567 -9.14688
-9.11845 -9.11849
-9.18721 -9.18741
-8.95584 -8.95639
-9.05754 -9.05764
-9.11562 -9.11512
-9.23367 -9.23388
-9.23367 -9.23387
-9.23367 -9.23381
-9.23367 -9.23382
-9.23367 -9.23386
-9.23367 -9.23388
-9.23469 -9.23427
-9.23367 -9.23421
-9.23367 -9.23381
-9.22004 -9.22064
-9.2152 -9.21478
-9.21804 -9.21833
-9.21924 -9.21952
-9.21975 -9.22018
-9.22023 -9.22097
-9.21359 -9.2125
-9.21664 -9.21659
-9.21712 -9.21713
-9.21731 -9.21746
-9.21653 -9.21643
-9.21706 -9.21714
-9.21426 -9.21352
-9.21995 -9.22046
-9.21704 -9.21713
-9.21177 -9.2098
-9.21155 -9.20953
-9.2298 -9.22936
-9.22874 -9.22904
-9.22978 -9.22926
-9.22942 -9.22942
-9.22888 -9.22906
-9.22888 -9.22896
-9.22949 -9.22968
-9.22976 -9.22927
-9.22966 -9.22925
-9.22942 -9.22926
-9.22904 -9.22945
-9.22978 -9.22926
-9.22881 -9.22897
-9.22939 -9.22924
-9.22859 -9.22965
-9.22893 -9.22965
-9.2298 -9.22936
-9.22983 -9.22931
-9.22975 -9.22926
-9.22979 -9.22953
-9.2298 -9.22949
-9.2296 -9.22926
-9.2298 -9.22936
-9.22961 -9.22927
-9.2298 -9.22928
-9.22939 -9.22925
-9.22963 -9.22937
-9.22921 -9.22947
-9.22969 -9.22959
-9.22598 -9.22563
-9.22769 -9.22781
-9.22736 -9.22711
-9.22768 -9.22768
-9.22745 -9.22727
-9.22473 -9.2241
-9.2261 -9.22576
-9.22662 -9.22637
-9.22608 -9.22575
-9.22681 -9.22655
-9.22481 -9.22421
-9.22704 -9.22691
-9.22407 -9.22314
-9.22332 -9.22216
-9.22599 -9.22563
-9.22735 -9.22727
-9.22706 -9.22692
-9.22637 -9.22611
-9.22735 -9.2271
-9.22767 -9.22767
-9.22706 -9.22692
-9.22695 -9.22673
-9.22732 -9.22727
-9.22332 -9.22216
-9.23088 -9.23067
-9.22891 -9.22925
-9.22799 -9.22878
-9.23101 -9.23072
-9.22836 -9.22895
-9.23118 -9.23083
-9.23138 -9.23148
-9.23076 -9.23053
-9.22848 -9.22906
-9.23168 -9.23136
-9.23126 -9.23161
-9.23058 -9.23034
-9.22848 -9.22906
-9.23168 -9.23136
-9.22999 -9.22996
-9.22799 -9.22878
-9.22963 -9.22972
-9.23076 -9.23053
-9.23137 -9.23101
-9.23104 -9.2308
-9.22955 -9.22966
-9.23113 -9.23097
-9.23142 -9.23123
-9.23157 -9.23151
-9.23162 -9.23144
-9.22836 -9.22895
-9.23125 -9.23154
-9.23126 -9.23161
-9.16562 -9.16477
-9.08989 -9.09018
-9.12229 -9.12104
-9.19086 -9.19027
-9.22735 -9.2271
-9.23144 -9.23147
-9.22953 -9.22912
-9.22755 -9.22725
-9.22897 -9.22935
-9.22902 -9.22936
-9.14283 -9.14247
-9.08051 -9.07981
-9.20556 -9.20548
-9.22979 -9.22927
-9.22778 -9.22771
-9.23367 -9.23392
-9.23367 -9.23384
-9.2318 -9.23132
-9.23367 -9.23386
-9.23367 -9.23385
-9.23367 -9.23388
-9.22023 -9.22096
-9.21976 -9.22019
-9.21958 -9.21997
-9.21731 -9.21737
-9.2192 -9.21961
-9.22005 -9.22065
-9.2177 -9.21779
-9.21428 -9.21353
-9.21314 -9.21182
-9.21892 -9.21935
-9.21819 -9.21835
-9.21927 -9.21961
-9.2198 -9.22031
-9.21957 -9.21996
-9.21267 -9.21112
-9.21313 -9.21181
-9.21973 -9.22016
-9.21768 -9.21776
-9.21836 -9.21868
-9.21701 -9.2171
-9.21899 -9.21931
-9.2196 -9.22005
-9.21316 -9.21183
-9.2193 -9.21962
-9.22901 -9.22916
-9.22961 -9.22927
-9.22894 -9.2289
-9.22889 -9.22899
-9.22979 -9.22953
-9.22972 -9.22926
-9.22937 -9.22924
-9.22886 -9.22891
-9.2296 -9.22926
-9.22888 -9.22907
-9.22948 -9.22952
-9.2298 -9.22936
-9.22989 -9.2294
-9.2296 -9.22932
-9.22976 -9.22928
-9.22962 -9.22935
-9.22977 -9.22928
-9.22872 -9.22946
-9.22887 -9.22979
-9.22929 -9.22924
-9.22874 -9.22904
-9.22342 -9.22228
-9.22706 -9.22693
-9.22771 -9.2274
-9.22512 -9.22462
-9.22572 -9.22534
-9.2277 -9.22739
-9.22708 -9.22694
-9.2277 -9.2274
-9.22781 -9.22796
-9.22781 -9.22796
-9.22573 -9.22535
-9.22707 -9.22677
-9.2278 -9.22749
-9.22638 -9.22612
-9.22591 -9.22551
-9.22614 -9.22583
-9.22635 -9.22609
-9.22738 -9.22713
-9.22787 -9.22811
-9.23125 -9.23154
-9.23117 -9.23167
-9.23127 -9.23161
-9.23172 -9.23134
-9.23144 -9.23147
-9.22964 -9.22972
-9.23119 -9.23169
-9.2313 -9.23125
-9.23088 -9.23066
-9.22786 -9.22873
-9.2313 -9.23159
-9.23128 -9.23134
-9.23119 -9.2309
-9.22938 -9.22952
-9.23073 -9.23049
-9.23136 -9.231
-9.23178 -9.2314
-9.23088 -9.23066
-9.23011 -9.23001
-9.23073 -9.23048
-9.23018 -9.2301
-9.22986 -9.22988
-9.23149 -9.23119
-9.12046 -9.1205
-9.0279 -9.0277
-9.11375 -9.11364
-9.04542 -9.04529
-9.17262 -9.17223
-9.0476 -9.04734
-9.09137 -9.09114
-9.18181 -9.18188
-9.22785 -9.22776
-9.23125 -9.23165
-9.2297 -9.22925
-9.23137 -9.23134
-9.22781 -9.22796
-9.22937 -9.22924
-9.21519 -9.21476
-9.22735 -9.22726
-9.23137 -9.23134
-9.22023 -9.22097
-9.02509 -9.02789
-8.53683 -8.53783
-8.62485 -8.62976
-9.06179 -9.06639
-8.89718 -8.89405
-8.74695 -8.74454
-9.101 -9.10155
-8.81071 -8.81058
-8.91372 -8.9144
-8.76106 -8.75633
-8.58739 -8.58566
-9.09464 -9.09553
-9.22763 -9.22768
-8.92677 -8.9252
-8.44066 -8.44073
-8.89242 -8.88569
-8.72676 -8.72348
-8.92048 -8.92047
-8.92471 -8.92423
-9.03973 -9.04264
-8.84688 -8.84622
-8.76549 -8.76809
-8.51467 -8.51477
-9.09478 -9.09514
-9.0904 -9.08771
-9.01783 -9.02061
-8.99675 -8.99688
-8.92527 -8.92513
-9.23367 -9.23388
-8.87846 -8.87794
-9.04297 -9.04401
-9.11777 -9.11782
-8.855 -8.85974
-8.52654 -8.52537
-9.02118 -9.02157
-9.07408 -9.07489
-9.15481 -9.15444
-8.94581 -8.94524
-8.93896 -8.93969
-8.70987 -8.70873
-9.0043 -9.00512
-9.06539 -9.06551
-9.14953 -9.14994
-8.8959 -8.89647
-9.10209 -9.10084
-8.94122 -8.94115
-9.00754 -9.00823
-8.98867 -8.9922
-8.90714 -8.90728
-8.92989 -8.93058
-8.91564 -8.91542
-8.97714 -8.97746
-9.0433 -9.04333
-8.91286 -8.91262
-8.95403 -8.95306
-8.98179 -8.98289
-9.06435 -9.06391
-9.09439 -9.09355
-8.94814 -8.94749
-9.18094 -9.18086
-9.09534 -9.09507
-8.87166 -8.87111
-8.99401 -8.99383
-8.98424 -8.9835
-8.96095 -8.9607
-8.97827 -8.97795
-9.0514 -9.05129
-9.10373 -9.10325
-9.09853 -9.09825
-9.14688 -9.14611
-9.0915 -9.09168
-9.14289 -9.14266
-9.08114 -9.08101
-9.22782 -9.22862
-9.23367 -9.23388
-9.23367 -9.23386
-9.23367 -9.23382
-9.23113 -9.23166
-9.23566 -9.23413
-9.23331 -9.23446
-9.23367 -9.23401
-9.23367 -9.23389
-9.23367 -9.23382
-9.21698 -9.21706
-9.21177 -9.2098
-9.21385 -9.21291
-9.21953 -9.21984
-9.219 -9.21932
-9.21772 -9.2178
-9.21852 -9.21881
-9.21991 -9.22032
-9.21705 -9.21714
-9.21635 -9.21625
-9.21777 -9.21792
-9.21833 -9.21867
-9.21664 -9.2166
-9.21898 -9.21924
-9.21426 -9.21351
-9.22023 -9.22097
-9.22025 -9.22105
-9.21952 -9.21983
-9.21976 -9.22019
-9.22969 -9.22946
-9.22961 -9.22927
-9.2298 -9.22936
-9.2298 -9.22949
-9.22975 -9.22926
-9.22961 -9.22926
-9.2298 -9.22936
-9.22962 -9.22936
-9.22887 -9.22979
-9.22972 -9.22926
-9.22952 -9.22962
-9.22897 -9.22935
-9.22966 -9.22926
-9.22939 -9.22924
-9.22985 -9.22929
-9.22977 -9.22939
-9.22975 -9.22926
-9.22977 -9.22928
-9.22949 -9.22928
-9.2298 -9.22936
-9.22967 -9.22926
-9.22983 -9.22929
-9.2288 -9.2289
-9.22945 -9.22947
-9.22732 -9.22727
-9.22789 -9.22813
-9.22482 -9.22422
-9.2238 -9.22285
-9.22698 -9.22675
-9.2254 -9.22496
-9.22714 -9.22683
-9.22459 -9.22389
-9.22762 -9.22769
-9.22785 -9.22775
-9.22786 -9.22804
-9.22732 -9.22727
-9.22414 -9.22329
-9.22616 -9.22584
-9.2251 -9.22458
-9.22539 -9.22495
-9.2277 -9.2274
-9.22756 -9.22726
-9.22744 -9.22742
-9.22785 -9.22776
-9.22786 -9.22873
-9.22956 -9.22967
-9.2313 -9.23152
-9.23123 -9.23109
-9.23149 -9.23119
-9.23164 -9.23127
-9.23153 -9.23135
-9.22956 -9.22967
-9.2315 -9.2312
-9.23126 -9.23126
-9.22892 -9.22927
-9.23019 -9.23011
-9.23063 -9.23041
-9.2314 -9.23158
-9.22836 -9.22895
-9.23161 -9.23143
-9.22962 -9.22972
-9.23088 -9.23066
-9.23097 -9.23069
-9.23128 -9.23148
-9.06556 -9.0654
-8.99818 -8.99852
-9.12291 -9.1228
-9.02194 -9.02179
-9.09343 -9.09333
-8.97512 -8.97462
-9.10839 -9.10776
-9.18158 -9.18196
-9.16629 -9.16612
-9.16029 -9.15956
-9.12566 -9.12512
-9.18682 -9.18648
-9.11811 -9.11803
-9.02305 -9.02289
-9.16319 -9.16241
-9.22883 -9.2289
-9.22736 -9.22711
-9.22342 -9.22228
-9.21705 -9.21713
-9.2193 -9.21962
-9.23101 -9.23072
-9.23289 -9.23448
-9.23367 -9.23384
-9.23367 -9.2339
-9.23367 -9.23387
-9.23367 -9.23382
-9.23367 -9.23382
-9.23367 -9.23386
-9.233 -9.2345
-9.23367 -9.23389
-9.23367 -9.23388
-9.23367 -9.23382
-9.2198 -9.2203
-9.22013 -9.22081
-9.22004 -9.22064
-9.21329 -9.21208
-9.21924 -9.21953
-9.21836 -9.21869
-9.21778 -9.21793
-9.21973 -9.22016
-9.22004 -9.22063
-9.21863 -9.21883
-9.21813 -9.21837
-9.21818 -9.21834
-9.21924 -9.21951
-9.21835 -9.21867
-9.21902 -9.21933
-9.22976 -9.22928
-9.22951 -9.22899
-9.22961 -9.22927
-9.2298 -9.22936
-9.22966 -9.22926
-9.22927 -9.22923
-9.22898 -9.22936
-9.22976 -9.22928
-9.22941 -9.22925
-9.2298 -9.22928
-9.22949 -9.22954
-9.22983 -9.22938
-9.22987 -9.22934
-9.2295 -9.22954
-9.2298 -9.22927
-9.22905 -9.22892
-9.22351 -9.22244
-9.22771 -9.2274
-9.22787 -9.22811
-9.22424 -9.22347
-9.22642 -9.22612
-9.22737 -9.22712
-9.22735 -9.22711
-9.22474 -9.22411
-9.2254 -9.22495
-9.22735 -9.22726
-9.22519 -9.2247
-9.22351 -9.22244
-9.2239 -9.22297
-9.22785 -9.22776
-9.22772 -9.22778
-9.22661 -9.22636
-9.22676 -9.22644
-9.22766 -9.22765
-9.22761 -9.22768
-9.22415 -9.2233
-9.22788 -9.2282
-9.23077 -9.23053
-9.23097 -9.23068
-9.23126 -9.23127
-9.23178 -9.2314
-9.23089 -9.23068
-9.23123 -9.23109
-9.23119 -9.23083
-9.2294 -9.22955
-9.23077 -9.23054
-9.22986 -9.22989
-9.23153 -9.23143
-9.2286 -9.2291
-9.2313 -9.23151
-9.23153 -9.23144
-9.23144 -9.23147
-9.23096 -9.23073
-9.23169 -9.23143
-9.23077 -9.23055
-9.23117 -9.23168
-9.22848 -9.22906
-9.23174 -9.23141
-9.07431 -9.0744
-9.04468 -9.04463
-9.0569 -9.05693
-9.14869 -9.14896
-9.1527 -9.1524
-9.15377 -9.15369
-9.07821 -9.07923
-9.12537 -9.12483
-9.10188 -9.102
-9.01871 -9.01881
-9.22856 -9.22884
-9.23077 -9.23054
-9.0969 -9.09695
-9.23367 -9.23382
-9.22441 -9.22369
-9.22616 -9.22585
-9.23367 -9.23392
-9.08603 -9.08608
-9.22781 -9.22796
-9.23367 -9.23411
-9.23126 -9.23161
-9.22546 -9.22503
-8.87395 -8.87534
-8.97255 -8.97309
-8.46986 -8.47544
-8.77314 -8.77833
-8.76169 -8.76447
-8.95267 -8.95601
-8.3235 -8.33913
-8.64915 -8.64624
-8.24086 -8.23485
-9.06421 -9.06419
-8.54318 -8.54816
-8.77505 -8.7776
-8.8579 -8.85839
-8.42233 -8.42531
-9.08583 -9.0889
-8.39537 -8.39394
-9.10534 -9.10976
-8.93116 -8.93083
-8.76338 -8.76351
-8.68053 -8.67838
-9.00349 -9.00528
-9.00854 -9.00794
-9.02183 -9.02311
-8.72486 -8.72173
-9.0747 -9.07477
-8.95697 -8.95607
-9.16858 -9.16816
-8.74487 -8.74441
-8.76833 -8.77567
-9.03023 -9.03139
-8.95562 -8.95583
-9.00181 -9.00235
-8.73498 -8.73708
-8.79262 -8.7928
-9.21424 -9.21525
-9.00096 -9.00063
-9.04212 -9.04207
-9.14532 -9.14195
-8.96333 -8.96547
-9.07124 -9.07317
-9.01853 -9.01955
-8.89942 -8.90074
-8.84617 -8.84624
-9.11713 -9.11697
-9.08884 -9.08836
-9.04662 -9.04713
-8.88774 -8.88696
-8.84686 -8.84589
-9.21849 -9.21664
-9.08102 -9.08078
-9.02353 -9.0236
-9.12906 -9.13243
-9.18465 -9.18481
-9.01558 -9.01546
-9.13804 -9.13849
-8.96419 -8.96394
-9.2242 -9.2242
-9.07613 -9.07599
-9.22901 -9.23054
-8.91911 -8.91916
-9.08827 -9.08829
-9.18508 -9.18558
-9.11126 -9.11138
-8.85132 -8.84582
-9.09545 -9.09533
-8.99889 -8.99848
-9.05661 -9.05691
-9.23367 -9.2343
-9.0849 -9.08608
-9.11097 -9.11174
-9.01915 -9.019
-8.98974 -8.98985
-9.07058 -9.07028
-9.04764 -9.04798
-9.08385 -9.08363
-9.05973 -9.06007
-8.97843 -8.97925
-9.10267 -9.10337
-9.23367 -9.23385
-9.1784 -9.17863
-9.18357 -9.18365
-8.95896 -8.95912
-9.00718 -9.00762
-9.23293 -9.23442
-9.23367 -9.23384
-9.23367 -9.23388
-9.23367 -9.23384
-9.23367 -9.23386
-9.23367 -9.23382
-9.21251 -9.2109
-9.21991 -9.22032
-9.21635 -9.21626
-9.2148 -9.21426
-9.21769 -9.21777
-9.21735 -9.21748
-9.21894 -9.21932
-9.21269 -9.21114
-9.21958 -9.21997
-9.21834 -9.21867
-9.2177 -9.21778
-9.21953 -9.21984
-9.21609 -9.21595
-9.21746 -9.21761
-9.21701 -9.2171
-9.21517 -9.21475
-9.21917 -9.21961
-9.21469 -9.21409
-9.21852 -9.21881
-9.21959 -9.22011
-9.22023 -9.22097
-9.21833 -9.21865
-9.22854 -9.22971
-9.22976 -9.22928
-9.22979 -9.22927
-9.22969 -9.22959
-9.22979 -9.22926
-9.22961 -9.22927
-9.2298 -9.22928
-9.22925 -9.2297
-9.22949 -9.22925
-9.2298 -9.22936
-9.22973 -9.2293
-9.22977 -9.22928
-9.22961 -9.22927
-9.22952 -9.22926
-9.22923 -9.22969
-9.22955 -9.22905
-9.2298 -9.22927
-9.22973 -9.2293
-9.2298 -9.22936
-9.22976 -9.22938
-9.22961 -9.22927
-9.22783 -9.22753
-9.22776 -9.2277
-9.22763 -9.2277
-9.22782 -9.22759
-9.22481 -9.22422
-9.22689 -9.22674
-9.22772 -9.22741
-9.22541 -9.22498
-9.22599 -9.22564
-9.22788 -9.22813
-9.22787 -9.22812
-9.22512 -9.2246
-9.22474 -9.22412
-9.22503 -9.2245
-9.22782 -9.2276
-9.22785 -9.22758
-9.22424 -9.22346
-9.2278 -9.22796
-9.22749 -9.22742
-9.22342 -9.22228
-9.22474 -9.22412
-9.2313 -9.23159
-9.23018 -9.2301
-9.22993 -9.2299
-9.23119 -9.23084
-9.23073 -9.23049
-9.23097 -9.23069
-9.23135 -9.23114
-9.23149 -9.23119
-9.23151 -9.23112
-9.2312 -9.23166
-9.22999 -9.22996
-9.22859 -9.2291
-9.23121 -9.23098
-9.23142 -9.23123
-9.23117 -9.23167
-9.13865 -9.13796
-9.05616 -9.05593
-9.11037 -9.1106
-9.16506 -9.16476
-9.22784 -9.22756
-9.22416 -9.22331
-9.23149 -9.23119
-9.22894 -9.22891
-9.23043 -9.2303
-9.22973 -9.2293
-9.2297 -9.22945
-9.22539 -9.22495
-9.22587 -9.22552
-9.06302 -9.06297
-9.21897 -9.21922
-9.22904 -9.22946
-9.22928 -9.22925
-9.22743 -9.22742
-9.22653 -9.22623
-9.23328 -9.23435
-9.23367 -9.23385
-9.23367 -9.23382
-9.23367 -9.23386
-9.23367 -9.23389
-9.23367 -9.23382
-9.23367 -9.23382
-9.23367 -9.23388
-9.23367 -9.23387
-9.23367 -9.23388
-9.21979 -9.22036
-9.21952 -9.21988
-9.21872 -9.21899
-9.21543 -9.21507
-9.21837 -9.21854
-9.21484 -9.21431
-9.2153 -9.21491
-9.21931 -9.21962
-9.21976 -9.22019
-9.22023 -9.22096
-9.21961 -9.22013
-9.2173 -9.21737
-9.21891 -9.21934
-9.21592 -9.21575
-9.21625 -9.21608
-9.21771 -9.2178
-9.21953 -9.21986
-9.21493 -9.21444
-9.22025 -9.22108
-9.22853 -9.22969
-9.22952 -9.22961
-9.22939 -9.22924
-9.2298 -9.22948
-9.22899 -9.22908
-9.229 -9.229
-9.2298 -9.22936
-9.22939 -9.22916
-9.22872 -9.22946
-9.22972 -9.22926
-9.22986 -9.22933
-9.22972 -9.22963
-9.22981 -9.22936
-9.22977 -9.22928
-9.2296 -9.22933
-9.22979 -9.22934
-9.22941 -9.22957
-9.22943 -9.22929
-9.22973 -9.22925
-9.2298 -9.22936
-9.22771 -9.22778
-9.22759 -9.22732
-9.22482 -9.22423
-9.22712 -9.22681
-9.22644 -9.22614
-9.22417 -9.22332
-9.22416 -9.22331
-9.22782 -9.22805
-9.22598 -9.22562
-9.22616 -9.22585
-9.22609 -9.22575
-9.22714 -9.22683
-9.22675 -9.22644
-9.22617 -9.22586
-9.22518 -9.22469
-9.22632 -9.22607
-9.22992 -9.22991
-9.22799 -9.22878
-9.23058 -9.23034
-9.23118 -9.23169
-9.2312 -9.23165
-9.2315 -9.23119
-9.23046 -9.2303
-9.2316 -9.23143
-9.23096 -9.23074
-9.23023 -9.23012
-9.23058 -9.23033
-9.23136 -9.23101
-9.23118 -9.23083
-9.2314 -9.23158
-9.22799 -9.22878
-9.23125 -9.23154
-9.23126 -9.23127
-9.23128 -9.23148
-9.23138 -9.23147
-9.23118 -9.23083
-9.23122 -9.23108
-9.23088 -9.23067
-9.22954 -9.22965
-9.23076 -9.23053
-9.23137 -9.23146
-9.23121 -9.23097
-9.23131 -9.23151
-9.22992 -9.22991
-9.22881 -9.22915
-9.10154 -9.10103
-9.10932 -9.10895
-9.08271 -9.08221
-8.92111 -8.92096
-9.13122 -9.13043
-8.9102 -8.91033
-9.05843 -9.05837
-9.08649 -9.08652
-9.13971 -9.13991
-9.13119 -9.13111
-9.22704 -9.2269
-9.22004 -9.22064
-9.22939 -9.22924
-9.13341 -9.13424
-9.23367 -9.23431
-9.23063 -9.23042
-9.23367 -9.23388
-9.22532 -9.22485
-9.21817 -9.21832
-9.23367 -9.23382
-9.22636 -9.2261
-8.52039 -8.51944
-8.63816 -8.63607
-8.85894 -8.85281
-8.54842 -8.54959
-8.68609 -8.68748
-8.89574 -8.89748
-8.27487 -8.27325
-9.22618 -9.22588
-9.11191 -9.10722
-8.85883 -8.8528
-8.9742 -8.97445
-8.6897 -8.68984
-9.13393 -9.13359
-9.10721 -9.10701
-9.14378 -9.14507
-8.98382 -8.98434
-8.83505 -8.83412
-8.99651 -8.99539
-8.92552 -8.931
-9.0145 -9.01502
-8.96744 -8.96694
-8.81959 -8.81932
-8.9243 -8.92454
-8.91186 -8.91102
-8.80873 -8.80783
-9.01373 -9.01528
-8.86327 -8.86567
-9.05031 -9.05085
-9.05461 -9.05342
-8.91038 -8.9117
-8.94796 -8.94751
-8.8343 -8.83426
-8.99674 -8.99708
-9.15322 -9.15407
-9.17618 -9.17718
-9.17084 -9.17126
-9.16172 -9.16167
-9.0934 -9.09491
-9.18892 -9.18629
-9.1856 -9.18638
-9.05685 -9.05648
-8.7526 -8.75315
-8.71765 -8.71875
-8.90503 -8.90526
-8.86835 -8.86903
-8.8151 -8.81512
-8.91944 -8.91846
-8.89725 -8.89739
-9.13499 -9.13348
-8.84181 -8.84157
-8.92265 -8.92281
-9.12619 -9.12523
-9.01544 -9.01558
-8.72425 -8.724
-8.83222 -8.83079
-9.12268 -9.12289
-9.08554 -9.08626
-8.98409 -8.98454
-8.74314 -8.74358
-9.0633 -9.06315
-9.05509 -9.05276
-8.98692 -8.98713
-8.87401 -8.87496
-9.07313 -9.0725
-9.15325 -9.15216
-9.00716 -9.00602
-8.97432 -8.97463
-9.14794 -9.14755
-9.06606 -9.0658
-8.88394 -8.88447
-9.02169 -9.02198
-9.10705 -9.10641
-9.04408 -9.04416
-9.12623 -9.12582
-9.02083 -9.02098
-8.98241 -8.98216
-9.00688 -9.00629
-8.9786 -8.97883
-8.98412 -8.98491
-9.13259 -9.13222
-9.22891 -9.22925
-8.90471 -8.90409
-9.13781 -9.13761
-9.11849 -9.11869
-9.23335 -9.23341
-9.23367 -9.23406
-9.23357 -9.23442
-9.23367 -9.23431
-9.23367 -9.23388
-9.23367 -9.23386
-9.23367 -9.23382
-9.23355 -9.2332
-9.23367 -9.2339
-9.23367 -9.23385
-9.23367 -9.23388
-9.21894 -9.21932
-9.21177 -9.2098
-9.21837 -9.2187
-9.21903 -9.21935
-9.21962 -9.22014
-9.21815 -9.21838
-9.21835 -9.21852
-9.21939 -9.2197
-9.21924 -9.21951
-9.21897 -9.21924
-9.21615 -9.21601
-9.21533 -9.21494
-9.219 -9.21932
-9.21197 -9.21008
-9.21995 -9.22047
-9.21912 -9.21941
-9.21428 -9.21352
-9.21938 -9.21968
-9.2153 -9.21491
-9.21541 -9.21505
-9.21912 -9.21939
-9.21767 -9.21775
-9.21887 -9.2193
-9.21729 -9.21736
-9.21698 -9.21706
-9.21177 -9.2098
-9.22882 -9.22897
-9.22901 -9.22977
-9.2292 -9.22945
-9.2295 -9.22926
-9.2298 -9.22936
-9.22987 -9.22942
-9.22968 -9.22925
-9.2295 -9.22953
-9.22978 -9.22929
-9.22951 -9.22925
-9.22961 -9.22927
-9.22973 -9.22925
-9.22856 -9.22884
-9.22901 -9.22917
-9.22872 -9.22945
-9.22981 -9.22928
-9.22962 -9.22927
-9.22962 -9.22926
-9.22956 -9.22924
-9.229 -9.22899
-9.22876 -9.22901
-9.22511 -9.2246
-9.2277 -9.22781
-9.22708 -9.22694
-9.22745 -9.22727
-9.22784 -9.22795
-9.22749 -9.22742
-9.22676 -9.22645
-9.22638 -9.22612
-9.22572 -9.22537
-9.22784 -9.22789
-9.22782 -9.22763
-9.22759 -9.22732
-9.22706 -9.22676
-9.22785 -9.22775
-9.22777 -9.22771
-9.22652 -9.22622
-9.22772 -9.22778
-9.22786 -9.22804
-9.23113 -9.23166
-9.23157 -9.23151
-9.23144 -9.23146
-9.23137 -9.23101
-9.23055 -9.23037
-9.23077 -9.23054
-9.23012 -9.23001
-9.23088 -9.23067
-9.23127 -9.23161
-9.22985 -9.22987
-9.23164 -9.23126
-9.2314 -9.23158
-9.22964 -9.22973
-9.23145 -9.23148
-9.23113 -9.23166
-9.07562 -9.07492
-9.15621 -9.1559
-9.04105 -9.04114
-9.07245 -9.07192
-9.11047 -9.1102
-9.01815 -9.01849
-9.05003 -9.05017
-9.0683 -9.06799
-9.06268 -9.06254
-9.2095 -9.20897
-9.22785 -9.22775
-9.22416 -9.2233
-9.22481 -9.22422
-9.23126 -9.23161
-9.08691 -9.08621
-9.22979 -9.22927
-9.06488 -9.06498
-9.23367 -9.23384
-9.2298 -9.22927
-9.22774 -9.22761
-9.22949 -9.22928
-9.23367 -9.23416
-9.22984 -9.2302
-9.23367 -9.23394
-9.23367 -9.23389
-9.20533 -9.20452
-9.23367 -9.23392
-9.23367 -9.23389
-9.21482 -9.21427
-9.21415 -9.21335
-9.21197 -9.21009
-9.21973 -9.22016
-9.21871 -9.21897
-9.21904 -9.21937
-9.21626 -9.2161
-9.21837 -9.21869
-9.21664 -9.21659
-9.21862 -9.21882
-9.21838 -9.2187
-9.2153 -9.21491
-9.21965 -9.22001
-9.21915 -9.21961
-9.21528 -9.2149
-9.21924 -9.21953
-9.2187 -9.21896
-9.2198 -9.2203
-9.22024 -9.22096
-9.21627 -9.21611
-9.22971 -9.22931
-9.22958 -9.22928
-9.22876 -9.22901
-9.2298 -9.22936
-9.22945 -9.22947
-9.22968 -9.22925
-9.22972 -9.2293
-9.2298 -9.22936
-9.22962 -9.22927
-9.22987 -9.22934
-9.22976 -9.22928
-9.22873 -9.22946
-9.22972 -9.22959
-9.22978 -9.22929
-9.22961 -9.22908
-9.22975 -9.22926
-9.2296 -9.22926
-9.22875 -9.22901
-9.22889 -9.22907
-9.22848 -9.22975
-9.22958 -9.22928
-9.22342 -9.22228
-9.22616 -9.22584
-9.22546 -9.22502
-9.22785 -9.22758
-9.22743 -9.22725
-9.2273 -9.22726
-9.22708 -9.22694
-9.22781 -9.22796
-9.22637 -9.2261
-9.2277 -9.22782
-9.2278 -9.22798
-9.22776 -9.2277
-9.2237 -9.22267
-9.22743 -9.22725
-9.22787 -9.22812
-9.22881 -9.22915
-9.23117 -9.23167
-9.23018 -9.2301
-9.22955 -9.22966
-9.23088 -9.23066
-9.23055 -9.23037
-9.23142 -9.23124
-9.23018 -9.2301
-9.23119 -9.23107
-9.23121 -9.23162
-9.22881 -9.22916
-9.23123 -9.23109
-9.23127 -9.23161
-9.23142 -9.23124
-9.23175 -9.23143
-9.23153 -9.23135
-9.23129 -9.23134
-9.23122 -9.23108
-9.23138 -9.23145
-9.23142 -9.23124
-9.23018 -9.23009
-9.2313 -9.23159
-9.23121 -9.23166
-9.23113 -9.23166
-9.12989 -9.12969
-9.19348 -9.19299
-9.10256 -9.10242
-9.08651 -9.08653
-8.847 -8.8463
-9.01416 -9.01448
-9.16451 -9.16415
-9.02003 -9.01934
-9.04095 -9.04095
-9.11407 -9.11406
-9.21945 -9.21976
-9.2296 -9.22926
-9.17874 -9.17921
-9.22614 -9.22583
-9.22999 -9.22996
-9.2254 -9.22496
-9.2315 -9.2312
-9.2297 -9.22928
-9.21666 -9.21663
-8.84392 -8.84371
-8.53909 -8.52833
-8.15358 -8.16359
-8.73019 -8.7304
-8.46884 -8.47723
-8.62812 -8.62659
-8.8097 -8.80441
-8.96126 -8.96149
-8.24012 -8.25242
-9.23367 -9.23406
-8.33233 -8.33282
-9.13125 -9.13232
-8.68877 -8.68808
-9.09996 -9.0981
-9.07119 -9.07182
-9.16825 -9.16671
-9.0956 -9.09512
-9.06249 -9.0635
-8.70364 -8.70235
-8.74573 -8.74102
-9.06972 -9.06893
-8.90391 -8.90565
-8.81717 -8.81733
-8.90603 -8.90779
-8.8888 -8.88889
-9.06252 -9.06347
-9.18007 -9.18094
-9.12122 -9.12153
-8.84302 -8.84267
-9.06812 -9.06989
-8.87568 -8.87606
-9.06057 -9.06573
-9.10118 -9.10135
-9.08148 -9.08165
-8.85679 -8.85569
-8.94388 -8.94424
-9.12711 -9.12731
-8.32986 -8.32671
-8.97872 -8.97772
-9.05434 -9.05539
-9.15845 -9.15804
-8.87719 -8.87756
-9.15379 -9.15308
-9.09769 -9.09771
-8.89948 -8.90032
-9.03712 -9.03713
-8.96818 -8.96793
-9.06692 -9.07165
-8.9353 -8.93499
-9.1268 -9.12734
-8.95737 -8.95886
-8.95946 -8.95932
-8.89632 -8.89982
-9.14924 -9.14824
-9.09079 -9.09504
-9.19814 -9.19764
-8.85231 -8.85224
-8.90095 -8.90189
-8.99467 -8.99482
-9.01015 -9.01021
-9.00447 -9.00417
-9.0359 -9.03634
-8.98879 -8.98749
-9.04879 -9.05212
-8.93644 -8.93605
-9.01964 -9.01975
-9.04374 -9.04403
-9.07487 -9.07449
-8.86926 -8.86883
-9.0324 -9.03238
-9.11814 -9.11895
-9.06064 -9.06143
-9.08528 -9.08681
-8.96728 -8.96892
-9.16023 -9.15969
-9.0727 -9.07349
-8.83349 -8.83234
-8.99046 -8.99046
-9.12535 -9.12479
-8.83783 -8.83755
-9.0042 -9.00385
-8.97843 -8.97855
-9.12601 -9.12465
-8.92063 -8.92024
-8.91618 -8.91628
-8.97919 -8.97879
-8.81399 -8.81344
-9.133 -9.13273
-9.05989 -9.05819
-9.22025 -9.22105
-9.14723 -9.14832
-8.96836 -8.96839
-9.03828 -9.03829
-9.05686 -9.05687
-9.16698 -9.16675
-9.23367 -9.23384
-9.23367 -9.23382
-9.23467 -9.23443
-9.23367 -9.23382
-9.23355 -9.23446
-9.23367 -9.23382
-9.23367 -9.23382
-9.22025 -9.22105
-9.21268 -9.21113
-9.21467 -9.21407
-9.21733 -9.21748
-9.21655 -9.21645
-9.21938 -9.21968
-9.21817 -9.21833
-9.21588 -9.21565
-9.21994 -9.22046
-9.21974 -9.22017
-9.21299 -9.21154
-9.2198 -9.2203
-9.21923 -9.21951
-9.21894 -9.21932
-9.21836 -9.21852
-9.21925 -9.21954
-9.21588 -9.2157
-9.21483 -9.21429
-9.21873 -9.21899
-9.21314 -9.21182
-9.22002 -9.22062
-9.21251 -9.2109
-9.22961 -9.22927
-9.22977 -9.22928
-9.22972 -9.2293
-9.2296 -9.22926
-9.22968 -9.22958
-9.22952 -9.2292
-9.22921 -9.22946
-9.22982 -9.2294
-9.2291 -9.22919
-9.22958 -9.22928
-9.22888 -9.22906
-9.22953 -9.22912
-9.2298 -9.22949
-9.22973 -9.2293
-9.22942 -9.22926
-9.2286 -9.22966
-9.22872 -9.22945
-9.22704 -9.2269
-9.22787 -9.22812
-9.22787 -9.22811
-9.22654 -9.22623
-9.22415 -9.2233
-9.22663 -9.22638
-9.22636 -9.2261
-9.2278 -9.22749
-9.22756 -9.22726
-9.22761 -9.22744
-9.22652 -9.22627
-9.22777 -9.22771
-9.22416 -9.22332
-9.22789 -9.22813
-9.22787 -9.22811
-9.22736 -9.22711
-9.22768 -9.22768
-9.22689 -9.22673
-9.22761 -9.22743
-9.22757 -9.22731
-9.22644 -9.22614
-9.22729 -9.22725
-9.22416 -9.22331
-9.22505 -9.22453
-9.22732 -9.227
-9.22771 -9.22745
-9.2278 -9.22798
-9.2277 -9.22781
-9.22848 -9.22906
-9.22986 -9.22987
-9.23118 -9.23084
-9.22963 -9.22972
-9.23089 -9.23067
-9.23044 -9.2303
-9.23019 -9.2301
-9.23045 -9.23032
-9.23171 -9.23133
-9.22892 -9.22926
-9.22812 -9.22886
-9.23097 -9.23068
-9.23158 -9.23152
-9.23118 -9.23083
-9.23171 -9.23133
-9.23044 -9.23031
-9.22963 -9.22972
-9.23119 -9.23084
-9.22963 -9.22972
-9.23145 -9.23147
-9.22799 -9.22878
-9.16854 -9.16796
-9.11151 -9.11158
-9.04064 -9.04036
-9.11436 -9.11378
-9.00193 -9.00136
-9.06031 -9.05997
-9.08696 -9.08764
-9.16887 -9.16844
-9.13268 -9.13198
-9.21871 -9.21897
-9.22776 -9.2277
-9.02078 -9.02079
-9.21707 -9.21716
-9.23114 -9.23174
-9.23117 -9.23167
-9.22003 -9.22063
-9.2171 -9.21711
-9.22474 -9.22412
-9.22783 -9.22805
-9.22707 -9.22693
-9.22881 -9.22971
-9.2237 -9.22267
-9.23367 -9.23388
-9.23367 -9.23388
-9.23367 -9.23385
-9.23268 -9.23451
-9.23367 -9.23382
-9.23367 -9.23382
-9.23367 -9.23388
-9.21315 -9.21182
-9.21965 -9.22001
-9.21652 -9.21643
-9.21799 -9.21828
-9.22003 -9.22063
-9.22014 -9.22081
-9.21923 -9.21951
-9.21952 -9.21983
-9.21919 -9.21959
-9.21478 -9.21424
-9.21706 -9.21715
-9.22008 -9.22064
-9.22002 -9.22062
-9.22013 -9.22081
-9.21298 -9.21154
-9.21979 -9.22036
-9.22857 -9.22884
-9.22971 -9.22959
-9.2288 -9.22891
-9.22876 -9.22901
-9.22986 -9.22933
-9.22967 -9.22926
-9.22877 -9.22901
-9.22876 -9.22901
-9.22952 -9.22926
-9.22848 -9.22975
-9.22982 -9.2294
-9.229 -9.229
-9.22948 -9.22927
-9.2298 -9.22936
-9.2296 -9.22927
-9.22978 -9.22929
-9.22879 -9.2289
-9.22898 -9.22972
-9.22971 -9.22931
-9.22786 -9.22804
-9.22783 -9.22805
-9.22687 -9.22671
-9.22771 -9.2274
-9.22758 -9.22731
-9.22617 -9.22586
-9.22771 -9.22745
-9.22592 -9.22553
-9.22771 -9.22745
-9.22697 -9.22675
-9.22781 -9.22758
-9.22789 -9.22813
-9.23122 -9.23162
-9.23152 -9.23134
-9.23142 -9.23124
-9.2313 -9.23159
-9.23142 -9.23124
-9.231 -9.23071
-9.23131 -9.23152
-9.23117 -9.23167
-9.22811 -9.22885
-9.23143 -9.23125
-9.23054 -9.23036
-9.23123 -9.23109
-9.22939 -9.22954
-9.22892 -9.22926
-9.23058 -9.23034
-9.23178 -9.23141
-9.00474 -9.00474
-9.00145 -9.00172
-9.17151 -9.17146
-9.12531 -9.12402
-9.14953 -9.14916
-9.13154 -9.13324
-9.11783 -9.11768
-8.96706 -8.96712
-9.2296 -9.22926
-9.22769 -9.22781
-9.22706 -9.22692
-9.22964 -9.22973
-9.17574 -9.17608
-9.21771 -9.21778
-9.22342 -9.22229
-9.23178 -9.23141
-9.21627 -9.21611
-8.60381 -8.60869
-9.0603 -9.05984
-8.43518 -8.43121
-8.82648 -8.82473
-8.83178 -8.83809
-8.71181 -8.71034
-8.87498 -8.87132
-9.16187 -9.16204
-8.48872 -8.48789
-8.97452 -8.97233
-9.02047 -9.01934
-8.9571 -8.95361
-9.03169 -9.03179
-8.9624 -8.96264
-8.62635 -8.62905
-8.94903 -8.94804
-9.07179 -9.07373
-9.02224 -9.02199
-9.2319 -9.23279
-9.08203 -9.0844
-9.20195 -9.19962
-8.75973 -8.76019
-8.81702 -8.81083
-9.20409 -9.2039
-9.16351 -9.16367
-8.94415 -8.93585
-8.81886 -8.82014
-8.97072 -8.9705
-8.96012 -8.9614
-8.81071 -8.80978
-8.88023 -8.87884
-9.06903 -9.06422
-8.8024 -8.80164
-8.82469 -8.8259
-8.70792 -8.70844
-9.18322 -9.18137
-8.88976 -8.88931
-8.97765 -8.98117
-8.90323 -8.89952
-8.97509 -8.97523
-8.76527 -8.76488
-9.08555 -9.08571
-9.13846 -9.13973
-8.94633 -8.9483
-9.16576 -9.16534
-9.1017 -9.10157
-8.97529 -8.97457
-8.91513 -8.91453
-9.18753 -9.18706
-9.07928 -9.07898
-9.01208 -9.00873
-9.05144 -9.05204
-9.13321 -9.13308
-8.8999 -8.90009
-9.02917 -9.02913
-8.98549 -8.98585
-8.96469 -8.96431
-9.23491 -9.23383
-9.22329 -9.22202
-9.01222 -9.01507
-9.07518 -9.07587
-9.17816 -9.17765
-9.12345 -9.12328
-8.89018 -8.8902
-9.09976 -9.10079
-9.04234 -9.04218
-9.01646 -9.017
-8.90781 -8.90717
-9.06106 -9.06101
-9.1027 -9.10298
-9.10791 -9.11037
-9.23367 -9.23386
-9.01506 -9.0158
-8.84054 -8.84092
-9.1066 -9.10638
-8.81508 -8.81593
-8.79488 -8.79501
-9.01172 -9.01054
-9.11781 -9.11744
-9.22991 -9.22936
-9.03334 -9.03342
-9.13258 -9.13256
-9.05972 -9.05892
-8.91304 -8.91244
-8.98829 -8.98827
-9.17686 -9.17621
-9.23323 -9.23441
-9.23367 -9.23421
-9.23367 -9.23388
-9.23367 -9.23384
-9.23367 -9.23381
-9.21995 -9.22047
-9.21664 -9.2166
-9.21414 -9.21331
-9.2175 -9.21765
-9.21871 -9.21897
-9.21519 -9.21476
-9.21811 -9.21835
-9.21922 -9.21961
-9.21636 -9.21627
-9.21482 -9.21427
-9.21177 -9.2098
-9.21902 -9.21934
-9.21977 -9.22021
-9.21589 -9.21565
-9.21328 -9.21207
-9.21313 -9.2118
-9.21977 -9.22019
-9.21234 -9.2106
-9.22005 -9.22068
-9.22859 -9.22964
-9.22982 -9.2294
-9.2298 -9.22927
-9.22979 -9.22927
-9.22982 -9.22926
-9.22975 -9.22926
-9.22943 -9.22959
-9.2294 -9.22924
-9.22976 -9.22928
-9.2296 -9.22926
-9.2295 -9.22918
-9.22934 -9.2292
-9.22951 -9.22955
-9.22985 -9.22933
-9.22895 -9.22891
-9.22971 -9.22959
-9.22877 -9.22901
-9.22949 -9.22928
-9.22952 -9.22961
-9.22942 -9.22917
-9.22389 -9.22296
-9.2237 -9.22267
-9.22681 -9.22656
-9.22706 -9.22693
-9.22651 -9.22627
-9.22539 -9.22495
-9.22781 -9.22758
-9.22744 -9.22743
-9.2275 -9.22743
-9.2238 -9.22285
-9.22774 -9.22762
-9.22351 -9.22243
-9.22777 -9.22771
-9.22735 -9.2271
-9.22776 -9.2277
-9.22456 -9.22385
-9.22772 -9.22741
-9.22772 -9.22741
-9.22678 -9.22647
-9.22608 -9.22574
-9.2248 -9.22421
-9.22458 -9.22388
-9.22744 -9.22726
-9.2272 -9.22702
-9.22781 -9.22796
-9.2277 -9.22739
-9.23171 -9.23133
-9.23104 -9.2308
-9.23088 -9.23066
-9.23077 -9.23055
-9.23063 -9.23042
-9.23151 -9.23112
-9.22891 -9.22925
-9.23076 -9.23053
-9.23158 -9.23127
-9.22901 -9.22935
-9.23143 -9.23125
-9.23149 -9.23119
-9.23088 -9.23067
-9.22892 -9.22926
-9.23117 -9.23083
-9.231 -9.23071
-9.2292 -9.22946
-9.22786 -9.22873
-9.18247 -9.18237
-9.11992 -9.11986
-9.09759 -9.09621
-9.22952 -9.22962
-9.01472 -9.01475
-9.23128 -9.23148
-9.21974 -9.22017
-9.23114 -9.23099
-8.97261 -8.97217
-9.23174 -9.23141
-9.21527 -9.21488
-9.22781 -9.22751
-9.22749 -9.22742
-9.22966 -9.22926
-9.23367 -9.2339
-9.23367 -9.23387
-9.23367 -9.23421
-9.23029 -9.22971
-9.23367 -9.23406
-9.23367 -9.23384
-9.23367 -9.23384
-9.23367 -9.23385
-9.21627 -9.21611
-9.21494 -9.21444
-9.21428 -9.21354
-9.22023 -9.22096
-9.21924 -9.21952
-9.2136 -9.21251
-9.21529 -9.2149
-9.21624 -9.21609
-9.21965 -9.22003
-9.21769 -9.21777
-9.21769 -9.21777
-9.21902 -9.21933
-9.22003 -9.22063
-9.22007 -9.22064
-9.2125 -9.21087
-9.21466 -9.21406
-9.21412 -9.21329
-9.21415 -9.21332
-9.21315 -9.21183
-9.21358 -9.2125
-9.21666 -9.21662
-9.21899 -9.21931
-9.22969 -9.22959
-9.22952 -9.22928
-9.22876 -9.22901
-9.2296 -9.22926
-9.22952 -9.22912
-9.22898 -9.22936
-9.22958 -9.22908
-9.22961 -9.22927
-9.22977 -9.22939
-9.22961 -9.22925
-9.22979 -9.22927
-9.22952 -9.22922
-9.22897 -9.22972
-9.2288 -9.22891
-9.22952 -9.22928
-9.2298 -9.22936
-9.2296 -9.22927
-9.22959 -9.22951
-9.22972 -9.2293
-9.22968 -9.22925
-9.22947 -9.2295
-9.22979 -9.22927
-9.2297 -9.22928
-9.22898 -9.22935
-9.22886 -9.2289
-9.22972 -9.22926
-9.22978 -9.22926
-9.22632 -9.22607
-9.22519 -9.2247
-9.22785 -9.22789
-9.22415 -9.2233
-9.22736 -9.22711
-9.22776 -9.2277
-9.22707 -9.22678
-9.22617 -9.22585
-9.22719 -9.22701
-9.2268 -9.22655
-9.22676 -9.22645
-9.22389 -9.22297
-9.23174 -9.23141
-9.23131 -9.23125
-9.23129 -9.23135
-9.23119 -9.23091
-9.23074 -9.23049
-9.23136 -9.23099
-9.22837 -9.22895
-9.23146 -9.23148
-9.23076 -9.23054
-9.23136 -9.231
-9.23104 -9.2308
-9.23136 -9.231
-9.22999 -9.22996
-9.23119 -9.23169
-9.14438 -9.14435
-9.00227 -9.0021
-9.10982 -9.11012
-9.1 -9.10011
-9.15858 -9.15917
-9.15013 -9.14981
-9.15725 -9.15702
-9.17237 -9.17224
-9.2002 -9.1996
-9.22947 -9.22949
-9.2296 -9.22926
-9.22937 -9.22923
-9.22407 -9.22314
-9.2296 -9.22933
-9.22519 -9.2247
-9.23174 -9.23141
-9.2313 -9.23125
-9.23143 -9.23125
-9.23399 -9.23425
-8.59851 -8.60012
-8.40172 -8.40289
-8.89524 -8.89556
-8.29221 -8.29005
-8.61704 -8.6116
-8.82707 -8.82854
-9.04128 -9.04523
-8.8057 -8.79968
-9.10934 -9.11038
-8.78579 -8.78573
-8.95429 -8.96461
-8.91698 -8.91876
-9.01407 -9.00891
-8.93215 -8.92985
-8.63225 -8.63098
-8.79702 -8.79777
-8.76641 -8.76793
-8.82514 -8.82833
-8.46791 -8.46611
-8.98368 -8.97917
-8.99188 -8.99348
-8.76938 -8.77348
-8.99972 -9.00068
-8.85908 -8.8595
-8.83041 -8.82982
-8.83527 -8.83584
-9.04085 -9.04124
-8.96634 -8.9691
-8.96126 -8.96179
-9.02377 -9.02419
-8.92239 -8.92268
-8.91266 -8.91251
-9.17319 -9.17267
-9.18154 -9.18113
-9.1044 -9.10622
-9.03901 -9.0401
-8.91386 -8.91185
-9.10357 -9.10395
-8.98381 -8.98339
-9.11057 -9.11035
-9.16548 -9.1657
-8.9386 -8.93914
-9.20637 -9.20622
-8.83014 -8.82981
-9.09533 -9.09529
-8.86314 -8.86228
-9.23367 -9.23394
-9.14278 -9.14257
-9.10409 -9.10427
-9.01554 -9.01516
-9.06057 -9.06032
-8.76155 -8.76252
-8.8973 -8.89766
-8.91674 -8.91663
-9.03543 -9.03955
-9.07475 -9.07459
-9.04653 -9.04624
-9.1595 -9.15936
-8.98731 -8.98673
-9.05013 -9.05007
-9.07201 -9.07217
-9.22719 -9.22701
-8.98719 -8.9868
-8.9698 -8.96994
-9.14281 -9.14268
-9.0018 -9.002
-9.12025 -9.11995
-9.15912 -9.1599
-8.91004 -8.9102
-9.06902 -9.06874
-8.98081 -8.98087
-9.0513 -9.05109
-9.12196 -9.12194
-9.133 -9.13276
-9.01845 -9.01796
-8.96086 -8.96055
-8.91007 -8.91022
-9.04505 -9.04534
-9.02644 -9.02657
-9.06431 -9.06355
-9.119 -9.11882
-9.06872 -9.06855
-9.22789 -9.22813
-9.23367 -9.23402
-9.23367 -9.23382
-9.21339 -9.2133
-9.23367 -9.23397
-9.23367 -9.23394
-9.23367 -9.23387
-9.23367 -9.23382
-9.23367 -9.23382
-9.21155 -9.20953
-9.21902 -9.21934
-9.21851 -9.2188
-9.21665 -9.21661
-9.21835 -9.21869
-9.21925 -9.21954
-9.21589 -9.21572
-9.21747 -9.21763
-9.21771 -9.21779
-9.21663 -9.21659
-9.21975 -9.22018
-9.21427 -9.21353
-9.21979 -9.22036
-9.21891 -9.21933
-9.21251 -9.21089
-9.21494 -9.21444
-9.21852 -9.21881
-9.21769 -9.21777
-9.21963 -9.22009
-9.21749 -9.21763
-9.21926 -9.21961
-9.21587 -9.21564
-9.21713 -9.21714
-9.21975 -9.22018
-9.21891 -9.21932
-9.22942 -9.22917
-9.22939 -9.22924
-9.22939 -9.22925
-9.22978 -9.22929
-9.22986 -9.22933
-9.22972 -9.22926
-9.22948 -9.22928
-9.22914 -9.22961
-9.22944 -9.22931
-9.22876 -9.22901
-9.22962 -9.22936
-9.2292 -9.22946
-9.22973 -9.22929
-9.22972 -9.22926
-9.22962 -9.22927
-9.22975 -9.22925
-9.2294 -9.22924
-9.22982 -9.22941
-9.22638 -9.22611
-9.22787 -9.22812
-9.22676 -9.22645
-9.2278 -9.22796
-9.22744 -9.22726
-9.2278 -9.22796
-9.22593 -9.22553
-9.22783 -9.22754
-9.22415 -9.2233
-9.22614 -9.22583
-9.22783 -9.22764
-9.2268 -9.22654
-9.2278 -9.22795
-9.22783 -9.22756
-9.23145 -9.23148
-9.23144 -9.23147
-9.23122 -9.23098
-9.23077 -9.23054
-9.23174 -9.23141
-9.2315 -9.2312
-9.23137 -9.23146
-9.23157 -9.23151
-9.23171 -9.23133
-9.23018 -9.23009
-9.23118 -9.23083
-9.23055 -9.23037
-9.23167 -9.23136
-8.98942 -8.98842
-9.00851 -9.00829
-9.19384 -9.19421
-9.02297 -9.02266
-9.0626 -9.06281
-9.06568 -9.06488
-9.04335 -9.04304
-8.96219 -8.96233
-9.04571 -9.04554
-8.92909 -8.92853
-8.90478 -8.9046
-9.11153 -9.11159
-9.21662 -9.21658
-9.22781 -9.22796
-9.22676 -9.22645
-9.22533 -9.22485
-9.21777 -9.21791
-9.23367 -9.23388
-9.22786 -9.22776
-9.23367 -9.23384
-9.23367 -9.23389
-9.23367 -9.23382
-9.23367 -9.23388
-9.22025 -9.22105
-9.23367 -9.23387
-9.23367 -9.23385
-9.23367 -9.23382
-9.23423 -9.2344
-9.23367 -9.23387
-9.22005 -9.22068
-9.21314 -9.21182
-9.21912 -9.21941
-9.21428 -9.21353
-9.21976 -9.22019
-9.2173 -9.21736
-9.21469 -9.2141
-9.22004 -9.22063
-9.21494 -9.21445
-9.21315 -9.21181
-9.21975 -9.22017
-9.2177 -9.21778
-9.21978 -9.22035
-9.22025 -9.22105
-9.22872 -9.22945
-9.22886 -9.22891
-9.22876 -9.22901
-9.22928 -9.22925
-9.22971 -9.22926
-9.2296 -9.22927
-9.2298 -9.22936
-9.22976 -9.22938
-9.22964 -9.22914
-9.22911 -9.22919
-9.22889 -9.22894
-9.22973 -9.22925
-9.2298 -9.22936
-9.22948 -9.22968
-9.22878 -9.22889
-9.22593 -9.22553
-9.22788 -9.2282
-9.22768 -9.22767
-9.2251 -9.22459
-9.2276 -9.22742
-9.22639 -9.22613
-9.22481 -9.22422
-9.22769 -9.22781
-9.22788 -9.2282
-9.22342 -9.22228
-9.22441 -9.22368
-9.22784 -9.22756
-9.22538 -9.22494
-9.22512 -9.22461
-9.2278 -9.22795
-9.22783 -9.22753
-9.22785 -9.22774
-9.22789 -9.22813
-9.23084 -9.23066
-9.23141 -9.23158
-9.23163 -9.23126
-9.23018 -9.2301
-9.23129 -9.23135
-9.23122 -9.23109
-9.23157 -9.23151
-9.23144 -9.23147
-9.23119 -9.23169
-9.23125 -9.23154
-9.23149 -9.23119
-9.23152 -9.23133
-9.23172 -9.23133
-9.23118 -9.23083
-9.23126 -9.23161
-9.23123 -9.23109
-9.23118 -9.23169
-9.06863 -9.06994
-9.14377 -9.14313
-9.14434 -9.14467
-9.08369 -9.08365
-9.06939 -9.06941
-9.04687 -9.04718
-9.10568 -9.10566
-9.05695 -9.05729
-9.22678 -9.22646
-9.21269 -9.21113
-9.22571 -9.22536
-9.03996 -9.04007
-9.22952 -9.22922
-9.22799 -9.22878
-9.21532 -9.21493
-9.21974 -9.22018
-9.23364 -9.23436
-9.16276 -9.16192
-9.13579 -9.13556
-9.22735 -9.22726
-9.21705 -9.21714
-9.22782 -9.22763
-9.23128 -9.23148
-9.23367 -9.23388
-9.0489 -9.04929
-9.0264 -9.02519
-9.05328 -9.05242
-9.14289 -9.14311
-9.15157 -9.15191
-9.02249 -9.02299
-9.19804 -9.19828
-9.19786 -9.19818
-9.19288 -9.19361
-9.19111 -9.19118
-9.19138 -9.19186
-9.1923 -9.1925
-9.18959 -9.1902
-9.18265 -9.18324
-9.19172 -9.19169
-9.18722 -9.18708
-9.16082 -9.16112
-9.17127 -9.171
-9.16441 -9.16466
-9.16356 -9.1633
-9.15919 -9.15892
-9.16602 -9.16605
-9.11071 -9.11078
-9.11368 -9.1139
-9.13205 -9.13286
-9.10717 -9.10736
-9.12391 -9.12379
-9.11537 -9.11605
-9.11244 -9.11236
-9.12225 -9.12276
-9.08494 -9.08542
-9.06475 -9.06469
-9.07388 -9.07404
-9.0699 -9.06993
-9.099 -9.09965
-9.09712 -9.09757
-9.07965 -9.0798
-9.09075 -9.08968
-9.05336 -9.0536
-9.07436 -9.07548
-9.01772 -9.01936
-9.03731 -9.03773
-9.04474 -9.04377
-9.05035 -9.04994
-9.05317 -9.05345
-9.1627 -9.1632
-9.11861 -9.11877
-9.10809 -9.10841
-9.12387 -9.12459
-9.13554 -9.13615
-9.19435 -9.19477
-9.08701 -9.08673
-9.10977 -9.111
-9.04946 -9.0511
-9.12313 -9.12308
-9.19337 -9.19393
-9.19238 -9.19275
-9.19182 -9.1923
-9.19148 -9.19179
-9.19531 -9.19561
-9.19454 -9.19475
-9.19256 -9.19307
-9.19038 -9.19111
-9.18914 -9.18951
-9.159 -9.15948
-9.16281 -9.16308
-9.15721 -9.15718
-9.14247 -9.143
-9.1565 -9.15736
-9.15488 -9.15511
-9.15491 -9.15469
-9.15518 -9.15524
-9.16549 -9.16586
-9.10908 -9.10957
-9.11937 -9.11915
-9.11259 -9.11356
-9.11629 -9.11731
-9.12842 -9.1294
-9.10715 -9.1085
-9.11629 -9.11709
-9.05844 -9.05896
-9.10674 -9.10606
-9.07797 -9.07852
-9.09955 -9.09986
-9.08084 -9.08125
-9.08797 -9.08855
-9.04154 -9.04175
-9.04215 -9.04162
-9.05788 -9.05799
-9.06767 -9.06657
-9.04382 -9.04307
-9.07302 -9.07247
-9.07002 -9.07013
-9.06852 -9.06875
-9.06281 -9.06456
-9.18382 -9.18485
-9.15393 -9.15443
-9.1908 -9.19151
-9.14346 -9.14408
-9.03873 -9.03994
-9.18314 -9.18335
-9.05105 -9.05156
-9.10827 -9.10833
-9.1528 -9.15306
-9.18559 -9.18625
-9.19066 -9.19113
-9.18922 -9.18905
-9.18785 -9.18773
-9.18232 -9.18289
-9.14597 -9.14693
-9.14451 -9.14503
-9.15064 -9.15078
-9.16201 -9.16272
-9.15787 -9.15784
-9.11747 -9.11756
-9.09575 -9.09513
-9.11886 -9.11838
-9.11458 -9.11441
-9.1328 -9.13297
-9.11418 -9.1148
-9.13987 -9.14023
-9.14104 -9.14102
-9.07901 -9.07884
-9.08517 -9.08541
-9.08198 -9.08158
-9.04031 -9.03915
-9.02567 -9.02677
-9.05597 -9.05681
-9.1685 -9.16788
-9.05813 -9.05908
-9.11053 -9.11062
-9.09209 -9.09221
-9.19444 -9.19484
-9.0933 -9.09394
-9.04545 -9.0451
-9.19293 -9.19354
-9.18653 -9.18718
-9.18464 -9.18503
-9.18545 -9.18585
-9.19227 -9.19252
-9.19232 -9.19267
-9.19337 -9.19381
-9.18581 -9.18643
-9.19197 -9.19252
-9.19034 -9.1903
-9.16124 -9.16184
-9.15588 -9.15681
-9.16156 -9.16175
-9.16457 -9.16519
-9.15263 -9.15272
-9.16184 -9.16195
-9.15441 -9.15422
-9.16562 -9.16505
-9.15708 -9.15675
-9.16864 -9.1695
-9.15308 -9.15325
-9.15487 -9.15501
-9.15922 -9.15919
-9.14514 -9.14534
-9.16217 -9.16268
-9.12084 -9.12101
-9.10795 -9.1082
-9.11699 -9.11727
-9.12884 -9.12899
-9.10071 -9.10079
-9.12438 -9.12466
-9.11964 -9.12001
-9.12951 -9.12926
-9.0949 -9.09493
-9.06961 -9.0707
-9.07796 -9.07863
-9.09239 -9.09374
-9.10311 -9.10276
-9.07061 -9.07267
-9.11033 -9.11127
-9.10445 -9.10507
-9.07584 -9.07675
-9.0286 -9.02826
-9.05233 -9.05222
-9.07403 -9.07479
-9.05476 -9.0555
-9.06846 -9.068
-9.07047 -9.07217
-9.13798 -9.13872
-9.06746 -9.06796
-8.99416 -8.99573
-9.12007 -9.12055
-9.09258 -9.09246
-9.19292 -9.19347
-9.08562 -9.08584
-9.15513 -9.15511
-9.04807 -9.04807
-9.07394 -9.07303
-9.11508 -9.11538
-9.07388 -9.07469
-9.06707 -9.06772
-9.08238 -9.08303
-9.19361 -9.19353
-9.19233 -9.19217
-9.18647 -9.18695
-9.19198 -9.19271
-9.18896 -9.18941
-9.1889 -9.18918
-9.19049 -9.19041
-9.18626 -9.18641
-9.1559 -9.15616
-9.14797 -9.14821
-9.15764 -9.15782
-9.15316 -9.15367
-9.15669 -9.15707
-9.15303 -9.15274
-9.16615 -9.1661
-9.15514 -9.15528
-9.11033 -9.1102
-9.11004 -9.11058
-9.10831 -9.10815
-9.11062 -9.11147
-9.09698 -9.09805
-9.11874 -9.11961
-9.1147 -9.11526
-9.09521 -9.0954
-9.10273 -9.10255
-9.08014 -9.08134
-9.09972 -9.09966
-9.10178 -9.10189
-9.05424 -9.05507
-9.11419 -9.11406
-9.09074 -9.09072
-9.0924 -9.09227
-9.07731 -9.07677
-9.04756 -9.0476
-9.04502 -9.0447
-9.07244 -9.07216
-9.02711 -9.02728
-9.06596 -9.06569
-9.06568 -9.06721
-9.06306 -9.0632
-9.19591 -9.19629
-9.13751 -9.13746
-9.19116 -9.19144
-9.12273 -9.1229
-9.04098 -9.04107
-9.0413 -9.04169
-9.0641 -9.06446
-9.05362 -9.05458
-9.16006 -9.15984
-9.19419 -9.19467
-9.19189 -9.19207
-9.18723 -9.1872
-9.18804 -9.18861
-9.18927 -9.18988
-9.19161 -9.19193
-9.18771 -9.1882
-9.18719 -9.18764
-9.15048 -9.15058
-9.1562 -9.15644
-9.15361 -9.15342
-9.15568 -9.15508
-9.15649 -9.15692
-9.11094 -9.11148
-9.12178 -9.12182
-9.12411 -9.12414
-9.12274 -9.12194
-9.10458 -9.10438
-9.12622 -9.12692
-9.12872 -9.12836
-9.1121 -9.11284
-9.14136 -9.14184
-9.06791 -9.06816
-9.08048 -9.07992
-9.08081 -9.08002
-9.07603 -9.07531
-9.11143 -9.11149
-9.0829 -9.08338
-9.07772 -9.07771
-9.10625 -9.10694
-9.08857 -9.08836
-9.08064 -9.0807
-9.07556 -9.07658
-9.11888 -9.11931
-9.04996 -9.04911
-9.04835 -9.0494
-9.04863 -9.04846
-9.07274 -9.07442
-9.03715 -9.03679
-9.0851 -9.08571
-9.11695 -9.11684
-9.0577 -9.05834
-9.19169 -9.19213
-9.07885 -9.07968
-9.08388 -9.0824
-9.02307 -9.02191
-9.04364 -9.04349
-9.15606 -9.15609
-9.08248 -9.08298
-9.18404 -9.18473
-9.19048 -9.19094
-9.18491 -9.18507
-9.19053 -9.19088
-9.19507 -9.19466
-9.19107 -9.19094
-9.19249 -9.19256
-9.18995 -9.19056
-9.19292 -9.19292
-9.18867 -9.18912
-9.18438 -9.18466
-9.15271 -9.15297
-9.16582 -9.16588
-9.1429 -9.14286
-9.15308 -9.15288
-9.16221 -9.1624
-9.16009 -9.1598
-9.16772 -9.16807
-9.12575 -9.12554
-9.10941 -9.11023
-9.1116 -9.11174
-9.1308 -9.13077
-9.15379 -9.15407
-9.10486 -9.10577
-9.09071 -9.09203
-9.07946 -9.08057
-9.05942 -9.06004
-9.0916 -9.09184
-9.04509 -9.04532
-9.05857 -9.05909
-9.04154 -9.04075
-9.04765 -9.04757
-9.05355 -9.05491
-9.04792 -9.04649
-9.04387 -9.04309
-9.05713 -9.05656
-9.07462 -9.07481
-9.00909 -9.00958
-9.16286 -9.16291
-9.14084 -9.1415
-9.04862 -9.04937
-9.18841 -9.18882
-9.00656 -9.00542
-9.19626 -9.19656
-9.19884 -9.19915
-9.1858 -9.18573
-9.18994 -9.18998
-9.19456 -9.19438
-9.19532 -9.1955
-9.18839 -9.18867
-9.19361 -9.19369
-9.18298 -9.18355
-9.19511 -9.19544
-9.19145 -9.1918
-9.16438 -9.16474
-9.16833 -9.16864
-9.16739 -9.16804
-9.13939 -9.14
-9.15562 -9.15597
-9.15367 -9.15397
-9.15956 -9.16003
-9.13485 -9.13534
-9.10973 -9.10967
-9.13756 -9.13692
-9.11659 -9.1164
-9.12364 -9.12484
-9.098 -9.09862
-9.12788 -9.12815
-9.11018 -9.11081
-9.14279 -9.1434
-9.13363 -9.13351
-9.11703 -9.1168
-9.08887 -9.08869
-9.08505 -9.08511
-9.06909 -9.06976
-9.08556 -9.08533
-9.10186 -9.10427
-9.10811 -9.10907
-9.06689 -9.06642
-9.08143 -9.08112
-9.08082 -9.08121
-9.05897 -9.0584
-9.03468 -9.03455
-9.06256 -9.06201
-9.0519 -9.05246
-9.04617 -9.04568
-9.0424 -9.04141
-9.02807 -9.02941
-9.04171 -9.04239
-9.15169 -9.15184
-9.15969 -9.15944
-9.19086 -9.19109
-9.0474 -9.04807
-9.18326 -9.18337
-9.05979 -9.06026
-9.13914 -9.13951
-8.99608 -8.99783
-9.05839 -9.05829
-9.09614 -9.09625
-9.18994 -9.19053
-9.19561 -9.19616
-9.18757 -9.18828
-9.19012 -9.19069
-9.19015 -9.1903
-9.18617 -9.1868
-9.18908 -9.18931
-9.15187 -9.15243
-9.14254 -9.14292
-9.17258 -9.17257
-9.14834 -9.14844
-9.14282 -9.14325
-9.15814 -9.15803
-9.15528 -9.15517
-9.16251 -9.16303
-9.1354 -9.13564
-9.11584 -9.11648
-9.11005 -9.1108
-9.13756 -9.13713
-9.11825 -9.11822
-9.11264 -9.11283
-9.10766 -9.10801
-9.11953 -9.1199
-9.11941 -9.11932
-9.1288 -9.12985
-9.12954 -9.12981
-9.11666 -9.11678
-9.10806 -9.10801
-9.11169 -9.11259
-9.12087 -9.12217
-9.08825 -9.0874
-9.05511 -9.05517
-9.07755 -9.07712
-9.06777 -9.06822
-9.1033 -9.10358
-9.11649 -9.11674
-9.10107 -9.10216
-9.07913 -9.07765
-9.08683 -9.08762
-9.09639 -9.09674
-9.10808 -9.10795
-9.03224 -9.03317
-9.07381 -9.07326
-9.02121 -9.0195
-9.07544 -9.07455
-9.06144 -9.06161
-9.06983 -9.0688
-9.02592 -9.02656
-9.05926 -9.05935
-9.03743 -9.0371
-9.05683 -9.05793
-9.03008 -9.03054
-9.08577 -9.08496
-9.18855 -9.18869
-9.15849 -9.15865
-9.08478 -9.08514
-9.15602 -9.15712
-9.03687 -9.03677
-9.15825 -9.15872
-9.0344 -9.03399
-9.04337 -9.04432
-9.01819 -9.01688
-9.05116 -9.05252
-9.04411 -9.04204
-9.12532 -9.12534
-9.11966 -9.12025
-9.08779 -9.08799
-9.18763 -9.18813
-9.18589 -9.18631
-9.1923 -9.19271
-9.19055 -9.19073
-9.18861 -9.18876
-9.19376 -9.19444
-9.18315 -9.18364
-9.19525 -9.19544
-9.14547 -9.14545
-9.15148 -9.15164
-9.16548 -9.16542
-9.15166 -9.15138
-9.15445 -9.15494
-9.16304 -9.16371
-9.16214 -9.16292
-9.15451 -9.15446
-9.1547 -9.15446
-9.14677 -9.1463
-9.16109 -9.16154
-9.11801 -9.11754
-9.14396 -9.14399
-9.13932 -9.13933
-9.10357 -9.10276
-9.11957 -9.11982
-9.12872 -9.12973
-9.10636 -9.10664
-9.12692 -9.12712
-9.13182 -9.13225
-9.07796 -9.07875
-9.09785 -9.09705
-9.06319 -9.06432
-9.08573 -9.08581
-9.0924 -9.09227
-9.09502 -9.09538
-9.07427 -9.07407
-9.06067 -9.05958
-9.02896 -9.03023
-9.06529 -9.06572
-9.04358 -9.04343
-9.06242 -9.06275
-9.06009 -9.06036
