-8.5735 -8.57662
-8.23208 -8.23471
-8.8751 -8.87694
-8.24785 -8.25634
-8.63605 -8.63956
-8.13605 -8.13036
-9.09541 -9.09965
-8.66013 -8.66273
-9.17908 -9.1677
-8.46974 -8.47399
-9.06512 -9.05741
-8.86435 -8.86651
-8.88725 -8.8922
-9.17084 -9.17214
-8.91334 -8.91953
-8.9969 -9.00306
-8.70516 -8.70703
-8.65112 -8.6477
-8.52182 -8.52167
-8.89929 -8.90366
-8.992 -8.98406
-8.82787 -8.8315
-8.82365 -8.83602
-9.17062 -9.16968
-9.05815 -9.06327
-8.63903 -8.64314
-8.94273 -8.94678
-8.69867 -8.70146
-8.85834 -8.86126
-8.76519 -8.77501
-8.37632 -8.38628
-9.00588 -9.00965
-9.08489 -9.08976
-8.95142 -8.95519
-8.99406 -8.99373
-9.1545 -9.15841
-8.77736 -8.78002
-8.79562 -8.79999
-9.13837 -9.14261
-9.01869 -9.02322
-9.06099 -9.06306
-9.156 -9.15958
-9.1427 -9.14732
-9.02326 -9.02117
-8.9538 -8.95753
-8.98836 -8.99249
-8.85382 -8.85631
-9.00054 -9.00491
-9.14887 -9.1523
-8.99998 -9.00083
-8.7724 -8.77857
-9.09231 -9.09645
-8.99329 -8.99757
-9.02504 -9.0287
-9.02163 -9.02465
-9.05866 -9.05911
-9.09864 -9.10267
-9.10113 -9.0969
-9.11266 -9.1182
-9.10685 -9.10539
-8.98054 -8.98267
-9.14906 -9.15308
-9.11094 -9.11574
-9.01151 -9.01516
-9.12362 -9.12588
-9.174 -9.17064
-9.0909 -9.09551
-8.93679 -8.94014
-9.15377 -9.15739
-9.135 -9.13851
-9.00986 -9.01398
-9.20742 -9.21166
-9.08593 -9.09045
-8.97857 -8.98294
-9.06242 -9.06615
-9.17119 -9.17483
-9.04781 -9.05137
-9.05256 -9.05797
-8.77182 -8.77493
-9.0078 -9.01153
-9.0464 -9.05061
-9.10857 -9.11182
-8.98071 -8.98468
-9.08919 -9.093
-9.1184 -9.12214
-8.96688 -8.97068
-8.90092 -8.90398
-9.2299 -9.23389
-9.2299 -9.23386
-9.2299 -9.23389
-9.2299 -9.23382
-9.2299 -9.23381
-9.2299 -9.23449
-9.2299 -9.23411
-9.2299 -9.23388
-9.2299 -9.23371
-9.22423 -9.22064
-9.21996 -9.21089
-9.21983 -9.21334
-9.22294 -9.21963
-9.22268 -9.21931
-9.22339 -9.22006
-9.21985 -9.21185
-9.22068 -9.21715
-9.22055 -9.21662
-9.21996 -9.2109
-9.21985 -9.21183
-9.22068 -9.21611
-9.22458 -9.2208
-9.22065 -9.21627
-9.22382 -9.22034
-9.22422 -9.22064
-9.22275 -9.21952
-9.22292 -9.2197
-9.222 -9.21898
-9.22169 -9.21848
-9.22 -9.21493
-9.22001 -9.2149
-9.22395 -9.22032
-9.2299 -9.22925
-9.22989 -9.22924
-9.2299 -9.22967
-9.2299 -9.22946
-9.2299 -9.22927
-9.2299 -9.22928
-9.22964 -9.22901
-9.2299 -9.22941
-9.22981 -9.22891
-9.2299 -9.22931
-9.2299 -9.22973
-9.2299 -9.22969
-9.2299 -9.2294
-9.22978 -9.22891
-9.2299 -9.22928
-9.2299 -9.22928
-9.2299 -9.22913
-9.22989 -9.22924
-9.2299 -9.22926
-9.22969 -9.22897
-9.22919 -9.22813
-9.22952 -9.22774
-9.22945 -9.22771
-9.22983 -9.22702
-9.22974 -9.22536
-9.22924 -9.22387
-9.22948 -9.22742
-9.22983 -9.22583
-9.2297 -9.22674
-9.22939 -9.22788
-9.2297 -9.22756
-9.22939 -9.2277
-9.22987 -9.22646
-9.22931 -9.22408
-9.22976 -9.2268
-9.22966 -9.2267
-9.22922 -9.22812
-9.22975 -9.22553
-9.2299 -9.23144
-9.2299 -9.23125
-9.2299 -9.23125
-9.2299 -9.22973
-9.2299 -9.22936
-9.2299 -9.23073
-9.2299 -9.23142
-9.2299 -9.23053
-9.2299 -9.22972
-9.2299 -9.23144
-9.2299 -9.23154
-9.2299 -9.22967
-9.2299 -9.23133
-9.2299 -9.23146
-9.2299 -9.2303
-9.2299 -9.23126
-9.2299 -9.23099
-9.2299 -9.23033
-9.2299 -9.23133
-9.2299 -9.23111
-9.14791 -9.15161
-8.76345 -8.76789
-8.96939 -8.97452
-9.1505 -9.1544
-9.12846 -9.13216
-8.92119 -8.92355
-9.1156 -9.11923
-8.9924 -8.99628
-9.02466 -9.02895
-9.2299 -9.23442
-9.2299 -9.22946
-9.2299 -9.22885
-9.2299 -9.23127
-9.2299 -9.22878
-9.22962 -9.22495
-9.22962 -9.22496
-9.21991 -9.21154
-9.04753 -9.05128
-9.2299 -9.22929
-9.21989 -9.21209
-9.2299 -9.23133
-9.2299 -9.23425
-9.2299 -9.23401
-9.2299 -9.23388
-9.2299 -9.23384
-9.2299 -9.23382
-9.2299 -9.23267
-9.2299 -9.23426
-9.2299 -9.23397
-9.2299 -9.23389
-9.2298 -9.22743
-9.2299 -9.23243
-9.2299 -9.23385
-9.2299 -9.23382
-9.22266 -9.21932
-9.22458 -9.2208
-9.21999 -9.21492
-9.22434 -9.22064
-9.22051 -9.21577
-9.22105 -9.21712
-9.21992 -9.21294
-9.22483 -9.22096
-9.22507 -9.22105
-9.22431 -9.22069
-9.22108 -9.21707
-9.22015 -9.2098
-9.21993 -9.21353
-9.22181 -9.21827
-9.22171 -9.21834
-9.22064 -9.21627
-9.2299 -9.22975
-9.22981 -9.229
-9.2299 -9.22927
-9.2299 -9.22966
-9.2299 -9.22929
-9.2299 -9.22927
-9.2299 -9.22928
-9.22965 -9.22901
-9.2299 -9.22973
-9.2299 -9.22921
-9.2299 -9.22936
-9.2299 -9.22959
-9.2299 -9.22925
-9.22987 -9.22646
-9.22951 -9.22728
-9.2296 -9.22729
-9.22977 -9.22552
-9.22987 -9.22647
-9.22976 -9.22713
-9.22956 -9.22764
-9.22932 -9.22795
-9.22926 -9.22805
-9.22922 -9.22811
-9.22879 -9.22285
-9.22856 -9.22228
-9.22885 -9.22296
-9.22983 -9.22702
-9.22961 -9.22742
-9.2296 -9.22728
-9.2296 -9.22726
-9.22939 -9.22788
-9.22862 -9.22243
-9.22977 -9.22564
-9.22954 -9.22761
-9.2299 -9.22906
-9.2299 -9.22885
-9.2299 -9.22946
-9.2299 -9.23147
-9.2299 -9.23098
-9.2299 -9.23169
-9.2299 -9.23161
-9.2299 -9.23029
-9.2299 -9.22936
-9.2299 -9.23126
-9.2299 -9.23147
-9.2299 -9.23107
-9.2299 -9.23174
-9.2299 -9.23151
-8.95541 -8.95909
-9.15255 -9.15508
-9.17638 -9.18023
-9.06761 -9.07092
-9.17465 -9.17861
-9.03183 -9.03558
-9.2299 -9.23133
-9.22069 -9.21607
-9.22281 -9.2196
-9.21984 -9.21184
-9.2299 -9.23146
-9.21979 -9.21251
-9.2299 -9.23033
-9.22202 -9.21896
-9.2299 -9.22953
-9.2299 -9.22945
-9.22987 -9.22676
-9.22977 -9.22916
-9.22063 -9.21628
-9.2299 -9.22934
-9.22923 -9.22812
-9.2299 -9.22933
-9.22361 -9.22017
-9.2299 -9.23109
-8.55035 -8.55029
-8.8184 -8.82141
-8.96021 -8.94687
-8.80567 -8.80813
-9.08287 -9.08596
-8.96059 -8.96381
-8.81039 -8.81167
-8.59809 -8.59776
-8.95363 -8.96018
-8.9315 -8.93542
-9.08328 -9.08751
-8.89672 -8.90059
-8.7973 -8.79843
-8.92029 -8.91738
-8.96454 -8.97005
-8.98894 -8.99829
-9.07816 -9.08269
-8.7696 -8.77186
-8.99467 -8.97868
-8.6958 -8.68588
-9.09188 -9.09589
-8.8233 -8.82555
-8.91011 -8.90958
-9.03269 -9.03592
-9.09212 -9.09651
-9.05802 -9.06247
-8.94964 -8.92965
-9.21197 -9.21601
-8.78009 -8.78143
-9.2299 -9.23451
-9.08928 -9.09376
-9.10163 -9.103
-9.03208 -9.03621
-9.00291 -9.00664
-9.03811 -9.04146
-9.03189 -9.03541
-8.90967 -8.8943
-8.67526 -8.67912
-9.2299 -9.23166
-9.12551 -9.11339
-9.03599 -9.03864
-9.09172 -9.09532
-8.91088 -8.91505
-8.83519 -8.83943
-9.02909 -9.0335
-9.13976 -9.13692
-8.81975 -8.82368
-9.09834 -9.10295
-9.16985 -9.17245
-8.87932 -8.87264
-9.07908 -9.08308
-8.95907 -8.96209
-9.04968 -9.05367
-8.99481 -8.99589
-8.94627 -8.94502
-9.12004 -9.12423
-8.99937 -9.00341
-8.98171 -8.98505
-9.03067 -9.03481
-8.77997 -8.78486
-8.9897 -8.99333
-9.14678 -9.15131
-9.08306 -9.08777
-9.09539 -9.09943
-8.54625 -8.55036
-9.15427 -9.15796
-9.13657 -9.14009
-8.97731 -8.98103
-9.15137 -9.1603
-8.90952 -8.91366
-9.05726 -9.06081
-9.03963 -9.04276
-9.0143 -9.01768
-8.75877 -8.76277
-8.7557 -8.75885
-8.99079 -8.995
-8.95508 -8.95783
-9.08736 -9.09084
-9.16404 -9.16813
-9.03932 -9.04303
-9.01343 -9.01692
-8.91592 -8.91991
-9.16271 -9.16683
-8.99909 -9.0034
-8.93444 -8.9382
-9.18428 -9.18798
-9.1205 -9.12456
-9.17932 -9.18346
-8.84196 -8.84504
-9.2299 -9.23187
-9.2299 -9.23434
-9.2299 -9.23385
-9.2299 -9.23385
-9.2299 -9.23382
-9.2299 -9.23385
-9.2299 -9.23426
-9.2299 -9.23411
-9.22287 -9.21962
-9.22361 -9.22018
-9.22383 -9.22035
-9.22192 -9.21884
-9.22014 -9.21566
-9.22296 -9.21962
-9.22339 -9.22009
-9.2217 -9.21849
-9.22067 -9.21714
-9.22205 -9.2187
-9.22008 -9.2101
-9.22014 -9.20981
-9.22057 -9.21661
-9.21992 -9.21289
-9.22015 -9.21506
-9.22251 -9.21934
-9.22041 -9.21599
-9.2234 -9.22007
-9.22107 -9.21776
-9.2234 -9.22003
-9.22008 -9.21009
-9.22204 -9.2187
-9.22331 -9.21995
-9.22012 -9.21427
-9.2299 -9.22945
-9.22988 -9.22894
-9.2299 -9.22927
-9.2299 -9.22923
-9.2299 -9.22934
-9.2299 -9.2293
-9.2299 -9.22926
-9.2299 -9.22928
-9.22989 -9.22924
-9.2299 -9.22971
-9.2299 -9.22925
-9.2299 -9.22927
-9.2299 -9.22928
-9.2299 -9.22926
-9.2299 -9.22919
-9.2299 -9.22971
-9.2299 -9.22968
-9.2299 -9.22926
-9.2299 -9.22969
-9.2285 -9.22216
-9.22979 -9.22741
-9.22977 -9.2255
-9.22972 -9.22539
-9.22906 -9.22347
-9.22983 -9.22701
-9.2296 -9.22726
-9.22874 -9.22268
-9.22932 -9.22794
-9.22935 -9.2278
-9.2296 -9.22727
-9.22935 -9.22421
-9.22976 -9.22681
-9.22974 -9.22626
-9.22963 -9.22694
-9.2299 -9.23107
-9.2299 -9.23161
-9.2299 -9.22926
-9.2299 -9.23113
-9.2299 -9.23152
-9.2299 -9.23083
-9.2299 -9.23081
-9.2299 -9.23012
-9.2299 -9.23083
-9.2299 -9.23127
-9.2299 -9.23161
-9.2299 -9.23114
-9.2299 -9.23119
-9.2299 -9.23108
-9.2299 -9.23002
-9.2299 -9.23139
-9.2299 -9.23143
-9.13974 -9.14415
-9.14002 -9.14435
-9.16382 -9.16728
-9.02975 -9.03362
-9.12593 -9.13013
-9.15525 -9.15867
-9.1199 -9.12382
-9.09604 -9.09933
-9.2299 -9.22906
-9.2299 -9.22927
-9.2299 -9.23139
-9.2299 -9.23109
-9.22954 -9.22884
-9.22976 -9.22712
-9.22879 -9.22284
-9.2299 -9.22929
-9.22936 -9.22423
-9.22965 -9.22501
-9.2299 -9.23409
-9.2299 -9.23382
-9.22738 -9.22519
-9.2299 -9.23388
-9.2299 -9.23381
-9.2299 -9.23385
-9.2299 -9.23384
-9.2299 -9.23388
-9.21999 -9.2106
-9.22069 -9.21712
-9.22248 -9.21934
-9.22233 -9.21922
-9.22015 -9.21508
-9.22105 -9.21717
-9.22316 -9.21986
-9.22319 -9.21986
-9.22256 -9.2194
-9.22381 -9.22035
-9.22483 -9.22097
-9.22306 -9.21976
-9.21997 -9.21335
-9.22451 -9.2208
-9.2213 -9.21746
-9.22056 -9.21657
-9.22483 -9.22096
-9.2299 -9.22926
-9.2299 -9.2293
-9.22988 -9.22894
-9.2299 -9.22925
-9.2299 -9.22936
-9.2299 -9.22919
-9.22974 -9.22898
-9.2299 -9.22927
-9.2299 -9.22968
-9.22988 -9.22893
-9.2299 -9.22929
-9.22989 -9.22924
-9.22978 -9.2289
-9.2299 -9.22935
-9.2299 -9.22967
-9.2299 -9.22926
-9.2299 -9.22915
-9.22989 -9.22924
-9.22895 -9.22314
-9.2288 -9.22285
-9.22954 -9.22762
-9.22976 -9.22682
-9.22975 -9.22552
-9.22975 -9.22551
-9.22983 -9.22584
-9.22987 -9.22645
-9.22968 -9.22702
-9.22936 -9.22423
-9.22976 -9.22608
-9.2296 -9.22727
-9.22989 -9.22613
-9.22977 -9.22549
-9.22979 -9.2274
-9.22978 -9.22609
-9.22959 -9.22483
-9.22932 -9.2241
-9.22963 -9.22693
-9.22974 -9.22534
-9.22923 -9.22812
-9.22945 -9.22771
-9.2295 -9.2246
-9.2299 -9.23169
-9.2299 -9.23136
-9.2299 -9.23128
-9.2299 -9.23134
-9.2299 -9.23091
-9.2299 -9.23165
-9.2299 -9.23166
-9.2299 -9.22991
-9.2299 -9.23034
-9.2299 -9.23165
-9.2299 -9.23126
-9.2299 -9.2301
-9.2299 -9.23127
-9.2299 -9.23068
-9.2299 -9.2299
-9.2299 -9.2312
-9.2299 -9.23012
-9.2299 -9.23114
-9.2299 -9.23066
-9.2299 -9.23042
-9.2299 -9.23127
-9.09155 -9.09491
-9.1074 -9.11139
-9.0528 -9.05567
-9.00641 -9.00984
-9.10378 -9.10738
-9.05242 -9.05585
-9.00503 -9.00923
-9.08876 -9.09294
-9.04874 -9.05345
-9.22987 -9.22645
-9.2299 -9.23142
-9.2299 -9.22929
-9.22971 -9.22891
-9.2296 -9.22727
-9.2299 -9.23384
-9.18966 -9.19252
-9.18627 -9.18984
-9.06516 -9.06987
-9.22931 -9.22796
-9.2299 -9.22972
-9.2299 -9.22992
-9.22498 -9.22108
-9.22915 -9.22369
-9.22983 -9.22584
-8.80653 -8.80268
-8.38662 -8.38675
-9.11414 -9.11802
-8.23133 -8.23123
-9.00762 -9.00791
-8.61029 -8.62121
-9.14824 -9.1531
-8.88268 -8.88459
-8.95448 -8.96183
-8.51785 -8.52108
-8.72572 -8.73331
-8.85238 -8.85565
-8.75022 -8.75494
-8.33883 -8.33076
-8.92617 -8.91806
-8.68581 -8.69264
-9.2299 -9.23439
-8.89581 -8.90064
-8.92571 -8.91864
-9.11389 -9.12419
-8.97938 -8.97391
-8.77832 -8.76431
-8.88713 -8.89206
-9.10483 -9.10918
-8.75797 -8.76677
-8.59931 -8.5964
-8.84668 -8.84961
-9.06075 -9.06575
-9.2048 -9.20721
-8.95057 -8.96032
-8.66346 -8.66859
-8.99499 -9.0033
-9.18842 -9.19612
-9.14657 -9.15044
-8.86265 -8.86648
-8.9864 -8.99026
-8.72276 -8.72729
-9.07115 -9.07611
-8.93303 -8.93713
-9.04169 -9.04514
-9.13232 -9.13608
-9.03121 -9.03548
-8.87895 -8.8803
-9.06487 -9.06889
-8.9852 -8.98973
-9.01253 -9.01338
-8.74426 -8.74676
-9.02216 -9.02682
-9.12674 -9.12719
-9.13279 -9.13251
-9.18486 -9.18911
-9.10415 -9.10785
-9.09297 -9.09486
-8.99823 -9.00134
-9.08196 -9.08645
-8.98277 -8.98827
-9.12131 -9.12643
-8.80701 -8.81134
-9.16972 -9.17383
-8.95687 -8.9607
-8.92255 -8.92581
-9.22024 -9.20936
-9.04627 -9.05041
-8.826 -8.82828
-9.10275 -9.10649
-8.95013 -8.95492
-9.13632 -9.1405
-9.157 -9.16079
-9.02841 -9.03165
-8.96547 -8.9701
-9.14142 -9.14512
-9.13506 -9.13884
-9.03589 -9.04004
-9.03152 -9.03532
-8.99871 -9.00492
-9.2299 -9.23382
-9.2299 -9.23416
-9.14391 -9.14854
-9.03051 -9.03361
-9.01492 -9.02098
-9.02839 -9.02941
-9.03664 -9.04033
-8.92893 -8.93204
-8.90262 -8.90554
-8.82589 -8.82933
-9.00155 -9.00609
-9.18381 -9.18768
-9.14295 -9.14608
-9.01421 -9.01859
-9.06562 -9.06924
-9.05985 -9.06425
-9.09247 -9.09656
-9.06063 -9.0634
-9.2299 -9.23449
-9.2299 -9.2344
-9.2299 -9.23397
-9.2299 -9.23337
-9.2299 -9.23387
-9.2299 -9.23405
-9.2299 -9.23446
-9.2299 -9.23436
-9.2299 -9.23386
-9.2299 -9.23388
-9.2299 -9.23382
-9.22337 -9.22008
-9.22362 -9.2202
-9.22043 -9.21597
-9.22279 -9.2196
-9.22105 -9.21712
-9.21994 -9.21354
-9.22201 -9.21899
-9.22433 -9.22065
-9.22353 -9.22012
-9.21998 -9.21061
-9.21992 -9.21355
-9.2221 -9.21866
-9.22498 -9.22108
-9.22021 -9.20953
-9.22203 -9.21896
-9.22248 -9.21935
-9.22249 -9.21936
-9.22171 -9.21851
-9.2232 -9.21986
-9.22056 -9.21658
-9.22042 -9.21641
-9.21992 -9.21293
-9.21992 -9.21355
-9.22458 -9.2208
-9.2299 -9.22928
-9.2299 -9.22973
-9.22971 -9.2289
-9.2299 -9.22925
-9.2299 -9.22928
-9.2299 -9.22925
-9.2299 -9.22942
-9.2299 -9.22928
-9.22988 -9.22892
-9.22962 -9.22904
-9.2299 -9.22927
-9.2299 -9.22936
-9.2299 -9.22925
-9.2299 -9.2293
-9.2299 -9.22927
-9.2299 -9.22965
-9.2299 -9.2293
-9.2299 -9.22973
-9.22928 -9.22798
-9.2297 -9.22756
-9.229 -9.22331
-9.22931 -9.22796
-9.22952 -9.22776
-9.22983 -9.22724
-9.22989 -9.22614
-9.22947 -9.22453
-9.22937 -9.22778
-9.22983 -9.22583
-9.22935 -9.22422
-9.22905 -9.22346
-9.22962 -9.22494
-9.22989 -9.22612
-9.22975 -9.22626
-9.22965 -9.22502
-9.22961 -9.22725
-9.2299 -9.23174
-9.2299 -9.23041
-9.2299 -9.23109
-9.2299 -9.23146
-9.2299 -9.23002
-9.2299 -9.231
-9.2299 -9.23034
-9.2299 -9.23101
-9.2299 -9.23069
-9.2299 -9.23029
-9.2299 -9.22946
-9.2299 -9.22926
-9.2299 -9.23133
-9.2299 -9.23066
-9.2299 -9.2304
-9.2299 -9.22905
-9.2299 -9.23083
-9.2299 -9.22925
-9.2299 -9.23143
-9.2299 -9.2301
-9.2299 -9.23134
-9.2299 -9.23009
-9.2299 -9.2309
-9.2299 -9.22926
-9.2299 -9.23132
-9.2299 -9.23066
-9.2299 -9.22967
-8.93937 -8.94275
-9.14323 -9.14807
-9.15586 -9.1594
-9.07133 -9.07475
-9.16433 -9.16796
-9.2299 -9.2293
-9.2299 -9.23162
-8.98516 -8.98798
-9.2299 -9.23098
-9.2299 -9.22972
-9.22972 -9.22538
-9.2221 -9.21865
-9.2299 -9.22959
-9.2298 -9.22751
-9.21989 -9.21207
-9.2299 -9.23161
-9.2299 -9.22927
-8.89757 -8.90121
-9.22977 -9.22638
-9.22972 -9.22891
-9.2299 -9.23387
-9.2299 -9.23386
-9.2299 -9.23388
-9.2299 -9.23416
-9.2299 -9.23384
-9.2299 -9.23384
-9.2299 -9.23388
-9.22301 -9.21964
-9.2299 -9.23388
-9.2299 -9.23382
-9.2299 -9.23386
-9.22318 -9.21983
-9.22483 -9.22097
-9.22001 -9.21491
-9.22203 -9.21898
-9.22206 -9.21869
-9.22122 -9.21794
-9.22484 -9.22097
-9.21999 -9.21059
-9.22204 -9.21898
-9.22278 -9.21959
-9.22181 -9.21831
-9.22317 -9.21988
-9.21993 -9.21351
-9.21997 -9.21088
-9.22189 -9.21881
-9.22422 -9.22063
-9.2226 -9.21931
-9.22274 -9.2195
-9.21997 -9.21335
-9.22306 -9.21976
-9.22981 -9.22892
-9.22953 -9.22884
-9.22971 -9.2289
-9.2299 -9.22935
-9.2299 -9.22927
-9.2299 -9.22927
-9.2299 -9.22929
-9.2299 -9.22965
-9.2299 -9.22959
-9.2299 -9.22927
-9.2299 -9.22953
-9.2299 -9.22924
-9.2299 -9.22946
-9.2299 -9.22962
-9.2299 -9.22928
-9.2299 -9.22927
-9.22977 -9.22906
-9.22962 -9.22895
-9.22977 -9.22891
-9.22972 -9.22745
-9.22947 -9.22451
-9.22987 -9.22645
-9.22963 -9.22694
-9.2296 -9.22484
-9.22945 -9.22766
-9.22983 -9.22622
-9.22977 -9.22565
-9.22951 -9.22727
-9.22978 -9.22611
-9.22975 -9.2255
-9.22936 -9.22421
-9.22962 -9.22497
-9.22879 -9.22284
-9.22945 -9.22771
-9.22932 -9.22795
-9.22978 -9.2261
-9.2299 -9.2291
-9.2299 -9.23161
-9.2299 -9.23114
-9.2299 -9.23154
-9.2299 -9.22953
-9.2299 -9.23143
-9.2299 -9.23126
-9.2299 -9.23147
-9.2299 -9.23161
-9.2299 -9.23141
-9.2299 -9.23099
-9.2299 -9.23053
-9.2299 -9.22991
-9.2299 -9.23127
-9.2299 -9.2291
-9.2299 -9.23154
-9.2299 -9.23165
-9.03435 -9.03788
-9.0965 -9.10034
-8.89216 -8.89528
-9.02192 -9.02556
-9.11686 -9.12087
-8.93658 -8.9401
-8.98386 -8.98722
-9.00962 -9.01398
-9.09514 -9.09894
-9.15634 -9.1593
-9.0607 -9.06451
-9.15795 -9.16152
-8.98206 -8.98563
-9.13163 -9.13544
-9.2299 -9.22925
-9.2299 -9.23072
-9.22915 -9.22368
-9.2299 -9.23012
-9.22978 -9.22891
-9.2299 -9.2345
-9.2288 -9.22285
-9.22971 -9.2289
-9.2299 -9.23125
-8.69483 -8.70252
-9.22057 -9.2166
-8.76579 -8.75557
-8.98556 -8.99018
-9.04798 -9.05192
-8.83684 -8.84041
-8.16392 -8.16366
-8.54682 -8.53896
-8.7939 -8.79562
-8.27856 -8.27748
-8.9839 -8.98815
-9.06184 -9.06499
-8.70136 -8.70366
-9.06454 -9.06935
-8.97233 -8.9792
-8.62223 -8.62775
-9.03104 -9.03392
-9.12123 -9.12492
-8.88549 -8.88792
-8.78704 -8.79126
-8.98565 -8.98977
-8.86322 -8.85159
-9.00521 -9.00893
-9.05933 -9.06485
-8.96977 -8.97424
-8.90589 -8.90909
-9.19355 -9.19728
-9.05789 -9.06081
-8.9184 -8.91456
-9.08788 -9.09002
-8.94442 -8.94707
-8.98822 -8.99201
-9.01807 -9.0209
-8.91573 -8.92925
-8.73618 -8.73985
-9.02607 -9.03019
-9.08565 -9.08174
-8.81582 -8.81844
-9.01107 -9.0151
-9.2299 -9.23432
-8.89568 -8.89929
-9.01555 -9.01277
-9.06706 -9.07133
-9.07645 -9.0809
-8.96862 -8.97194
-8.93191 -8.93423
-8.82457 -8.82774
-9.12925 -9.13354
-9.04974 -9.05418
-8.96818 -8.97227
-9.07244 -9.07626
-8.94754 -8.95135
-9.21478 -9.21887
-9.08492 -9.08747
-9.09221 -9.09587
-9.07393 -9.07763
-9.16572 -9.16944
-9.1495 -9.15368
-8.83336 -8.83639
-9.14203 -9.14688
-9.11476 -9.11849
-9.19009 -9.18741
-8.95171 -8.95639
-9.05405 -9.05764
-9.11118 -9.11512
-9.2299 -9.23388
-9.2299 -9.23387
-9.2299 -9.23381
-9.2299 -9.23382
-9.2299 -9.23386
-9.2299 -9.23388
-9.2299 -9.23427
-9.2299 -9.23421
-9.2299 -9.23381
-9.22421 -9.22064
-9.22022 -9.21478
-9.22182 -9.21833
-9.22274 -9.21952
-9.2236 -9.22018
-9.22484 -9.22097
-9.21978 -9.2125
-9.22057 -9.21659
-9.2207 -9.21713
-9.22131 -9.21746
-9.22043 -9.21643
-9.22105 -9.21714
-9.21993 -9.21352
-9.22402 -9.22046
-9.22104 -9.21713
-9.22014 -9.2098
-9.22021 -9.20953
-9.2299 -9.22936
-9.22962 -9.22904
-9.2299 -9.22926
-9.2299 -9.22942
-9.22972 -9.22906
-9.22973 -9.22896
-9.2299 -9.22968
-9.2299 -9.22927
-9.2299 -9.22925
-9.2299 -9.22926
-9.2299 -9.22945
-9.2299 -9.22926
-9.22969 -9.22897
-9.22989 -9.22924
-9.2299 -9.22965
-9.2299 -9.22965
-9.2299 -9.22936
-9.2299 -9.22931
-9.2299 -9.22926
-9.2299 -9.22953
-9.2299 -9.22949
-9.2299 -9.22926
-9.2299 -9.22936
-9.2299 -9.22927
-9.2299 -9.22928
-9.22989 -9.22925
-9.2299 -9.22937
-9.2299 -9.22947
-9.2299 -9.22959
-9.22977 -9.22563
-9.22935 -9.22781
-9.22976 -9.22711
-9.22944 -9.22768
-9.2296 -9.22727
-9.22932 -9.2241
-9.22984 -9.22576
-9.22977 -9.22637
-9.22984 -9.22575
-9.22982 -9.22655
-9.22936 -9.22421
-9.22961 -9.22691
-9.22895 -9.22314
-9.2285 -9.22216
-9.22977 -9.22563
-9.22954 -9.22727
-9.22963 -9.22692
-9.22978 -9.22611
-9.22976 -9.2271
-9.22944 -9.22767
-9.22963 -9.22692
-9.2297 -9.22673
-9.22951 -9.22727
-9.2285 -9.22216
-9.2299 -9.23067
-9.2299 -9.22925
-9.2299 -9.22878
-9.2299 -9.23072
-9.2299 -9.22895
-9.2299 -9.23083
-9.2299 -9.23148
-9.2299 -9.23053
-9.2299 -9.22906
-9.2299 -9.23136
-9.2299 -9.23161
-9.2299 -9.23034
-9.2299 -9.22906
-9.2299 -9.23136
-9.2299 -9.22996
-9.2299 -9.22878
-9.2299 -9.22972
-9.2299 -9.23053
-9.2299 -9.23101
-9.2299 -9.2308
-9.2299 -9.22966
-9.2299 -9.23097
-9.2299 -9.23123
-9.2299 -9.23151
-9.2299 -9.23144
-9.2299 -9.22895
-9.2299 -9.23154
-9.2299 -9.23161
-9.16149 -9.16477
-9.08599 -9.09018
-9.11819 -9.12104
-9.187 -9.19027
-9.22976 -9.2271
-9.2299 -9.23147
-9.2299 -9.22912
-9.22983 -9.22725
-9.2299 -9.22935
-9.2299 -9.22936
-9.13864 -9.14247
-9.07652 -9.07981
-9.20153 -9.20548
-9.2299 -9.22927
-9.22945 -9.22771
-9.2299 -9.23392
-9.2299 -9.23384
-9.2299 -9.23132
-9.2299 -9.23386
-9.2299 -9.23385
-9.2299 -9.23388
-9.22483 -9.22096
-9.22365 -9.22019
-9.22332 -9.21997
-9.22094 -9.21737
-9.22284 -9.21961
-9.22422 -9.22065
-9.22105 -9.21779
-9.21992 -9.21353
-9.21986 -9.21182
-9.22268 -9.21935
-9.22142 -9.21835
-9.22277 -9.21961
-9.22373 -9.22031
-9.22332 -9.21996
-9.2199 -9.21112
-9.21985 -9.21181
-9.2236 -9.22016
-9.22107 -9.21776
-9.22202 -9.21868
-9.22104 -9.2171
-9.22249 -9.21931
-9.22337 -9.22005
-9.21984 -9.21183
-9.22286 -9.21962
-9.22977 -9.22916
-9.2299 -9.22927
-9.22978 -9.2289
-9.22974 -9.22899
-9.2299 -9.22953
-9.2299 -9.22926
-9.22989 -9.22924
-9.22978 -9.22891
-9.2299 -9.22926
-9.22972 -9.22907
-9.2299 -9.22952
-9.2299 -9.22936
-9.2299 -9.2294
-9.2299 -9.22932
-9.2299 -9.22928
-9.2299 -9.22935
-9.2299 -9.22928
-9.2299 -9.22946
-9.2299 -9.22979
-9.22988 -9.22924
-9.22962 -9.22904
-9.22856 -9.22228
-9.22963 -9.22693
-9.22979 -9.2274
-9.22951 -9.22462
-9.22974 -9.22534
-9.22979 -9.22739
-9.22963 -9.22694
-9.22979 -9.2274
-9.22931 -9.22796
-9.22931 -9.22796
-9.22974 -9.22535
-9.22987 -9.22677
-9.2298 -9.22749
-9.22978 -9.22612
-9.22975 -9.22551
-9.22983 -9.22583
-9.22978 -9.22609
-9.22976 -9.22713
-9.22922 -9.22811
-9.2299 -9.23154
-9.2299 -9.23167
-9.2299 -9.23161
-9.2299 -9.23134
-9.2299 -9.23147
-9.2299 -9.22972
-9.2299 -9.23169
-9.2299 -9.23125
-9.2299 -9.23066
-9.2299 -9.22873
-9.2299 -9.23159
-9.2299 -9.23134
-9.2299 -9.2309
-9.2299 -9.22952
-9.2299 -9.23049
-9.2299 -9.231
-9.2299 -9.2314
-9.2299 -9.23066
-9.2299 -9.23001
-9.2299 -9.23048
-9.2299 -9.2301
-9.2299 -9.22988
-9.2299 -9.23119
-9.11673 -9.1205
-9.0245 -9.0277
-9.10958 -9.11364
-9.04148 -9.04529
-9.16862 -9.17223
-9.04336 -9.04734
-9.08728 -9.09114
-9.17733 -9.18188
-9.22943 -9.22776
-9.2299 -9.23165
-9.2299 -9.22925
-9.2299 -9.23134
-9.22931 -9.22796
-9.22989 -9.22924
-9.22021 -9.21476
-9.22954 -9.22726
-9.2299 -9.23134
-9.22484 -9.22097
-9.02278 -9.02789
-8.53906 -8.53783
-8.62606 -8.62976
-9.06316 -9.06639
-8.90499 -8.89405
-8.75329 -8.74454
-9.09632 -9.10155
-8.80802 -8.81058
-8.9155 -8.9144
-8.76562 -8.75633
-8.58379 -8.58566
-9.09074 -9.09553
-9.22378 -9.22768
-8.92499 -8.9252
-8.44533 -8.44073
-8.9034 -8.88569
-8.72683 -8.72348
-8.91636 -8.92047
-8.92087 -8.92423
-9.04115 -9.04264
-8.84203 -8.84622
-8.76321 -8.76809
-8.5105 -8.51477
-9.09041 -9.09514
-9.09922 -9.08771
-9.02929 -9.02061
-9.00362 -8.99688
-8.93146 -8.92513
-9.2299 -9.23388
-8.87467 -8.87794
-9.04114 -9.04401
-9.11367 -9.11782
-8.84961 -8.85974
-8.52754 -8.52537
-9.01758 -9.02157
-9.07774 -9.07489
-9.16158 -9.15444
-8.94067 -8.94524
-8.93795 -8.93969
-8.70549 -8.70873
-9.00037 -9.00512
-9.06131 -9.06551
-9.14545 -9.14994
-8.89228 -8.89647
-9.09512 -9.10084
-8.9381 -8.94115
-9.00469 -9.00823
-8.99023 -8.9922
-8.90343 -8.90728
-8.92628 -8.93058
-8.91128 -8.91542
-8.9741 -8.97746
-9.03954 -9.04333
-8.90867 -8.91262
-8.95008 -8.95306
-8.97842 -8.98289
-9.06035 -9.06391
-9.08894 -9.09355
-8.94338 -8.94749
-9.17661 -9.18086
-9.09111 -9.09507
-8.86803 -8.87111
-8.99055 -8.99383
-8.98032 -8.9835
-8.95726 -8.9607
-8.97428 -8.97795
-9.04703 -9.05129
-9.09895 -9.10325
-9.09434 -9.09825
-9.14194 -9.14611
-9.08779 -9.09168
-9.13873 -9.14266
-9.07676 -9.08101
-9.2299 -9.22862
-9.2299 -9.23388
-9.2299 -9.23386
-9.2299 -9.23382
-9.2299 -9.23166
-9.2299 -9.23413
-9.2299 -9.23446
-9.2299 -9.23401
-9.2299 -9.23389
-9.2299 -9.23382
-9.22108 -9.21706
-9.22014 -9.2098
-9.21992 -9.21291
-9.22318 -9.21984
-9.2225 -9.21932
-9.22107 -9.2178
-9.22194 -9.21881
-9.22395 -9.22032
-9.22103 -9.21714
-9.22065 -9.21625
-9.22121 -9.21792
-9.22205 -9.21867
-9.22054 -9.2166
-9.22231 -9.21924
-9.21993 -9.21351
-9.22483 -9.22097
-9.22507 -9.22105
-9.22318 -9.21983
-9.22365 -9.22019
-9.2299 -9.22946
-9.2299 -9.22927
-9.2299 -9.22936
-9.2299 -9.22949
-9.2299 -9.22926
-9.2299 -9.22926
-9.2299 -9.22936
-9.2299 -9.22936
-9.2299 -9.22979
-9.2299 -9.22926
-9.2299 -9.22962
-9.2299 -9.22935
-9.2299 -9.22926
-9.22989 -9.22924
-9.2299 -9.22929
-9.2299 -9.22939
-9.2299 -9.22926
-9.2299 -9.22928
-9.2299 -9.22928
-9.2299 -9.22936
-9.2299 -9.22926
-9.2299 -9.22929
-9.22972 -9.2289
-9.2299 -9.22947
-9.22951 -9.22727
-9.22919 -9.22813
-9.22936 -9.22422
-9.22879 -9.22285
-9.22969 -9.22675
-9.22963 -9.22496
-9.22975 -9.22683
-9.22924 -9.22389
-9.22939 -9.22769
-9.22952 -9.22775
-9.22928 -9.22804
-9.22951 -9.22727
-9.229 -9.22329
-9.22983 -9.22584
-9.2295 -9.22458
-9.22962 -9.22495
-9.22979 -9.2274
-9.22983 -9.22726
-9.22948 -9.22742
-9.22943 -9.22776
-9.2299 -9.22873
-9.2299 -9.22967
-9.2299 -9.23152
-9.2299 -9.23109
-9.2299 -9.23119
-9.2299 -9.23127
-9.2299 -9.23135
-9.2299 -9.22967
-9.2299 -9.2312
-9.2299 -9.23126
-9.2299 -9.22927
-9.2299 -9.23011
-9.2299 -9.23041
-9.2299 -9.23158
-9.2299 -9.22895
-9.2299 -9.23143
-9.2299 -9.22972
-9.2299 -9.23066
-9.2299 -9.23069
-9.2299 -9.23148
-9.06124 -9.0654
-8.99477 -8.99852
-9.11897 -9.1228
-9.01774 -9.02179
-9.08956 -9.09333
-8.97117 -8.97462
-9.10395 -9.10776
-9.17754 -9.18196
-9.16226 -9.16612
-9.156 -9.15956
-9.12159 -9.12512
-9.18296 -9.18648
-9.11401 -9.11803
-9.01866 -9.02289
-9.15898 -9.16241
-9.22971 -9.2289
-9.22976 -9.22711
-9.22856 -9.22228
-9.22104 -9.21713
-9.22287 -9.21962
-9.2299 -9.23072
-9.2299 -9.23448
-9.2299 -9.23384
-9.2299 -9.2339
-9.2299 -9.23387
-9.2299 -9.23382
-9.2299 -9.23382
-9.2299 -9.23386
-9.2299 -9.2345
-9.2299 -9.23389
-9.2299 -9.23388
-9.2299 -9.23382
-9.22373 -9.2203
-9.22452 -9.22081
-9.22421 -9.22064
-9.21989 -9.21208
-9.22272 -9.21953
-9.22204 -9.21869
-9.22121 -9.21793
-9.22361 -9.22016
-9.22423 -9.22063
-9.22191 -9.21883
-9.22172 -9.21837
-9.22141 -9.21834
-9.22274 -9.21951
-9.22204 -9.21867
-9.22249 -9.21933
-9.2299 -9.22928
-9.2299 -9.22899
-9.2299 -9.22927
-9.2299 -9.22936
-9.2299 -9.22926
-9.22988 -9.22923
-9.2299 -9.22936
-9.2299 -9.22928
-9.2299 -9.22925
-9.2299 -9.22928
-9.2299 -9.22954
-9.2299 -9.22938
-9.2299 -9.22934
-9.2299 -9.22954
-9.2299 -9.22927
-9.22981 -9.22892
-9.22862 -9.22244
-9.22979 -9.2274
-9.22922 -9.22811
-9.22905 -9.22347
-9.22989 -9.22612
-9.22976 -9.22712
-9.22976 -9.22711
-9.22932 -9.22411
-9.22962 -9.22495
-9.22954 -9.22726
-9.22953 -9.2247
-9.22862 -9.22244
-9.22885 -9.22297
-9.22943 -9.22776
-9.22937 -9.22778
-9.22978 -9.22636
-9.22987 -9.22644
-9.22945 -9.22765
-9.22939 -9.22768
-9.229 -9.2233
-9.2292 -9.2282
-9.2299 -9.23053
-9.2299 -9.23068
-9.2299 -9.23127
-9.2299 -9.2314
-9.2299 -9.23068
-9.2299 -9.23109
-9.2299 -9.23083
-9.2299 -9.22955
-9.2299 -9.23054
-9.2299 -9.22989
-9.2299 -9.23143
-9.2299 -9.2291
-9.2299 -9.23151
-9.2299 -9.23144
-9.2299 -9.23147
-9.2299 -9.23073
-9.2299 -9.23143
-9.2299 -9.23055
-9.2299 -9.23168
-9.2299 -9.22906
-9.2299 -9.23141
-9.07025 -9.0744
-9.04065 -9.04463
-9.05306 -9.05693
-9.1449 -9.14896
-9.14828 -9.1524
-9.1498 -9.15369
-9.074 -9.07923
-9.12129 -9.12483
-9.09803 -9.102
-9.01472 -9.01881
-9.22953 -9.22884
-9.2299 -9.23054
-9.09309 -9.09695
-9.2299 -9.23382
-9.22915 -9.22369
-9.22983 -9.22585
-9.2299 -9.23392
-9.08191 -9.08608
-9.22931 -9.22796
-9.2299 -9.23411
-9.2299 -9.23161
-9.22965 -9.22503
-8.88277 -8.87534
-8.96862 -8.97309
-8.47285 -8.47544
-8.77386 -8.77833
-8.76569 -8.76447
-8.94866 -8.95601
-8.32735 -8.33913
-8.65566 -8.64624
-8.24456 -8.23485
-9.06028 -9.06419
-8.54166 -8.54816
-8.77082 -8.7776
-8.85389 -8.85839
-8.42685 -8.42531
-9.08902 -9.0889
-8.39888 -8.39394
-9.0982 -9.10976
-8.93775 -8.93083
-8.75997 -8.76351
-8.68657 -8.67838
-9.00314 -9.00528
-9.00512 -9.00794
-9.01992 -9.02311
-8.72896 -8.72173
-9.07143 -9.07477
-8.95441 -8.95607
-9.16435 -9.16816
-8.74129 -8.74441
-8.76342 -8.77567
-9.02001 -9.03139
-8.95239 -8.95583
-8.99868 -9.00235
-8.73215 -8.73708
-8.78854 -8.7928
-9.21837 -9.21525
-8.9972 -9.00063
-9.03665 -9.04207
-9.15657 -9.14195
-8.95672 -8.96547
-9.07694 -9.07317
-9.01463 -9.01955
-8.89791 -8.90074
-8.84264 -8.84624
-9.11302 -9.11697
-9.0837 -9.08836
-9.0492 -9.04713
-8.88429 -8.88696
-8.84353 -8.84589
-9.22486 -9.21664
-9.07704 -9.08078
-9.02008 -9.0236
-9.12344 -9.13243
-9.18075 -9.18481
-9.01195 -9.01546
-9.13431 -9.13849
-8.96079 -8.96394
-9.22788 -9.2242
-9.0725 -9.07599
-9.2299 -9.23054
-8.91596 -8.91916
-9.08418 -9.08829
-9.18167 -9.18558
-9.10738 -9.11138
-8.84734 -8.84582
-9.09227 -9.09533
-8.9951 -8.99848
-9.05587 -9.05691
-9.2299 -9.2343
-9.08159 -9.08608
-9.10718 -9.11174
-9.0153 -9.019
-8.98572 -8.98985
-9.06624 -9.07028
-9.04368 -9.04798
-9.08031 -9.08363
-9.05563 -9.06007
-8.97507 -8.97925
-9.09861 -9.10337
-9.2299 -9.23385
-9.1742 -9.17863
-9.17981 -9.18365
-8.95478 -8.95912
-9.00308 -9.00762
-9.2299 -9.23442
-9.2299 -9.23384
-9.2299 -9.23388
-9.2299 -9.23384
-9.2299 -9.23386
-9.2299 -9.23382
-9.21996 -9.2109
-9.22395 -9.22032
-9.22065 -9.21626
-9.22013 -9.21426
-9.22108 -9.21777
-9.2213 -9.21748
-9.2226 -9.21932
-9.21988 -9.21114
-9.22332 -9.21997
-9.22205 -9.21867
-9.22108 -9.21778
-9.22318 -9.21984
-9.22042 -9.21595
-9.22122 -9.21761
-9.22104 -9.2171
-9.22022 -9.21475
-9.22293 -9.21961
-9.21985 -9.21409
-9.22193 -9.21881
-9.22352 -9.22011
-9.22485 -9.22097
-9.2221 -9.21865
-9.2299 -9.22971
-9.2299 -9.22928
-9.2299 -9.22927
-9.2299 -9.22959
-9.2299 -9.22926
-9.2299 -9.22927
-9.2299 -9.22928
-9.2299 -9.2297
-9.2299 -9.22925
-9.2299 -9.22936
-9.2299 -9.2293
-9.2299 -9.22928
-9.2299 -9.22927
-9.22989 -9.22926
-9.2299 -9.22969
-9.2299 -9.22905
-9.2299 -9.22927
-9.2299 -9.2293
-9.2299 -9.22936
-9.2299 -9.22938
-9.2299 -9.22927
-9.22978 -9.22753
-9.22945 -9.2277
-9.22939 -9.2277
-9.22966 -9.22759
-9.22936 -9.22422
-9.22965 -9.22674
-9.22979 -9.22741
-9.22963 -9.22498
-9.22977 -9.22564
-9.22923 -9.22813
-9.22923 -9.22812
-9.2295 -9.2246
-9.22932 -9.22412
-9.22947 -9.2245
-9.22966 -9.2276
-9.2297 -9.22758
-9.22905 -9.22346
-9.22931 -9.22796
-9.22952 -9.22742
-9.22856 -9.22228
-9.22932 -9.22412
-9.2299 -9.23159
-9.2299 -9.2301
-9.2299 -9.2299
-9.2299 -9.23084
-9.2299 -9.23049
-9.2299 -9.23069
-9.2299 -9.23114
-9.2299 -9.23119
-9.2299 -9.23112
-9.2299 -9.23166
-9.2299 -9.22996
-9.2299 -9.2291
-9.2299 -9.23098
-9.2299 -9.23123
-9.2299 -9.23167
-9.13478 -9.13796
-9.05168 -9.05593
-9.10669 -9.1106
-9.16075 -9.16476
-9.2297 -9.22756
-9.229 -9.22331
-9.2299 -9.23119
-9.22978 -9.22891
-9.2299 -9.2303
-9.2299 -9.2293
-9.2299 -9.22945
-9.22962 -9.22495
-9.22977 -9.22552
-9.05908 -9.06297
-9.22234 -9.21922
-9.2299 -9.22946
-9.22988 -9.22925
-9.22948 -9.22742
-9.22983 -9.22623
-9.2299 -9.23435
-9.2299 -9.23385
-9.2299 -9.23382
-9.2299 -9.23386
-9.2299 -9.23389
-9.2299 -9.23382
-9.2299 -9.23382
-9.2299 -9.23388
-9.2299 -9.23387
-9.2299 -9.23388
-9.22382 -9.22036
-9.22317 -9.21988
-9.22201 -9.21899
-9.22014 -9.21507
-9.22169 -9.21854
-9.22013 -9.21431
-9.22001 -9.21491
-9.22286 -9.21962
-9.22365 -9.22019
-9.22483 -9.22096
-9.22352 -9.22013
-9.22094 -9.21737
-9.22267 -9.21934
-9.2205 -9.21575
-9.22067 -9.21608
-9.22106 -9.2178
-9.22316 -9.21986
-9.22008 -9.21444
-9.22498 -9.22108
-9.2299 -9.22969
-9.2299 -9.22961
-9.22989 -9.22924
-9.2299 -9.22948
-9.22977 -9.22908
-9.22981 -9.229
-9.2299 -9.22936
-9.2299 -9.22916
-9.2299 -9.22946
-9.2299 -9.22926
-9.2299 -9.22933
-9.2299 -9.22963
-9.2299 -9.22936
-9.2299 -9.22928
-9.2299 -9.22933
-9.2299 -9.22934
-9.2299 -9.22957
-9.2299 -9.22929
-9.2299 -9.22925
-9.2299 -9.22936
-9.22937 -9.22778
-9.22969 -9.22732
-9.22936 -9.22423
-9.22976 -9.22681
-9.22989 -9.22614
-9.22901 -9.22332
-9.229 -9.22331
-9.22926 -9.22805
-9.22977 -9.22562
-9.22983 -9.22585
-9.22984 -9.22575
-9.22975 -9.22683
-9.22987 -9.22644
-9.22983 -9.22586
-9.22953 -9.22469
-9.22976 -9.22607
-9.2299 -9.22991
-9.2299 -9.22878
-9.2299 -9.23034
-9.2299 -9.23169
-9.2299 -9.23165
-9.2299 -9.23119
-9.2299 -9.2303
-9.2299 -9.23143
-9.2299 -9.23074
-9.2299 -9.23012
-9.2299 -9.23033
-9.2299 -9.23101
-9.2299 -9.23083
-9.2299 -9.23158
-9.2299 -9.22878
-9.2299 -9.23154
-9.2299 -9.23127
-9.2299 -9.23148
-9.2299 -9.23147
-9.2299 -9.23083
-9.2299 -9.23108
-9.2299 -9.23067
-9.2299 -9.22965
-9.2299 -9.23053
-9.2299 -9.23146
-9.2299 -9.23097
-9.2299 -9.23151
-9.2299 -9.22991
-9.2299 -9.22915
-9.09732 -9.10103
-9.1058 -9.10895
-9.07881 -9.08221
-8.91843 -8.92096
-9.12684 -9.13043
-8.90686 -8.91033
-9.0542 -9.05837
-9.08281 -9.08652
-9.13598 -9.13991
-9.12737 -9.13111
-9.22961 -9.2269
-9.22421 -9.22064
-9.22989 -9.22924
-9.12984 -9.13424
-9.2299 -9.23431
-9.2299 -9.23042
-9.2299 -9.23388
-9.22959 -9.22485
-9.22143 -9.21832
-9.2299 -9.23382
-9.22978 -9.2261
-8.52492 -8.51944
-8.62991 -8.63607
-8.85417 -8.85281
-8.55166 -8.54959
-8.68999 -8.68748
-8.89973 -8.89748
-8.27502 -8.27325
-9.2299 -9.22588
-9.12714 -9.10722
-8.86972 -8.8528
-8.97099 -8.97445
-8.69785 -8.68984
-9.1308 -9.13359
-9.1032 -9.10701
-9.14893 -9.14507
-8.97987 -8.98434
-8.83124 -8.83412
-8.99206 -8.99539
-8.92455 -8.931
-9.01057 -9.01502
-8.96376 -8.96694
-8.83025 -8.81932
-8.92908 -8.92454
-8.90869 -8.91102
-8.80578 -8.80783
-9.0106 -9.01528
-8.87408 -8.86567
-9.0577 -9.05085
-9.04911 -9.05342
-8.91105 -8.9117
-8.94457 -8.94751
-8.83103 -8.83426
-8.99281 -8.99708
-9.14635 -9.15407
-9.17201 -9.17718
-9.17384 -9.17126
-9.15691 -9.16167
-9.10012 -9.09491
-9.19774 -9.18629
-9.18142 -9.18638
-9.05247 -9.05648
-8.74883 -8.75315
-8.71514 -8.71875
-8.90119 -8.90526
-8.8637 -8.86903
-8.81171 -8.81512
-8.91722 -8.91846
-8.89285 -8.89739
-9.12785 -9.13348
-8.83766 -8.84157
-8.91938 -8.92281
-9.12142 -9.12523
-9.01207 -9.01558
-8.7224 -8.724
-8.82754 -8.83079
-9.1187 -9.12289
-9.08178 -9.08626
-8.97977 -8.98454
-8.74011 -8.74358
-9.05961 -9.06315
-9.05083 -9.05276
-8.98285 -8.98713
-8.87146 -8.87496
-9.06918 -9.0725
-9.149 -9.15216
-9.00398 -9.00602
-8.97064 -8.97463
-9.14415 -9.14755
-9.06778 -9.0658
-8.8802 -8.88447
-9.01737 -9.02198
-9.10302 -9.10641
-9.04016 -9.04416
-9.12223 -9.12582
-9.01708 -9.02098
-8.97906 -8.98216
-9.00283 -9.00629
-8.97472 -8.97883
-8.98059 -8.98491
-9.12856 -9.13222
-9.2299 -9.22925
-8.92133 -8.90409
-9.13355 -9.13761
-9.11456 -9.11869
-9.2299 -9.23341
-9.2299 -9.23406
-9.2299 -9.23442
-9.2299 -9.23431
-9.2299 -9.23388
-9.2299 -9.23386
-9.2299 -9.23382
-9.2299 -9.2332
-9.2299 -9.2339
-9.2299 -9.23385
-9.2299 -9.23388
-9.22259 -9.21932
-9.22014 -9.2098
-9.22205 -9.2187
-9.22251 -9.21935
-9.22353 -9.22014
-9.22173 -9.21838
-9.22168 -9.21852
-9.22292 -9.2197
-9.22274 -9.21951
-9.22231 -9.21924
-9.22042 -9.21601
-9.22 -9.21494
-9.2225 -9.21932
-9.22007 -9.21008
-9.224 -9.22047
-9.22254 -9.21941
-9.21992 -9.21352
-9.22294 -9.21968
-9.22001 -9.21491
-9.22014 -9.21505
-9.22255 -9.21939
-9.22107 -9.21775
-9.22267 -9.2193
-9.22095 -9.21736
-9.22108 -9.21706
-9.22014 -9.2098
-9.22969 -9.22897
-9.2299 -9.22977
-9.2299 -9.22945
-9.2299 -9.22926
-9.2299 -9.22936
-9.2299 -9.22942
-9.2299 -9.22925
-9.2299 -9.22953
-9.2299 -9.22929
-9.22989 -9.22925
-9.2299 -9.22927
-9.2299 -9.22925
-9.22954 -9.22884
-9.22977 -9.22917
-9.2299 -9.22945
-9.2299 -9.22928
-9.2299 -9.22927
-9.2299 -9.22926
-9.2299 -9.22924
-9.22981 -9.22899
-9.22965 -9.22901
-9.2295 -9.2246
-9.22934 -9.22781
-9.22963 -9.22694
-9.2296 -9.22727
-9.22932 -9.22795
-9.22952 -9.22742
-9.22987 -9.22645
-9.22978 -9.22612
-9.22972 -9.22537
-9.22939 -9.22789
-9.22957 -9.22763
-9.22969 -9.22732
-9.22987 -9.22676
-9.22952 -9.22775
-9.22945 -9.22771
-9.22983 -9.22622
-9.22937 -9.22778
-9.22928 -9.22804
-9.2299 -9.23166
-9.2299 -9.23151
-9.2299 -9.23146
-9.2299 -9.23101
-9.2299 -9.23037
-9.2299 -9.23054
-9.2299 -9.23001
-9.2299 -9.23067
-9.2299 -9.23161
-9.2299 -9.22987
-9.2299 -9.23126
-9.2299 -9.23158
-9.2299 -9.22973
-9.2299 -9.23148
-9.2299 -9.23166
-9.07135 -9.07492
-9.15215 -9.1559
-9.03701 -9.04114
-9.06757 -9.07192
-9.10594 -9.1102
-9.01497 -9.01849
-9.04615 -9.05017
-9.06432 -9.06799
-9.05863 -9.06254
-9.20563 -9.20897
-9.22952 -9.22775
-9.229 -9.2233
-9.22936 -9.22422
-9.2299 -9.23161
-9.08212 -9.08621
-9.2299 -9.22927
-9.0612 -9.06498
-9.2299 -9.23384
-9.2299 -9.22927
-9.22954 -9.22761
-9.2299 -9.22928
-9.2299 -9.23416
-9.2299 -9.2302
-9.2299 -9.23394
-9.2299 -9.23389
-9.20293 -9.20452
-9.2299 -9.23392
-9.2299 -9.23389
-9.22012 -9.21427
-9.21997 -9.21335
-9.22007 -9.21009
-9.22361 -9.22016
-9.22204 -9.21897
-9.2225 -9.21937
-9.22068 -9.2161
-9.22204 -9.21869
-9.22056 -9.21659
-9.22191 -9.21882
-9.22205 -9.2187
-9.21999 -9.21491
-9.22342 -9.22001
-9.22295 -9.21961
-9.22001 -9.2149
-9.22272 -9.21953
-9.22202 -9.21896
-9.22372 -9.2203
-9.22483 -9.22096
-9.22068 -9.21611
-9.2299 -9.22931
-9.2299 -9.22928
-9.22965 -9.22901
-9.2299 -9.22936
-9.2299 -9.22947
-9.2299 -9.22925
-9.2299 -9.2293
-9.2299 -9.22936
-9.2299 -9.22927
-9.2299 -9.22934
-9.2299 -9.22928
-9.2299 -9.22946
-9.2299 -9.22959
-9.2299 -9.22929
-9.2299 -9.22908
-9.2299 -9.22926
-9.2299 -9.22926
-9.22964 -9.22901
-9.22972 -9.22907
-9.2299 -9.22975
-9.2299 -9.22928
-9.22856 -9.22228
-9.22983 -9.22584
-9.22965 -9.22502
-9.2297 -9.22758
-9.2296 -9.22725
-9.22952 -9.22726
-9.22963 -9.22694
-9.22931 -9.22796
-9.22978 -9.2261
-9.22934 -9.22782
-9.22928 -9.22798
-9.22945 -9.2277
-9.22873 -9.22267
-9.22961 -9.22725
-9.22923 -9.22812
-9.2299 -9.22915
-9.2299 -9.23167
-9.2299 -9.2301
-9.2299 -9.22966
-9.2299 -9.23066
-9.2299 -9.23037
-9.2299 -9.23124
-9.2299 -9.2301
-9.2299 -9.23107
-9.2299 -9.23162
-9.2299 -9.22916
-9.2299 -9.23109
-9.2299 -9.23161
-9.2299 -9.23124
-9.2299 -9.23143
-9.2299 -9.23135
-9.2299 -9.23134
-9.2299 -9.23108
-9.2299 -9.23145
-9.2299 -9.23124
-9.2299 -9.23009
-9.2299 -9.23159
-9.2299 -9.23166
-9.2299 -9.23166
-9.12607 -9.12969
-9.18946 -9.19299
-9.0983 -9.10242
-9.08276 -9.08653
-8.84293 -8.8463
-9.01022 -9.01448
-9.16038 -9.16415
-9.01598 -9.01934
-9.03698 -9.04095
-9.11033 -9.11406
-9.22306 -9.21976
-9.2299 -9.22926
-9.17462 -9.17921
-9.22983 -9.22583
-9.2299 -9.22996
-9.22962 -9.22496
-9.2299 -9.2312
-9.2299 -9.22928
-9.22055 -9.21663
-8.8407 -8.84371
-8.53532 -8.52833
-8.14708 -8.16359
-8.72726 -8.7304
-8.45739 -8.47723
-8.61754 -8.62659
-8.7991 -8.80441
-8.95709 -8.96149
-8.24355 -8.25242
-9.2299 -9.23406
-8.3256 -8.33282
-9.1283 -9.13232
-8.68744 -8.68808
-9.09849 -9.0981
-9.06749 -9.07182
-9.16281 -9.16671
-9.09115 -9.09512
-9.05919 -9.0635
-8.69929 -8.70235
-8.73573 -8.74102
-9.07256 -9.06893
-8.90747 -8.90565
-8.81369 -8.81733
-8.91102 -8.90779
-8.89391 -8.88889
-9.06718 -9.06347
-9.17146 -9.18094
-9.1171 -9.12153
-8.83895 -8.84267
-9.07045 -9.06989
-8.87239 -8.87606
-9.06213 -9.06573
-9.09812 -9.10135
-9.07741 -9.08165
-8.8535 -8.85569
-8.94351 -8.94424
-9.12298 -9.12731
-8.33308 -8.32671
-8.97565 -8.97772
-9.05047 -9.05539
-9.1544 -9.15804
-8.87471 -8.87756
-9.14967 -9.15308
-9.0945 -9.09771
-8.89524 -8.90032
-9.03385 -9.03713
-8.96304 -8.96793
-9.07047 -9.07165
-8.93186 -8.93499
-9.12957 -9.12734
-8.95531 -8.95886
-8.9658 -8.95932
-8.88774 -8.89982
-9.14547 -9.14824
-9.08542 -9.09504
-9.19427 -9.19764
-8.84806 -8.85224
-8.90451 -8.90189
-8.99097 -8.99482
-9.00732 -9.01021
-9.0009 -9.00417
-9.03289 -9.03634
-8.98495 -8.98749
-9.05133 -9.05212
-8.93293 -8.93605
-9.01606 -9.01975
-9.03961 -9.04403
-9.07143 -9.07449
-8.86517 -8.86883
-9.02822 -9.03238
-9.11455 -9.11895
-9.05714 -9.06143
-9.08162 -9.08681
-8.96486 -8.96892
-9.15695 -9.15969
-9.06922 -9.07349
-8.83011 -8.83234
-8.98649 -8.99046
-9.12066 -9.12479
-8.83395 -8.83755
-9.00047 -9.00385
-8.97507 -8.97855
-9.12152 -9.12465
-8.91666 -8.92024
-8.91281 -8.91628
-8.97585 -8.97879
-8.8103 -8.81344
-9.1293 -9.13273
-9.05399 -9.05819
-9.22507 -9.22105
-9.14342 -9.14832
-8.96442 -8.96839
-9.0344 -9.03829
-9.05275 -9.05687
-9.16281 -9.16675
-9.2299 -9.23384
-9.2299 -9.23382
-9.2299 -9.23443
-9.2299 -9.23382
-9.2299 -9.23446
-9.2299 -9.23382
-9.2299 -9.23382
-9.22507 -9.22105
-9.2199 -9.21113
-9.21986 -9.21407
-9.22132 -9.21748
-9.22044 -9.21645
-9.22294 -9.21968
-9.22144 -9.21833
-9.22016 -9.21565
-9.22401 -9.22046
-9.2236 -9.22017
-9.21991 -9.21154
-9.22373 -9.2203
-9.22275 -9.21951
-9.2226 -9.21932
-9.22168 -9.21852
-9.22273 -9.21954
-9.2205 -9.2157
-9.22012 -9.21429
-9.22201 -9.21899
-9.21985 -9.21182
-9.22422 -9.22062
-9.21996 -9.2109
-9.2299 -9.22927
-9.2299 -9.22928
-9.2299 -9.2293
-9.2299 -9.22926
-9.2299 -9.22958
-9.2299 -9.2292
-9.2299 -9.22946
-9.2299 -9.2294
-9.2298 -9.22919
-9.2299 -9.22928
-9.22972 -9.22906
-9.2299 -9.22912
-9.2299 -9.22949
-9.2299 -9.2293
-9.2299 -9.22926
-9.2299 -9.22966
-9.2299 -9.22945
-9.22961 -9.2269
-9.22923 -9.22812
-9.22922 -9.22811
-9.22983 -9.22623
-9.229 -9.2233
-9.22977 -9.22638
-9.22978 -9.2261
-9.2298 -9.22749
-9.22983 -9.22726
-9.22961 -9.22744
-9.22974 -9.22627
-9.22945 -9.22771
-9.22901 -9.22332
-9.22919 -9.22813
-9.22922 -9.22811
-9.22976 -9.22711
-9.22944 -9.22768
-9.22966 -9.22673
-9.22961 -9.22743
-9.22969 -9.22731
-9.22989 -9.22614
-9.22952 -9.22725
-9.22901 -9.22331
-9.22947 -9.22453
-9.22983 -9.227
-9.22972 -9.22745
-9.22928 -9.22798
-9.22934 -9.22781
-9.2299 -9.22906
-9.2299 -9.22987
-9.2299 -9.23084
-9.2299 -9.22972
-9.2299 -9.23067
-9.2299 -9.2303
-9.2299 -9.2301
-9.2299 -9.23032
-9.2299 -9.23133
-9.2299 -9.22926
-9.2299 -9.22886
-9.2299 -9.23068
-9.2299 -9.23152
-9.2299 -9.23083
-9.2299 -9.23133
-9.2299 -9.23031
-9.2299 -9.22972
-9.2299 -9.23084
-9.2299 -9.22972
-9.2299 -9.23147
-9.2299 -9.22878
-9.16509 -9.16796
-9.1075 -9.11158
-9.03655 -9.04036
-9.11063 -9.11378
-8.99845 -9.00136
-9.05648 -9.05997
-9.0861 -9.08764
-9.1648 -9.16844
-9.12931 -9.13198
-9.22203 -9.21897
-9.22945 -9.2277
-9.01666 -9.02079
-9.22106 -9.21716
-9.2299 -9.23174
-9.2299 -9.23167
-9.22423 -9.22063
-9.22069 -9.21711
-9.22932 -9.22412
-9.22926 -9.22805
-9.22963 -9.22693
-9.2299 -9.22971
-9.22874 -9.22267
-9.2299 -9.23388
-9.2299 -9.23388
-9.2299 -9.23385
-9.2299 -9.23451
-9.2299 -9.23382
-9.2299 -9.23382
-9.2299 -9.23388
-9.21984 -9.21182
-9.22343 -9.22001
-9.22043 -9.21643
-9.22182 -9.21828
-9.22422 -9.22063
-9.2245 -9.22081
-9.22275 -9.21951
-9.22318 -9.21983
-9.22282 -9.21959
-9.22013 -9.21424
-9.22104 -9.21715
-9.22432 -9.22064
-9.22421 -9.22062
-9.2245 -9.22081
-9.21991 -9.21154
-9.22382 -9.22036
-9.22954 -9.22884
-9.2299 -9.22959
-9.22971 -9.22891
-9.22964 -9.22901
-9.2299 -9.22933
-9.2299 -9.22926
-9.22965 -9.22901
-9.22965 -9.22901
-9.2299 -9.22926
-9.2299 -9.22975
-9.2299 -9.2294
-9.22981 -9.229
-9.2299 -9.22927
-9.2299 -9.22936
-9.2299 -9.22927
-9.2299 -9.22929
-9.22971 -9.2289
-9.2299 -9.22972
-9.2299 -9.22931
-9.22928 -9.22804
-9.22926 -9.22805
-9.22966 -9.22671
-9.22979 -9.2274
-9.2297 -9.22731
-9.22983 -9.22586
-9.22972 -9.22745
-9.22975 -9.22553
-9.22972 -9.22745
-9.22969 -9.22675
-9.22966 -9.22758
-9.22919 -9.22813
-9.2299 -9.23162
-9.2299 -9.23134
-9.2299 -9.23124
-9.2299 -9.23159
-9.2299 -9.23124
-9.2299 -9.23071
-9.2299 -9.23152
-9.2299 -9.23167
-9.2299 -9.22885
-9.2299 -9.23125
-9.2299 -9.23036
-9.2299 -9.23109
-9.2299 -9.22954
-9.2299 -9.22926
-9.2299 -9.23034
-9.2299 -9.23141
-9.00108 -9.00474
-8.99759 -9.00172
-9.1677 -9.17146
-9.12094 -9.12402
-9.14517 -9.14916
-9.1281 -9.13324
-9.11378 -9.11768
-8.96294 -8.96712
-9.2299 -9.22926
-9.22935 -9.22781
-9.22963 -9.22692
-9.2299 -9.22973
-9.17157 -9.17608
-9.22109 -9.21778
-9.22856 -9.22229
-9.2299 -9.23141
-9.22068 -9.21611
-8.61533 -8.60869
-9.0532 -9.05984
-8.42956 -8.43121
-8.83484 -8.82473
-8.83453 -8.83809
-8.7087 -8.71034
-8.87213 -8.87132
-9.15773 -9.16204
-8.49627 -8.48789
-8.96925 -8.97233
-9.02434 -9.01934
-8.95229 -8.95361
-9.04632 -9.03179
-8.95827 -8.96264
-8.63037 -8.62905
-8.94319 -8.94804
-9.07634 -9.07373
-9.01703 -9.02199
-9.2299 -9.23279
-9.07252 -9.0844
-9.21203 -9.19962
-8.75588 -8.76019
-8.82284 -8.81083
-9.20001 -9.2039
-9.15928 -9.16367
-8.95064 -8.93585
-8.81602 -8.82014
-8.96663 -8.9705
-8.95808 -8.9614
-8.80686 -8.80978
-8.87589 -8.87884
-9.08483 -9.06422
-8.79648 -8.80164
-8.82164 -8.8259
-8.70425 -8.70844
-9.17925 -9.18137
-8.88662 -8.88931
-8.97864 -8.98117
-8.90862 -8.89952
-8.97141 -8.97523
-8.76186 -8.76488
-9.0818 -9.08571
-9.13405 -9.13973
-8.94242 -8.9483
-9.16157 -9.16534
-9.09733 -9.10157
-8.97131 -8.97457
-8.91143 -8.91453
-9.18353 -9.18706
-9.07501 -9.07898
-9.02684 -9.00873
-9.04746 -9.05204
-9.1299 -9.13308
-8.89788 -8.90009
-9.02417 -9.02913
-8.9838 -8.98585
-8.96049 -8.96431
-9.2299 -9.23383
-9.22848 -9.22202
-9.01765 -9.01507
-9.07223 -9.07587
-9.1742 -9.17765
-9.11953 -9.12328
-8.88679 -8.8902
-9.09633 -9.10079
-9.03823 -9.04218
-9.01231 -9.017
-8.90422 -8.90717
-9.05742 -9.06101
-9.099 -9.10298
-9.10705 -9.11037
-9.2299 -9.23386
-9.01178 -9.0158
-8.83777 -8.84092
-9.10291 -9.10638
-8.81194 -8.81593
-8.79115 -8.79501
-9.00758 -9.01054
-9.11389 -9.11744
-9.2299 -9.22936
-9.02972 -9.03342
-9.12877 -9.13256
-9.05601 -9.05892
-8.90963 -8.91244
-8.98512 -8.98827
-9.17122 -9.17621
-9.2299 -9.23441
-9.2299 -9.23421
-9.2299 -9.23388
-9.2299 -9.23384
-9.2299 -9.23381
-9.224 -9.22047
-9.22057 -9.2166
-9.21984 -9.21331
-9.22121 -9.21765
-9.22203 -9.21897
-9.22023 -9.21476
-9.22172 -9.21835
-9.22282 -9.21961
-9.22064 -9.21627
-9.22012 -9.21427
-9.22014 -9.2098
-9.2225 -9.21934
-9.22363 -9.22021
-9.22013 -9.21565
-9.21989 -9.21207
-9.21986 -9.2118
-9.22365 -9.22019
-9.21999 -9.2106
-9.22431 -9.22068
-9.2299 -9.22964
-9.2299 -9.2294
-9.2299 -9.22927
-9.2299 -9.22927
-9.2299 -9.22926
-9.2299 -9.22926
-9.2299 -9.22959
-9.22989 -9.22924
-9.2299 -9.22928
-9.2299 -9.22926
-9.2299 -9.22918
-9.22989 -9.2292
-9.2299 -9.22955
-9.2299 -9.22933
-9.22978 -9.22891
-9.2299 -9.22959
-9.22965 -9.22901
-9.2299 -9.22928
-9.2299 -9.22961
-9.22989 -9.22917
-9.22885 -9.22296
-9.22874 -9.22267
-9.22982 -9.22656
-9.22963 -9.22693
-9.22975 -9.22627
-9.22962 -9.22495
-9.22966 -9.22758
-9.22947 -9.22743
-9.22952 -9.22743
-9.22879 -9.22285
-9.22954 -9.22762
-9.22862 -9.22243
-9.22945 -9.22771
-9.22976 -9.2271
-9.22945 -9.2277
-9.22923 -9.22385
-9.22979 -9.22741
-9.22979 -9.22741
-9.22987 -9.22647
-9.22984 -9.22574
-9.22936 -9.22421
-9.22924 -9.22388
-9.2296 -9.22726
-9.22968 -9.22702
-9.22931 -9.22796
-9.22979 -9.22739
-9.2299 -9.23133
-9.2299 -9.2308
-9.2299 -9.23066
-9.2299 -9.23055
-9.2299 -9.23042
-9.2299 -9.23112
-9.2299 -9.22925
-9.2299 -9.23053
-9.2299 -9.23127
-9.2299 -9.22935
-9.2299 -9.23125
-9.2299 -9.23119
-9.2299 -9.23067
-9.2299 -9.22926
-9.2299 -9.23083
-9.2299 -9.23071
-9.2299 -9.22946
-9.2299 -9.22873
-9.17832 -9.18237
-9.11568 -9.11986
-9.09381 -9.09621
-9.2299 -9.22962
-9.01101 -9.01475
-9.2299 -9.23148
-9.22359 -9.22017
-9.2299 -9.23099
-8.96864 -8.97217
-9.2299 -9.23141
-9.22001 -9.21488
-9.2298 -9.22751
-9.22953 -9.22742
-9.2299 -9.22926
-9.2299 -9.2339
-9.2299 -9.23387
-9.2299 -9.23421
-9.2299 -9.22971
-9.2299 -9.23406
-9.2299 -9.23384
-9.2299 -9.23384
-9.2299 -9.23385
-9.22068 -9.21611
-9.22007 -9.21444
-9.21993 -9.21354
-9.22484 -9.22096
-9.22275 -9.21952
-9.21978 -9.21251
-9.22001 -9.2149
-9.22069 -9.21609
-9.22341 -9.22003
-9.22108 -9.21777
-9.22107 -9.21777
-9.22249 -9.21933
-9.22423 -9.22063
-9.22433 -9.22064
-9.21996 -9.21087
-9.21986 -9.21406
-9.21983 -9.21329
-9.21983 -9.21332
-9.21985 -9.21183
-9.21979 -9.2125
-9.22055 -9.21662
-9.22249 -9.21931
-9.2299 -9.22959
-9.2299 -9.22928
-9.22965 -9.22901
-9.2299 -9.22926
-9.2299 -9.22912
-9.2299 -9.22936
-9.2299 -9.22908
-9.2299 -9.22927
-9.2299 -9.22939
-9.2299 -9.22925
-9.2299 -9.22927
-9.2299 -9.22922
-9.2299 -9.22972
-9.22972 -9.22891
-9.2299 -9.22928
-9.2299 -9.22936
-9.2299 -9.22927
-9.2299 -9.22951
-9.2299 -9.2293
-9.2299 -9.22925
-9.2299 -9.2295
-9.2299 -9.22927
-9.2299 -9.22928
-9.2299 -9.22935
-9.22978 -9.2289
-9.2299 -9.22926
-9.2299 -9.22926
-9.22976 -9.22607
-9.22953 -9.2247
-9.22939 -9.22789
-9.229 -9.2233
-9.22976 -9.22711
-9.22945 -9.2277
-9.22987 -9.22678
-9.22983 -9.22585
-9.22968 -9.22701
-9.22982 -9.22655
-9.22987 -9.22645
-9.22885 -9.22297
-9.2299 -9.23141
-9.2299 -9.23125
-9.2299 -9.23135
-9.2299 -9.23091
-9.2299 -9.23049
-9.2299 -9.23099
-9.2299 -9.22895
-9.2299 -9.23148
-9.2299 -9.23054
-9.2299 -9.231
-9.2299 -9.2308
-9.2299 -9.231
-9.2299 -9.22996
-9.2299 -9.23169
-9.14046 -9.14435
-8.99856 -9.0021
-9.10576 -9.11012
-9.09554 -9.10011
-9.15437 -9.15917
-9.14605 -9.14981
-9.15345 -9.15702
-9.16862 -9.17224
-9.1964 -9.1996
-9.2299 -9.22949
-9.2299 -9.22926
-9.22989 -9.22923
-9.22895 -9.22314
-9.2299 -9.22933
-9.22953 -9.2247
-9.2299 -9.23141
-9.2299 -9.23125
-9.2299 -9.23125
-9.2299 -9.23425
-8.59381 -8.60012
-8.40019 -8.40289
-8.88609 -8.89556
-8.29066 -8.29005
-8.62557 -8.6116
-8.82959 -8.82854
-9.03629 -9.04523
-8.80294 -8.79968
-9.10694 -9.11038
-8.78169 -8.78573
-8.94349 -8.96461
-8.91359 -8.91876
-9.02567 -9.00891
-8.93705 -8.92985
-8.62795 -8.63098
-8.79432 -8.79777
-8.76265 -8.76793
-8.82081 -8.82833
-8.47227 -8.46611
-8.99723 -8.97917
-8.98932 -8.99348
-8.77049 -8.77348
-9.00302 -9.00068
-8.86837 -8.8595
-8.83057 -8.82982
-8.83212 -8.83584
-9.04283 -9.04124
-8.96791 -8.9691
-8.9691 -8.96179
-9.02012 -9.02419
-8.91928 -8.92268
-8.90874 -8.91251
-9.17642 -9.17267
-9.17653 -9.18113
-9.1079 -9.10622
-9.03511 -9.0401
-8.90853 -8.91185
-9.09997 -9.10395
-8.98026 -8.98339
-9.10705 -9.11035
-9.16125 -9.1657
-8.936 -8.93914
-9.20222 -9.20622
-8.82683 -8.82981
-9.09102 -9.09529
-8.86046 -8.86228
-9.2299 -9.23394
-9.13912 -9.14257
-9.10028 -9.10427
-9.01136 -9.01516
-9.05602 -9.06032
-8.75952 -8.76252
-8.89393 -8.89766
-8.91308 -8.91663
-9.03239 -9.03955
-9.07086 -9.07459
-9.04286 -9.04624
-9.15533 -9.15936
-8.98316 -8.98673
-9.04659 -9.05007
-9.06823 -9.07217
-9.22968 -9.22701
-8.98365 -8.9868
-8.96575 -8.96994
-9.13852 -9.14268
-8.99738 -9.002
-9.11597 -9.11995
-9.15472 -9.1599
-8.90628 -8.9102
-9.06394 -9.06874
-8.9768 -8.98087
-9.04717 -9.05109
-9.11781 -9.12194
-9.12902 -9.13276
-9.01402 -9.01796
-8.95718 -8.96055
-8.90605 -8.91022
-9.04106 -9.04534
-9.0225 -9.02657
-9.06052 -9.06355
-9.11501 -9.11882
-9.06512 -9.06855
-9.22919 -9.22813
-9.2299 -9.23402
-9.2299 -9.23382
-9.21404 -9.2133
-9.2299 -9.23397
-9.2299 -9.23394
-9.2299 -9.23387
-9.2299 -9.23382
-9.2299 -9.23382
-9.22021 -9.20953
-9.22248 -9.21934
-9.22195 -9.2188
-9.22055 -9.21661
-9.22206 -9.21869
-9.22272 -9.21954
-9.22051 -9.21572
-9.22123 -9.21763
-9.22106 -9.21779
-9.22057 -9.21659
-9.22359 -9.22018
-9.21994 -9.21353
-9.22382 -9.22036
-9.22266 -9.21933
-9.21996 -9.21089
-9.22007 -9.21444
-9.22195 -9.21881
-9.22108 -9.21777
-9.22338 -9.22009
-9.2212 -9.21763
-9.22276 -9.21961
-9.22015 -9.21564
-9.22068 -9.21714
-9.22359 -9.22018
-9.22266 -9.21932
-9.22989 -9.22917
-9.22989 -9.22924
-9.22989 -9.22925
-9.2299 -9.22929
-9.2299 -9.22933
-9.2299 -9.22926
-9.2299 -9.22928
-9.2299 -9.22961
-9.2299 -9.22931
-9.22964 -9.22901
-9.2299 -9.22936
-9.2299 -9.22946
-9.2299 -9.22929
-9.2299 -9.22926
-9.2299 -9.22927
-9.2299 -9.22925
-9.22989 -9.22924
-9.2299 -9.22941
-9.22978 -9.22611
-9.22923 -9.22812
-9.22987 -9.22645
-9.22931 -9.22796
-9.2296 -9.22726
-9.22931 -9.22796
-9.22975 -9.22553
-9.22978 -9.22754
-9.229 -9.2233
-9.22983 -9.22583
-9.22957 -9.22764
-9.22982 -9.22654
-9.22931 -9.22795
-9.2297 -9.22756
-9.2299 -9.23148
-9.2299 -9.23147
-9.2299 -9.23098
-9.2299 -9.23054
-9.2299 -9.23141
-9.2299 -9.2312
-9.2299 -9.23146
-9.2299 -9.23151
-9.2299 -9.23133
-9.2299 -9.23009
-9.2299 -9.23083
-9.2299 -9.23037
-9.2299 -9.23136
-8.98557 -8.98842
-9.00478 -9.00829
-9.18972 -9.19421
-9.01848 -9.02266
-9.05876 -9.06281
-9.06122 -9.06488
-9.0388 -9.04304
-8.95863 -8.96233
-9.04152 -9.04554
-8.92584 -8.92853
-8.90115 -8.9046
-9.10754 -9.11159
-9.22056 -9.21658
-9.22931 -9.22796
-9.22987 -9.22645
-9.22959 -9.22485
-9.2212 -9.21791
-9.2299 -9.23388
-9.22951 -9.22776
-9.2299 -9.23384
-9.2299 -9.23389
-9.2299 -9.23382
-9.2299 -9.23388
-9.22507 -9.22105
-9.2299 -9.23387
-9.2299 -9.23385
-9.2299 -9.23382
-9.2299 -9.2344
-9.2299 -9.23387
-9.22431 -9.22068
-9.21985 -9.21182
-9.22254 -9.21941
-9.21993 -9.21353
-9.22364 -9.22019
-9.22096 -9.21736
-9.21985 -9.2141
-9.22422 -9.22063
-9.22008 -9.21445
-9.21984 -9.21181
-9.22361 -9.22017
-9.22105 -9.21778
-9.2238 -9.22035
-9.22507 -9.22105
-9.2299 -9.22945
-9.22977 -9.22891
-9.22964 -9.22901
-9.22988 -9.22925
-9.2299 -9.22926
-9.2299 -9.22927
-9.2299 -9.22936
-9.2299 -9.22938
-9.2299 -9.22914
-9.2298 -9.22919
-9.22978 -9.22894
-9.2299 -9.22925
-9.2299 -9.22936
-9.2299 -9.22968
-9.22971 -9.22889
-9.22975 -9.22553
-9.2292 -9.2282
-9.22944 -9.22767
-9.2295 -9.22459
-9.22961 -9.22742
-9.22978 -9.22613
-9.22936 -9.22422
-9.22935 -9.22781
-9.2292 -9.2282
-9.22856 -9.22228
-9.22914 -9.22368
-9.2297 -9.22756
-9.22962 -9.22494
-9.2295 -9.22461
-9.22931 -9.22795
-9.22978 -9.22753
-9.22952 -9.22774
-9.22919 -9.22813
-9.2299 -9.23066
-9.2299 -9.23158
-9.2299 -9.23126
-9.2299 -9.2301
-9.2299 -9.23135
-9.2299 -9.23109
-9.2299 -9.23151
-9.2299 -9.23147
-9.2299 -9.23169
-9.2299 -9.23154
-9.2299 -9.23119
-9.2299 -9.23133
-9.2299 -9.23133
-9.2299 -9.23083
-9.2299 -9.23161
-9.2299 -9.23109
-9.2299 -9.23169
-9.06527 -9.06994
-9.13953 -9.14313
-9.14002 -9.14467
-9.07943 -9.08365
-9.06532 -9.06941
-9.04325 -9.04718
-9.10166 -9.10566
-9.05296 -9.05729
-9.22987 -9.22646
-9.21989 -9.21113
-9.22972 -9.22536
-9.03402 -9.04007
-9.2299 -9.22922
-9.2299 -9.22878
-9.22002 -9.21493
-9.22358 -9.22018
-9.2299 -9.23436
-9.15851 -9.16192
-9.13176 -9.13556
-9.22954 -9.22726
-9.22103 -9.21714
-9.22957 -9.22763
-9.2299 -9.23148
-9.2299 -9.23388
-9.05094 -9.04929
-9.02867 -9.02519
-9.04685 -9.05242
-9.13987 -9.14311
-9.15214 -9.15191
-9.02387 -9.02299
-9.19841 -9.19828
-9.19856 -9.19818
-9.19503 -9.19361
-9.19152 -9.19118
-9.1926 -9.19186
-9.19267 -9.1925
-9.19213 -9.1902
-9.18473 -9.18324
-9.19347 -9.19169
-9.18856 -9.18708
-9.16152 -9.16112
-9.17078 -9.171
-9.16185 -9.16466
-9.16465 -9.1633
-9.15938 -9.15892
-9.16489 -9.16605
-9.11138 -9.11078
-9.11211 -9.1139
-9.1343 -9.13286
-9.1077 -9.10736
-9.12255 -9.12379
-9.11645 -9.11605
-9.11408 -9.11236
-9.12197 -9.12276
-9.08591 -9.08542
-9.06451 -9.06469
-9.07639 -9.07404
-9.07187 -9.06993
-9.09784 -9.09965
-9.09655 -9.09757
-9.08014 -9.0798
-9.09384 -9.08968
-9.05453 -9.0536
-9.07557 -9.07548
-9.01645 -9.01936
-9.03904 -9.03773
-9.04082 -9.04377
-9.05212 -9.04994
-9.05452 -9.05345
-9.16577 -9.1632
-9.11865 -9.11877
-9.10855 -9.10841
-9.12498 -9.12459
-9.13755 -9.13615
-9.19664 -9.19477
-9.08178 -9.08673
-9.11154 -9.111
-9.04993 -9.0511
-9.12326 -9.12308
-9.19537 -9.19393
-9.19271 -9.19275
-9.19298 -9.1923
-9.19356 -9.19179
-9.19683 -9.19561
-9.19653 -9.19475
-9.19423 -9.19307
-9.19286 -9.19111
-9.19094 -9.18951
-9.16111 -9.15948
-9.16259 -9.16308
-9.15873 -9.15718
-9.14475 -9.143
-9.15861 -9.15736
-9.15145 -9.15511
-9.15427 -9.15469
-9.15513 -9.15524
-9.16535 -9.16586
-9.10977 -9.10957
-9.1207 -9.11915
-9.11164 -9.11356
-9.1146 -9.11731
-9.13036 -9.1294
-9.10841 -9.1085
-9.11491 -9.11709
-9.05451 -9.05896
-9.10475 -9.10606
-9.07851 -9.07852
-9.10036 -9.09986
-9.07835 -9.08125
-9.08925 -9.08855
-9.04063 -9.04175
-9.03963 -9.04162
-9.05549 -9.05799
-9.06847 -9.06657
-9.04276 -9.04307
-9.06967 -9.07247
-9.06568 -9.07013
-9.07257 -9.06875
-9.06607 -9.06456
-9.18655 -9.18485
-9.15181 -9.15443
-9.19275 -9.19151
-9.14578 -9.14408
-9.03762 -9.03994
-9.18555 -9.18335
-9.05369 -9.05156
-9.10658 -9.10833
-9.15747 -9.15306
-9.18816 -9.18625
-9.19112 -9.19113
-9.19106 -9.18905
-9.19003 -9.18773
-9.1842 -9.18289
-9.14631 -9.14693
-9.14656 -9.14503
-9.15211 -9.15078
-9.16397 -9.16272
-9.15528 -9.15784
-9.11894 -9.11756
-9.09842 -9.09513
-9.11972 -9.11838
-9.11341 -9.11441
-9.13397 -9.13297
-9.11673 -9.1148
-9.13889 -9.14023
-9.14377 -9.14102
-9.0809 -9.07884
-9.08242 -9.08541
-9.08255 -9.08158
-9.03871 -9.03915
-9.02662 -9.02677
-9.05619 -9.05681
-9.16714 -9.16788
-9.05998 -9.05908
-9.11053 -9.11062
-9.09193 -9.09221
-9.19523 -9.19484
-9.09562 -9.09394
-9.04252 -9.0451
-9.19365 -9.19354
-9.18778 -9.18718
-9.1869 -9.18503
-9.18758 -9.18585
-9.19321 -9.19252
-9.19284 -9.19267
-9.19542 -9.19381
-9.18701 -9.18643
-9.1933 -9.19252
-9.19107 -9.1903
-9.16185 -9.16184
-9.15648 -9.15681
-9.16307 -9.16175
-9.1643 -9.16519
-9.15499 -9.15272
-9.15998 -9.16195
-9.15499 -9.15422
-9.16453 -9.16505
-9.15461 -9.15675
-9.16868 -9.1695
-9.15189 -9.15325
-9.1525 -9.15501
-9.16096 -9.15919
-9.14763 -9.14534
-9.16519 -9.16268
-9.12146 -9.12101
-9.10919 -9.1082
-9.11827 -9.11727
-9.13097 -9.12899
-9.10113 -9.10079
-9.125 -9.12466
-9.11848 -9.12001
-9.13056 -9.12926
-9.09235 -9.09493
-9.07144 -9.0707
-9.07902 -9.07863
-9.08925 -9.09374
-9.10587 -9.10276
-9.07273 -9.07267
-9.10936 -9.11127
-9.10236 -9.10507
-9.07844 -9.07675
-9.03051 -9.02826
-9.05314 -9.05222
-9.07523 -9.07479
-9.05734 -9.0555
-9.06433 -9.068
-9.06887 -9.07217
-9.13919 -9.13872
-9.0686 -9.06796
-8.99016 -8.99573
-9.12215 -9.12055
-9.08913 -9.09246
-9.19376 -9.19347
-9.08352 -9.08584
-9.15493 -9.15511
-9.05154 -9.04807
-9.06939 -9.07303
-9.1179 -9.11538
-9.07192 -9.07469
-9.06979 -9.06772
-9.08218 -9.08303
-9.19443 -9.19353
-9.19337 -9.19217
-9.18822 -9.18695
-9.19381 -9.19271
-9.19003 -9.18941
-9.18944 -9.18918
-9.19147 -9.19041
-9.18706 -9.18641
-9.15746 -9.15616
-9.14816 -9.14821
-9.15737 -9.15782
-9.15353 -9.15367
-9.15669 -9.15707
-9.15374 -9.15274
-9.16575 -9.1661
-9.15427 -9.15528
-9.11262 -9.1102
-9.11068 -9.11058
-9.11069 -9.10815
-9.11126 -9.11147
-9.0977 -9.09805
-9.11931 -9.11961
-9.11658 -9.11526
-9.0922 -9.0954
-9.09982 -9.10255
-9.08083 -9.08134
-9.09852 -9.09966
-9.10298 -9.10189
-9.0565 -9.05507
-9.11436 -9.11406
-9.08868 -9.09072
-9.09143 -9.09227
-9.07355 -9.07677
-9.04767 -9.0476
-9.04707 -9.0447
-9.07162 -9.07216
-9.02346 -9.02728
-9.06793 -9.06569
-9.06403 -9.06721
-9.06627 -9.0632
-9.19683 -9.19629
-9.1398 -9.13746
-9.19359 -9.19144
-9.12515 -9.1229
-9.03996 -9.04107
-9.04325 -9.04169
-9.06434 -9.06446
-9.05556 -9.05458
-9.15705 -9.15984
-9.19469 -9.19467
-9.19344 -9.19207
-9.18763 -9.1872
-9.18937 -9.18861
-9.19028 -9.18988
-9.19405 -9.19193
-9.18959 -9.1882
-9.18861 -9.18764
-9.14962 -9.15058
-9.15786 -9.15644
-9.15496 -9.15342
-9.15886 -9.15508
-9.15785 -9.15692
-9.11272 -9.11148
-9.12337 -9.12182
-9.12256 -9.12414
-9.12386 -9.12194
-9.10478 -9.10438
-9.12643 -9.12692
-9.12907 -9.12836
-9.1119 -9.11284
-9.14299 -9.14184
-9.06742 -9.06816
-9.07687 -9.07992
-9.08282 -9.08002
-9.07319 -9.07531
-9.10863 -9.11149
-9.08325 -9.08338
-9.08069 -9.07771
-9.10606 -9.10694
-9.08793 -9.08836
-9.08193 -9.0807
-9.07497 -9.07658
-9.11675 -9.11931
-9.0501 -9.04911
-9.04995 -9.0494
-9.04959 -9.04846
-9.07362 -9.07442
-9.03779 -9.03679
-9.08401 -9.08571
-9.11837 -9.11684
-9.05751 -9.05834
-9.19309 -9.19213
-9.08042 -9.07968
-9.08422 -9.0824
-9.01537 -9.02191
-9.04639 -9.04349
-9.15441 -9.15609
-9.08105 -9.08298
-9.18656 -9.18473
-9.19202 -9.19094
-9.18587 -9.18507
-9.19156 -9.19088
-9.1956 -9.19466
-9.19266 -9.19094
-9.19402 -9.19256
-9.19135 -9.19056
-9.19471 -9.19292
-9.18991 -9.18912
-9.185 -9.18466
-9.15375 -9.15297
-9.16354 -9.16588
-9.14328 -9.14286
-9.1539 -9.15288
-9.15983 -9.1624
-9.15934 -9.1598
-9.1695 -9.16807
-9.12526 -9.12554
-9.11059 -9.11023
-9.11376 -9.11174
-9.1296 -9.13077
-9.15587 -9.15407
-9.10671 -9.10577
-9.0913 -9.09203
-9.08037 -9.08057
-9.05922 -9.06004
-9.08871 -9.09184
-9.04451 -9.04532
-9.05702 -9.05909
-9.04347 -9.04075
-9.04851 -9.04757
-9.05323 -9.05491
-9.04733 -9.04649
-9.0437 -9.04309
-9.05809 -9.05656
-9.07569 -9.07481
-9.00845 -9.00958
-9.16146 -9.16291
-9.14295 -9.1415
-9.04908 -9.04937
-9.19095 -9.18882
-9.00113 -9.00542
-9.19656 -9.19656
-9.19924 -9.19915
-9.18626 -9.18573
-9.1917 -9.18998
-9.19607 -9.19438
-9.19671 -9.1955
-9.18956 -9.18867
-9.19494 -9.19369
-9.18516 -9.18355
-9.19745 -9.19544
-9.19237 -9.1918
-9.16533 -9.16474
-9.16803 -9.16864
-9.16658 -9.16804
-9.13844 -9.14
-9.15818 -9.15597
-9.15554 -9.15397
-9.15902 -9.16003
-9.13792 -9.13534
-9.10855 -9.10967
-9.138 -9.13692
-9.11801 -9.1164
-9.12487 -9.12484
-9.10032 -9.09862
-9.12697 -9.12815
-9.11161 -9.11081
-9.1432 -9.1434
-9.13398 -9.13351
-9.11545 -9.1168
-9.08581 -9.08869
-9.08187 -9.08511
-9.0703 -9.06976
-9.08738 -9.08533
-9.10014 -9.10427
-9.10973 -9.10907
-9.06312 -9.06642
-9.0791 -9.08112
-9.08053 -9.08121
-9.06003 -9.0584
-9.03641 -9.03455
-9.06221 -9.06201
-9.05507 -9.05246
-9.04621 -9.04568
-9.04047 -9.04141
-9.03207 -9.02941
-9.04328 -9.04239
-9.15234 -9.15184
-9.16136 -9.15944
-9.19305 -9.19109
-9.04937 -9.04807
-9.18503 -9.18337
-9.05769 -9.06026
-9.14186 -9.13951
-8.99411 -8.99783
-9.05896 -9.05829
-9.09232 -9.09625
-9.19165 -9.19053
-9.19748 -9.19616
-9.19014 -9.18828
-9.19163 -9.19069
-9.19257 -9.1903
-9.18857 -9.1868
-9.19033 -9.18931
-9.15134 -9.15243
-9.14427 -9.14292
-9.17125 -9.17257
-9.14864 -9.14844
-9.14069 -9.14325
-9.16193 -9.15803
-9.15803 -9.15517
-9.16222 -9.16303
-9.13483 -9.13564
-9.11647 -9.11648
-9.1112 -9.1108
-9.13733 -9.13713
-9.11857 -9.11822
-9.11062 -9.11283
-9.10842 -9.10801
-9.12095 -9.1199
-9.12126 -9.11932
-9.12853 -9.12985
-9.12932 -9.12981
-9.11574 -9.11678
-9.10669 -9.10801
-9.11352 -9.11259
-9.1201 -9.12217
-9.08486 -9.0874
-9.05751 -9.05517
-9.07911 -9.07712
-9.06867 -9.06822
-9.10433 -9.10358
-9.11813 -9.11674
-9.10096 -9.10216
-9.07961 -9.07765
-9.08352 -9.08762
-9.09244 -9.09674
-9.11031 -9.10795
-9.03332 -9.03317
-9.07078 -9.07326
-9.02093 -9.0195
-9.07528 -9.07455
-9.05926 -9.06161
-9.07117 -9.0688
-9.02646 -9.02656
-9.06317 -9.05935
-9.03839 -9.0371
-9.05638 -9.05793
-9.03012 -9.03054
-9.08689 -9.08496
-9.19096 -9.18869
-9.15989 -9.15865
-9.08641 -9.08514
-9.15817 -9.15712
-9.03423 -9.03677
-9.15601 -9.15872
-9.03463 -9.03399
-9.04617 -9.04432
-9.01831 -9.01688
-9.05473 -9.05252
-9.04124 -9.04204
-9.12735 -9.12534
-9.12053 -9.12025
-9.09137 -9.08799
-9.18978 -9.18813
-9.18642 -9.18631
-9.1936 -9.19271
-9.19195 -9.19073
-9.19021 -9.18876
-9.19596 -9.19444
-9.185 -9.18364
-9.19631 -9.19544
-9.1428 -9.14545
-9.14981 -9.15164
-9.16233 -9.16542
-9.14925 -9.15138
-9.15661 -9.15494
-9.16509 -9.16371
-9.16315 -9.16292
-9.1548 -9.15446
-9.15555 -9.15446
-9.15088 -9.1463
-9.1601 -9.16154
-9.12029 -9.11754
-9.14383 -9.14399
-9.14059 -9.13933
-9.10338 -9.10276
-9.11992 -9.11982
-9.12982 -9.12973
-9.10769 -9.10664
-9.12609 -9.12712
-9.13081 -9.13225
-9.07551 -9.07875
-9.09479 -9.09705
-9.06423 -9.06432
-9.08355 -9.08581
-9.0902 -9.09227
-9.09519 -9.09538
-9.07063 -9.07407
-9.05793 -9.05958
-9.02928 -9.03023
-9.06797 -9.06572
-9.04024 -9.04343
-9.05999 -9.06275
-9.0623 -9.06036
